#1
double table(24,15)
0.000000000000000000e+00 3.176148018648018478e+02 3.176148018648018478e+02 3.176148018648018478e+02 3.176148018648018478e+02 3.176148018648018478e+02 2.950288461538461888e+02 2.950288461538461888e+02 3.176148018648018478e+02 3.176148018648018478e+02 3.176148018648018478e+02 3.176148018648018478e+02 3.176148018648018478e+02 2.950288461538461888e+02 2.950288461538461888e+02
3.600000000000000000e+03 2.912409090909090992e+02 2.912409090909090992e+02 2.912409090909090992e+02 2.912409090909090992e+02 2.912409090909090992e+02 4.675576923076923208e+02 4.675576923076923208e+02 2.912409090909090992e+02 2.912409090909090992e+02 2.912409090909090992e+02 2.912409090909090992e+02 2.912409090909090992e+02 4.675576923076923208e+02 4.675576923076923208e+02
7.200000000000000000e+03 2.733747086247086600e+02 2.733747086247086600e+02 2.733747086247086600e+02 2.733747086247086600e+02 2.733747086247086600e+02 4.711410256410256352e+02 4.711410256410256352e+02 2.733747086247086600e+02 2.733747086247086600e+02 2.733747086247086600e+02 2.733747086247086600e+02 2.733747086247086600e+02 4.711410256410256352e+02 4.711410256410256352e+02
1.080000000000000000e+04 2.603780885780885797e+02 2.603780885780885797e+02 2.603780885780885797e+02 2.603780885780885797e+02 2.603780885780885797e+02 3.586923076923076792e+02 3.586923076923076792e+02 2.603780885780885797e+02 2.603780885780885797e+02 2.603780885780885797e+02 2.603780885780885797e+02 2.603780885780885797e+02 3.586923076923076792e+02 3.586923076923076792e+02
1.440000000000000000e+04 2.212272727272726911e+02 2.212272727272726911e+02 2.212272727272726911e+02 2.212272727272726911e+02 2.212272727272726911e+02 2.521185897435897232e+02 2.521185897435897232e+02 2.212272727272726911e+02 2.212272727272726911e+02 2.212272727272726911e+02 2.212272727272726911e+02 2.212272727272726911e+02 2.521185897435897232e+02 2.521185897435897232e+02
1.800000000000000000e+04 2.014499999999999886e+02 2.014499999999999886e+02 2.014499999999999886e+02 2.014499999999999886e+02 2.014499999999999886e+02 2.019038461538461604e+02 2.019038461538461604e+02 2.014499999999999886e+02 2.014499999999999886e+02 2.014499999999999886e+02 2.014499999999999886e+02 2.014499999999999886e+02 2.019038461538461604e+02 2.019038461538461604e+02
2.160000000000000000e+04 1.940131701631701731e+02 1.940131701631701731e+02 1.940131701631701731e+02 1.940131701631701731e+02 1.940131701631701731e+02 1.844775641025640880e+02 1.844775641025640880e+02 1.940131701631701731e+02 1.940131701631701731e+02 1.940131701631701731e+02 1.940131701631701731e+02 1.940131701631701731e+02 1.844775641025640880e+02 1.844775641025640880e+02
2.520000000000000000e+04 1.816039627039627078e+02 1.816039627039627078e+02 1.816039627039627078e+02 1.816039627039627078e+02 1.816039627039627078e+02 1.718750000000000000e+02 1.718750000000000000e+02 1.816039627039627078e+02 1.816039627039627078e+02 1.816039627039627078e+02 1.816039627039627078e+02 1.816039627039627078e+02 1.718750000000000000e+02 1.718750000000000000e+02
2.880000000000000000e+04 1.659081585081585217e+02 1.659081585081585217e+02 1.659081585081585217e+02 1.659081585081585217e+02 1.659081585081585217e+02 1.564166666666666856e+02 1.564166666666666856e+02 1.659081585081585217e+02 1.659081585081585217e+02 1.659081585081585217e+02 1.659081585081585217e+02 1.659081585081585217e+02 1.564166666666666856e+02 1.564166666666666856e+02
3.240000000000000000e+04 1.596277389277389034e+02 1.596277389277389034e+02 1.596277389277389034e+02 1.596277389277389034e+02 1.596277389277389034e+02 1.473525641025640880e+02 1.473525641025640880e+02 1.596277389277389034e+02 1.596277389277389034e+02 1.596277389277389034e+02 1.596277389277389034e+02 1.596277389277389034e+02 1.473525641025640880e+02 1.473525641025640880e+02
3.600000000000000000e+04 2.253836829836830020e+02 2.253836829836830020e+02 2.253836829836830020e+02 2.253836829836830020e+02 2.253836829836830020e+02 1.636185897435897516e+02 1.636185897435897516e+02 2.253836829836830020e+02 2.253836829836830020e+02 2.253836829836830020e+02 2.253836829836830020e+02 2.253836829836830020e+02 1.636185897435897516e+02 1.636185897435897516e+02
3.960000000000000000e+04 2.353940559440559355e+02 2.353940559440559355e+02 2.353940559440559355e+02 2.353940559440559355e+02 2.353940559440559355e+02 1.725961538461538396e+02 1.725961538461538396e+02 2.353940559440559355e+02 2.353940559440559355e+02 2.353940559440559355e+02 2.353940559440559355e+02 2.353940559440559355e+02 1.725961538461538396e+02 1.725961538461538396e+02
4.320000000000000000e+04 2.106638694638694744e+02 2.106638694638694744e+02 2.106638694638694744e+02 2.106638694638694744e+02 2.106638694638694744e+02 1.890673076923076792e+02 1.890673076923076792e+02 2.106638694638694744e+02 2.106638694638694744e+02 2.106638694638694744e+02 2.106638694638694744e+02 2.106638694638694744e+02 1.890673076923076792e+02 1.890673076923076792e+02
4.680000000000000000e+04 2.104384615384615245e+02 2.104384615384615245e+02 2.104384615384615245e+02 2.104384615384615245e+02 2.104384615384615245e+02 1.575352564102564088e+02 1.575352564102564088e+02 2.104384615384615245e+02 2.104384615384615245e+02 2.104384615384615245e+02 2.104384615384615245e+02 2.104384615384615245e+02 1.575352564102564088e+02 1.575352564102564088e+02
5.040000000000000000e+04 2.160650349650349540e+02 2.160650349650349540e+02 2.160650349650349540e+02 2.160650349650349540e+02 2.160650349650349540e+02 1.641955128205128176e+02 1.641955128205128176e+02 2.160650349650349540e+02 2.160650349650349540e+02 2.160650349650349540e+02 2.160650349650349540e+02 2.160650349650349540e+02 1.641955128205128176e+02 1.641955128205128176e+02
5.400000000000000000e+04 2.166636363636363853e+02 2.166636363636363853e+02 2.166636363636363853e+02 2.166636363636363853e+02 2.166636363636363853e+02 1.775224358974359120e+02 1.775224358974359120e+02 2.166636363636363853e+02 2.166636363636363853e+02 2.166636363636363853e+02 2.166636363636363853e+02 2.166636363636363853e+02 1.775224358974359120e+02 1.775224358974359120e+02
5.760000000000000000e+04 2.165606060606060623e+02 2.165606060606060623e+02 2.165606060606060623e+02 2.165606060606060623e+02 2.165606060606060623e+02 1.564551282051282044e+02 1.564551282051282044e+02 2.165606060606060623e+02 2.165606060606060623e+02 2.165606060606060623e+02 2.165606060606060623e+02 2.165606060606060623e+02 1.564551282051282044e+02 1.564551282051282044e+02
6.120000000000000000e+04 1.952588578088578402e+02 1.952588578088578402e+02 1.952588578088578402e+02 1.952588578088578402e+02 1.952588578088578402e+02 1.737147435897435912e+02 1.737147435897435912e+02 1.952588578088578402e+02 1.952588578088578402e+02 1.952588578088578402e+02 1.952588578088578402e+02 1.952588578088578402e+02 1.737147435897435912e+02 1.737147435897435912e+02
6.480000000000000000e+04 2.164543123543123215e+02 2.164543123543123215e+02 2.164543123543123215e+02 2.164543123543123215e+02 2.164543123543123215e+02 1.974775641025640880e+02 1.974775641025640880e+02 2.164543123543123215e+02 2.164543123543123215e+02 2.164543123543123215e+02 2.164543123543123215e+02 2.164543123543123215e+02 1.974775641025640880e+02 1.974775641025640880e+02
6.840000000000000000e+04 2.499318181818181870e+02 2.499318181818181870e+02 2.499318181818181870e+02 2.499318181818181870e+02 2.499318181818181870e+02 2.487023809523809632e+02 2.487023809523809632e+02 2.499318181818181870e+02 2.499318181818181870e+02 2.499318181818181870e+02 2.499318181818181870e+02 2.499318181818181870e+02 2.487023809523809632e+02 2.487023809523809632e+02
7.200000000000000000e+04 2.357805361305361203e+02 2.357805361305361203e+02 2.357805361305361203e+02 2.357805361305361203e+02 2.357805361305361203e+02 2.556964285714285552e+02 2.556964285714285552e+02 2.357805361305361203e+02 2.357805361305361203e+02 2.357805361305361203e+02 2.357805361305361203e+02 2.357805361305361203e+02 2.556964285714285552e+02 2.556964285714285552e+02
7.560000000000000000e+04 2.285504662004661895e+02 2.285504662004661895e+02 2.285504662004661895e+02 2.285504662004661895e+02 2.285504662004661895e+02 2.994226190476190368e+02 2.994226190476190368e+02 2.285504662004661895e+02 2.285504662004661895e+02 2.285504662004661895e+02 2.285504662004661895e+02 2.285504662004661895e+02 2.994226190476190368e+02 2.994226190476190368e+02
7.920000000000000000e+04 2.866769230769231172e+02 2.866769230769231172e+02 2.866769230769231172e+02 2.866769230769231172e+02 2.866769230769231172e+02 3.222738095238095184e+02 3.222738095238095184e+02 2.866769230769231172e+02 2.866769230769231172e+02 2.866769230769231172e+02 2.866769230769231172e+02 2.866769230769231172e+02 3.222738095238095184e+02 3.222738095238095184e+02
8.280000000000000000e+04 2.984642191142190768e+02 2.984642191142190768e+02 2.984642191142190768e+02 2.984642191142190768e+02 2.984642191142190768e+02 2.978928571428571104e+02 2.978928571428571104e+02 2.984642191142190768e+02 2.984642191142190768e+02 2.984642191142190768e+02 2.984642191142190768e+02 2.984642191142190768e+02 2.978928571428571104e+02 2.978928571428571104e+02
