#1
double table(24,15)
0.000000000000000000e+00 1.149212827988338015e+00 1.149212827988338015e+00 1.149212827988338015e+00 1.149212827988338015e+00 1.149212827988338015e+00 1.149212827988338015e+00 1.149212827988338015e+00 1.149212827988338015e+00 1.149212827988338015e+00 1.149212827988338015e+00 1.149212827988338015e+00 1.149212827988338015e+00 1.149212827988338015e+00 1.149212827988338015e+00
3.600000000000000000e+03 6.998250728862974723e-01 6.998250728862974723e-01 6.998250728862974723e-01 6.998250728862974723e-01 6.998250728862974723e-01 6.998250728862974723e-01 6.998250728862974723e-01 6.998250728862974723e-01 6.998250728862974723e-01 6.998250728862974723e-01 6.998250728862974723e-01 6.998250728862974723e-01 6.998250728862974723e-01 6.998250728862974723e-01
7.200000000000000000e+03 4.919533527696793307e-01 4.919533527696793307e-01 4.919533527696793307e-01 4.919533527696793307e-01 4.919533527696793307e-01 4.919533527696793307e-01 4.919533527696793307e-01 4.919533527696793307e-01 4.919533527696793307e-01 4.919533527696793307e-01 4.919533527696793307e-01 4.919533527696793307e-01 4.919533527696793307e-01 4.919533527696793307e-01
1.080000000000000000e+04 4.772594752186589129e-01 4.772594752186589129e-01 4.772594752186589129e-01 4.772594752186589129e-01 4.772594752186589129e-01 4.772594752186589129e-01 4.772594752186589129e-01 4.772594752186589129e-01 4.772594752186589129e-01 4.772594752186589129e-01 4.772594752186589129e-01 4.772594752186589129e-01 4.772594752186589129e-01 4.772594752186589129e-01
1.440000000000000000e+04 5.022740524781341698e-01 5.022740524781341698e-01 5.022740524781341698e-01 5.022740524781341698e-01 5.022740524781341698e-01 5.022740524781341698e-01 5.022740524781341698e-01 5.022740524781341698e-01 5.022740524781341698e-01 5.022740524781341698e-01 5.022740524781341698e-01 5.022740524781341698e-01 5.022740524781341698e-01 5.022740524781341698e-01
1.800000000000000000e+04 5.812827988338192808e-01 5.812827988338192808e-01 5.812827988338192808e-01 5.812827988338192808e-01 5.812827988338192808e-01 5.812827988338192808e-01 5.812827988338192808e-01 5.812827988338192808e-01 5.812827988338192808e-01 5.812827988338192808e-01 5.812827988338192808e-01 5.812827988338192808e-01 5.812827988338192808e-01 5.812827988338192808e-01
2.160000000000000000e+04 4.840306122448979620e-01 4.840306122448979620e-01 4.840306122448979620e-01 4.840306122448979620e-01 4.840306122448979620e-01 4.840306122448979620e-01 4.840306122448979620e-01 4.840306122448979620e-01 4.840306122448979620e-01 4.840306122448979620e-01 4.840306122448979620e-01 4.840306122448979620e-01 4.840306122448979620e-01 4.840306122448979620e-01
2.520000000000000000e+04 1.533262876579202905e+00 1.533262876579202905e+00 1.533262876579202905e+00 1.533262876579202905e+00 1.533262876579202905e+00 1.533262876579202905e+00 1.533262876579202905e+00 1.533262876579202905e+00 1.533262876579202905e+00 1.533262876579202905e+00 1.533262876579202905e+00 1.533262876579202905e+00 1.533262876579202905e+00 1.533262876579202905e+00
2.880000000000000000e+04 1.053779883381924165e+01 1.053779883381924165e+01 1.053779883381924165e+01 1.053779883381924165e+01 1.053779883381924165e+01 1.053779883381924165e+01 1.053779883381924165e+01 1.053779883381924165e+01 1.053779883381924165e+01 1.053779883381924165e+01 1.053779883381924165e+01 1.053779883381924165e+01 1.053779883381924165e+01 1.053779883381924165e+01
3.240000000000000000e+04 1.162809598003335054e+01 1.162809598003335054e+01 1.162809598003335054e+01 1.162809598003335054e+01 1.162809598003335054e+01 1.162809598003335054e+01 1.162809598003335054e+01 1.162809598003335054e+01 1.162809598003335054e+01 1.162809598003335054e+01 1.162809598003335054e+01 1.162809598003335054e+01 1.162809598003335054e+01 1.162809598003335054e+01
3.600000000000000000e+04 7.600014577259474713e+00 7.600014577259474713e+00 7.600014577259474713e+00 7.600014577259474713e+00 7.600014577259474713e+00 7.600014577259474713e+00 7.600014577259474713e+00 7.600014577259474713e+00 7.600014577259474713e+00 7.600014577259474713e+00 7.600014577259474713e+00 7.600014577259474713e+00 7.600014577259474713e+00 7.600014577259474713e+00
3.960000000000000000e+04 1.383309352312353724e+01 1.383309352312353724e+01 1.383309352312353724e+01 1.383309352312353724e+01 1.383309352312353724e+01 1.383309352312353724e+01 1.383309352312353724e+01 1.383309352312353724e+01 1.383309352312353724e+01 1.383309352312353724e+01 1.383309352312353724e+01 1.383309352312353724e+01 1.383309352312353724e+01 1.383309352312353724e+01
4.320000000000000000e+04 2.280641227919739222e+01 2.280641227919739222e+01 2.280641227919739222e+01 2.280641227919739222e+01 2.280641227919739222e+01 2.280641227919739222e+01 2.280641227919739222e+01 2.280641227919739222e+01 2.280641227919739222e+01 2.280641227919739222e+01 2.280641227919739222e+01 2.280641227919739222e+01 2.280641227919739222e+01 2.280641227919739222e+01
4.680000000000000000e+04 3.190673069227690917e+01 3.190673069227690917e+01 3.190673069227690917e+01 3.190673069227690917e+01 3.190673069227690917e+01 3.190673069227690917e+01 3.190673069227690917e+01 3.190673069227690917e+01 3.190673069227690917e+01 3.190673069227690917e+01 3.190673069227690917e+01 3.190673069227690917e+01 3.190673069227690917e+01 3.190673069227690917e+01
5.040000000000000000e+04 2.835123063511118602e+01 2.835123063511118602e+01 2.835123063511118602e+01 2.835123063511118602e+01 2.835123063511118602e+01 2.835123063511118602e+01 2.835123063511118602e+01 2.835123063511118602e+01 2.835123063511118602e+01 2.835123063511118602e+01 2.835123063511118602e+01 2.835123063511118602e+01 2.835123063511118602e+01 2.835123063511118602e+01
5.400000000000000000e+04 1.044724089635854192e+01 1.044724089635854192e+01 1.044724089635854192e+01 1.044724089635854192e+01 1.044724089635854192e+01 1.044724089635854192e+01 1.044724089635854192e+01 1.044724089635854192e+01 1.044724089635854192e+01 1.044724089635854192e+01 1.044724089635854192e+01 1.044724089635854192e+01 1.044724089635854192e+01 1.044724089635854192e+01
5.760000000000000000e+04 1.856330146344252086e+01 1.856330146344252086e+01 1.856330146344252086e+01 1.856330146344252086e+01 1.856330146344252086e+01 1.856330146344252086e+01 1.856330146344252086e+01 1.856330146344252086e+01 1.856330146344252086e+01 1.856330146344252086e+01 1.856330146344252086e+01 1.856330146344252086e+01 1.856330146344252086e+01 1.856330146344252086e+01
6.120000000000000000e+04 1.144562244897959289e+02 1.144562244897959289e+02 1.144562244897959289e+02 1.144562244897959289e+02 1.144562244897959289e+02 1.144562244897959289e+02 1.144562244897959289e+02 1.144562244897959289e+02 1.144562244897959289e+02 1.144562244897959289e+02 1.144562244897959289e+02 1.144562244897959289e+02 1.144562244897959289e+02 1.144562244897959289e+02
6.480000000000000000e+04 1.698306146744412217e+02 1.698306146744412217e+02 1.698306146744412217e+02 1.698306146744412217e+02 1.698306146744412217e+02 1.698306146744412217e+02 1.698306146744412217e+02 1.698306146744412217e+02 1.698306146744412217e+02 1.698306146744412217e+02 1.698306146744412217e+02 1.698306146744412217e+02 1.698306146744412217e+02 1.698306146744412217e+02
6.840000000000000000e+04 7.521110915794891127e+01 7.521110915794891127e+01 7.521110915794891127e+01 7.521110915794891127e+01 7.521110915794891127e+01 7.521110915794891127e+01 7.521110915794891127e+01 7.521110915794891127e+01 7.521110915794891127e+01 7.521110915794891127e+01 7.521110915794891127e+01 7.521110915794891127e+01 7.521110915794891127e+01 7.521110915794891127e+01
7.200000000000000000e+04 1.963506774138226874e+01 1.963506774138226874e+01 1.963506774138226874e+01 1.963506774138226874e+01 1.963506774138226874e+01 1.963506774138226874e+01 1.963506774138226874e+01 1.963506774138226874e+01 1.963506774138226874e+01 1.963506774138226874e+01 1.963506774138226874e+01 1.963506774138226874e+01 1.963506774138226874e+01 1.963506774138226874e+01
7.560000000000000000e+04 2.168934659578116708e+01 2.168934659578116708e+01 2.168934659578116708e+01 2.168934659578116708e+01 2.168934659578116708e+01 2.168934659578116708e+01 2.168934659578116708e+01 2.168934659578116708e+01 2.168934659578116708e+01 2.168934659578116708e+01 2.168934659578116708e+01 2.168934659578116708e+01 2.168934659578116708e+01 2.168934659578116708e+01
7.920000000000000000e+04 1.307089121362830930e+01 1.307089121362830930e+01 1.307089121362830930e+01 1.307089121362830930e+01 1.307089121362830930e+01 1.307089121362830930e+01 1.307089121362830930e+01 1.307089121362830930e+01 1.307089121362830930e+01 1.307089121362830930e+01 1.307089121362830930e+01 1.307089121362830930e+01 1.307089121362830930e+01 1.307089121362830930e+01
8.280000000000000000e+04 1.902040816326530548e+00 1.902040816326530548e+00 1.902040816326530548e+00 1.902040816326530548e+00 1.902040816326530548e+00 1.902040816326530548e+00 1.902040816326530548e+00 1.902040816326530548e+00 1.902040816326530548e+00 1.902040816326530548e+00 1.902040816326530548e+00 1.902040816326530548e+00 1.902040816326530548e+00 1.902040816326530548e+00
