#1
double table(24,15)
0.000000000000000000e+00 5.527722277722277866e+00 5.527722277722277866e+00 5.527722277722277866e+00 5.527722277722277866e+00 5.527722277722277866e+00 5.527722277722277866e+00 5.527722277722277866e+00 5.527722277722277866e+00 5.527722277722277866e+00 5.527722277722277866e+00 5.527722277722277866e+00 5.527722277722277866e+00 5.527722277722277866e+00 5.527722277722277866e+00
3.600000000000000000e+03 5.526640026640026626e+00 5.526640026640026626e+00 5.526640026640026626e+00 5.526640026640026626e+00 5.526640026640026626e+00 5.526640026640026626e+00 5.526640026640026626e+00 5.526640026640026626e+00 5.526640026640026626e+00 5.526640026640026626e+00 5.526640026640026626e+00 5.526640026640026626e+00 5.526640026640026626e+00 5.526640026640026626e+00
7.200000000000000000e+03 5.557609057609057324e+00 5.557609057609057324e+00 5.557609057609057324e+00 5.557609057609057324e+00 5.557609057609057324e+00 5.557609057609057324e+00 5.557609057609057324e+00 5.557609057609057324e+00 5.557609057609057324e+00 5.557609057609057324e+00 5.557609057609057324e+00 5.557609057609057324e+00 5.557609057609057324e+00 5.557609057609057324e+00
1.080000000000000000e+04 5.547868797868797053e+00 5.547868797868797053e+00 5.547868797868797053e+00 5.547868797868797053e+00 5.547868797868797053e+00 5.547868797868797053e+00 5.547868797868797053e+00 5.547868797868797053e+00 5.547868797868797053e+00 5.547868797868797053e+00 5.547868797868797053e+00 5.547868797868797053e+00 5.547868797868797053e+00 5.547868797868797053e+00
1.440000000000000000e+04 5.432151182151181423e+00 5.432151182151181423e+00 5.432151182151181423e+00 5.432151182151181423e+00 5.432151182151181423e+00 5.432151182151181423e+00 5.432151182151181423e+00 5.432151182151181423e+00 5.432151182151181423e+00 5.432151182151181423e+00 5.432151182151181423e+00 5.432151182151181423e+00 5.432151182151181423e+00 5.432151182151181423e+00
1.800000000000000000e+04 5.444888444888444035e+00 5.444888444888444035e+00 5.444888444888444035e+00 5.444888444888444035e+00 5.444888444888444035e+00 5.444888444888444035e+00 5.444888444888444035e+00 5.444888444888444035e+00 5.444888444888444035e+00 5.444888444888444035e+00 5.444888444888444035e+00 5.444888444888444035e+00 5.444888444888444035e+00 5.444888444888444035e+00
2.160000000000000000e+04 1.341749916749916416e+01 1.341749916749916416e+01 1.341749916749916416e+01 1.341749916749916416e+01 1.341749916749916416e+01 1.341749916749916416e+01 1.341749916749916416e+01 1.341749916749916416e+01 1.341749916749916416e+01 1.341749916749916416e+01 1.341749916749916416e+01 1.341749916749916416e+01 1.341749916749916416e+01 1.341749916749916416e+01
2.520000000000000000e+04 8.511155511155511988e+01 8.511155511155511988e+01 8.511155511155511988e+01 8.511155511155511988e+01 8.511155511155511988e+01 8.511155511155511988e+01 8.511155511155511988e+01 8.511155511155511988e+01 8.511155511155511988e+01 8.511155511155511988e+01 8.511155511155511988e+01 8.511155511155511988e+01 8.511155511155511988e+01 8.511155511155511988e+01
2.880000000000000000e+04 1.069597902097902136e+02 1.069597902097902136e+02 1.069597902097902136e+02 1.069597902097902136e+02 1.069597902097902136e+02 1.069597902097902136e+02 1.069597902097902136e+02 1.069597902097902136e+02 1.069597902097902136e+02 1.069597902097902136e+02 1.069597902097902136e+02 1.069597902097902136e+02 1.069597902097902136e+02 1.069597902097902136e+02
3.240000000000000000e+04 1.191694139194139126e+02 1.191694139194139126e+02 1.191694139194139126e+02 1.191694139194139126e+02 1.191694139194139126e+02 1.191694139194139126e+02 1.191694139194139126e+02 1.191694139194139126e+02 1.191694139194139126e+02 1.191694139194139126e+02 1.191694139194139126e+02 1.191694139194139126e+02 1.191694139194139126e+02 1.191694139194139126e+02
3.600000000000000000e+04 1.300427905427905557e+02 1.300427905427905557e+02 1.300427905427905557e+02 1.300427905427905557e+02 1.300427905427905557e+02 1.300427905427905557e+02 1.300427905427905557e+02 1.300427905427905557e+02 1.300427905427905557e+02 1.300427905427905557e+02 1.300427905427905557e+02 1.300427905427905557e+02 1.300427905427905557e+02 1.300427905427905557e+02
3.960000000000000000e+04 9.173726273726273917e+01 9.173726273726273917e+01 9.173726273726273917e+01 9.173726273726273917e+01 9.173726273726273917e+01 9.173726273726273917e+01 9.173726273726273917e+01 9.173726273726273917e+01 9.173726273726273917e+01 9.173726273726273917e+01 9.173726273726273917e+01 9.173726273726273917e+01 9.173726273726273917e+01 9.173726273726273917e+01
4.320000000000000000e+04 7.987970362970362714e+01 7.987970362970362714e+01 7.987970362970362714e+01 7.987970362970362714e+01 7.987970362970362714e+01 7.987970362970362714e+01 7.987970362970362714e+01 7.987970362970362714e+01 7.987970362970362714e+01 7.987970362970362714e+01 7.987970362970362714e+01 7.987970362970362714e+01 7.987970362970362714e+01 7.987970362970362714e+01
4.680000000000000000e+04 6.676132201132200805e+01 6.676132201132200805e+01 6.676132201132200805e+01 6.676132201132200805e+01 6.676132201132200805e+01 6.676132201132200805e+01 6.676132201132200805e+01 6.676132201132200805e+01 6.676132201132200805e+01 6.676132201132200805e+01 6.676132201132200805e+01 6.676132201132200805e+01 6.676132201132200805e+01 6.676132201132200805e+01
5.040000000000000000e+04 9.098817848817850162e+00 9.098817848817850162e+00 9.098817848817850162e+00 9.098817848817850162e+00 9.098817848817850162e+00 9.098817848817850162e+00 9.098817848817850162e+00 9.098817848817850162e+00 9.098817848817850162e+00 9.098817848817850162e+00 9.098817848817850162e+00 9.098817848817850162e+00 9.098817848817850162e+00 9.098817848817850162e+00
5.400000000000000000e+04 7.133449883449882734e+00 7.133449883449882734e+00 7.133449883449882734e+00 7.133449883449882734e+00 7.133449883449882734e+00 7.133449883449882734e+00 7.133449883449882734e+00 7.133449883449882734e+00 7.133449883449882734e+00 7.133449883449882734e+00 7.133449883449882734e+00 7.133449883449882734e+00 7.133449883449882734e+00 7.133449883449882734e+00
5.760000000000000000e+04 6.790792540792539356e+00 6.790792540792539356e+00 6.790792540792539356e+00 6.790792540792539356e+00 6.790792540792539356e+00 6.790792540792539356e+00 6.790792540792539356e+00 6.790792540792539356e+00 6.790792540792539356e+00 6.790792540792539356e+00 6.790792540792539356e+00 6.790792540792539356e+00 6.790792540792539356e+00 6.790792540792539356e+00
6.120000000000000000e+04 6.890859140859141085e+00 6.890859140859141085e+00 6.890859140859141085e+00 6.890859140859141085e+00 6.890859140859141085e+00 6.890859140859141085e+00 6.890859140859141085e+00 6.890859140859141085e+00 6.890859140859141085e+00 6.890859140859141085e+00 6.890859140859141085e+00 6.890859140859141085e+00 6.890859140859141085e+00 6.890859140859141085e+00
6.480000000000000000e+04 6.475524475524475854e+00 6.475524475524475854e+00 6.475524475524475854e+00 6.475524475524475854e+00 6.475524475524475854e+00 6.475524475524475854e+00 6.475524475524475854e+00 6.475524475524475854e+00 6.475524475524475854e+00 6.475524475524475854e+00 6.475524475524475854e+00 6.475524475524475854e+00 6.475524475524475854e+00 6.475524475524475854e+00
6.840000000000000000e+04 5.912420912420912167e+00 5.912420912420912167e+00 5.912420912420912167e+00 5.912420912420912167e+00 5.912420912420912167e+00 5.912420912420912167e+00 5.912420912420912167e+00 5.912420912420912167e+00 5.912420912420912167e+00 5.912420912420912167e+00 5.912420912420912167e+00 5.912420912420912167e+00 5.912420912420912167e+00 5.912420912420912167e+00
7.200000000000000000e+04 6.178868750297320744e+00 6.178868750297320744e+00 6.178868750297320744e+00 6.178868750297320744e+00 6.178868750297320744e+00 6.178868750297320744e+00 6.178868750297320744e+00 6.178868750297320744e+00 6.178868750297320744e+00 6.178868750297320744e+00 6.178868750297320744e+00 6.178868750297320744e+00 6.178868750297320744e+00 6.178868750297320744e+00
7.560000000000000000e+04 5.597473954616810410e+00 5.597473954616810410e+00 5.597473954616810410e+00 5.597473954616810410e+00 5.597473954616810410e+00 5.597473954616810410e+00 5.597473954616810410e+00 5.597473954616810410e+00 5.597473954616810410e+00 5.597473954616810410e+00 5.597473954616810410e+00 5.597473954616810410e+00 5.597473954616810410e+00 5.597473954616810410e+00
7.920000000000000000e+04 5.488963417534846734e+00 5.488963417534846734e+00 5.488963417534846734e+00 5.488963417534846734e+00 5.488963417534846734e+00 5.488963417534846734e+00 5.488963417534846734e+00 5.488963417534846734e+00 5.488963417534846734e+00 5.488963417534846734e+00 5.488963417534846734e+00 5.488963417534846734e+00 5.488963417534846734e+00 5.488963417534846734e+00
8.280000000000000000e+04 5.541220684077827308e+00 5.541220684077827308e+00 5.541220684077827308e+00 5.541220684077827308e+00 5.541220684077827308e+00 5.541220684077827308e+00 5.541220684077827308e+00 5.541220684077827308e+00 5.541220684077827308e+00 5.541220684077827308e+00 5.541220684077827308e+00 5.541220684077827308e+00 5.541220684077827308e+00 5.541220684077827308e+00
