#1
double table(24,15)
0.000000000000000000e+00 2.946608982322026122e+02 2.946608982322026122e+02 2.946608982322026122e+02 2.946608982322026122e+02 2.946608982322026122e+02 2.946608982322026122e+02 2.946608982322026122e+02 2.946608982322026122e+02 2.946608982322026122e+02 2.946608982322026122e+02 2.946608982322026122e+02 2.946608982322026122e+02 2.946608982322026122e+02 2.946608982322026122e+02
3.600000000000000000e+03 2.922283317407230356e+02 2.922283317407230356e+02 2.922283317407230356e+02 2.922283317407230356e+02 2.922283317407230356e+02 2.922283317407230356e+02 2.922283317407230356e+02 2.922283317407230356e+02 2.922283317407230356e+02 2.922283317407230356e+02 2.922283317407230356e+02 2.922283317407230356e+02 2.922283317407230356e+02 2.922283317407230356e+02
7.200000000000000000e+03 3.024459444179009893e+02 3.024459444179009893e+02 3.024459444179009893e+02 3.024459444179009893e+02 3.024459444179009893e+02 3.024459444179009893e+02 3.024459444179009893e+02 3.024459444179009893e+02 3.024459444179009893e+02 3.024459444179009893e+02 3.024459444179009893e+02 3.024459444179009893e+02 3.024459444179009893e+02 3.024459444179009893e+02
1.080000000000000000e+04 2.937328619206879807e+02 2.937328619206879807e+02 2.937328619206879807e+02 2.937328619206879807e+02 2.937328619206879807e+02 2.937328619206879807e+02 2.937328619206879807e+02 2.937328619206879807e+02 2.937328619206879807e+02 2.937328619206879807e+02 2.937328619206879807e+02 2.937328619206879807e+02 2.937328619206879807e+02 2.937328619206879807e+02
1.440000000000000000e+04 2.968456282847587318e+02 2.968456282847587318e+02 2.968456282847587318e+02 2.968456282847587318e+02 2.968456282847587318e+02 2.968456282847587318e+02 2.968456282847587318e+02 2.968456282847587318e+02 2.968456282847587318e+02 2.968456282847587318e+02 2.968456282847587318e+02 2.968456282847587318e+02 2.968456282847587318e+02 2.968456282847587318e+02
1.800000000000000000e+04 2.982916746297181021e+02 2.982916746297181021e+02 2.982916746297181021e+02 2.982916746297181021e+02 2.982916746297181021e+02 2.982916746297181021e+02 2.982916746297181021e+02 2.982916746297181021e+02 2.982916746297181021e+02 2.982916746297181021e+02 2.982916746297181021e+02 2.982916746297181021e+02 2.982916746297181021e+02 2.982916746297181021e+02
2.160000000000000000e+04 2.942748871418436352e+02 2.942748871418436352e+02 2.942748871418436352e+02 2.942748871418436352e+02 2.942748871418436352e+02 2.942748871418436352e+02 2.942748871418436352e+02 2.942748871418436352e+02 2.942748871418436352e+02 2.942748871418436352e+02 2.942748871418436352e+02 2.942748871418436352e+02 2.942748871418436352e+02 2.942748871418436352e+02
2.520000000000000000e+04 3.110776024699938489e+02 3.110776024699938489e+02 3.110776024699938489e+02 3.110776024699938489e+02 3.110776024699938489e+02 3.110776024699938489e+02 3.110776024699938489e+02 3.110776024699938489e+02 3.110776024699938489e+02 3.110776024699938489e+02 3.110776024699938489e+02 3.110776024699938489e+02 3.110776024699938489e+02 3.110776024699938489e+02
2.880000000000000000e+04 3.244781351257437905e+02 3.244781351257437905e+02 3.244781351257437905e+02 3.244781351257437905e+02 3.244781351257437905e+02 3.244781351257437905e+02 3.244781351257437905e+02 3.244781351257437905e+02 3.244781351257437905e+02 3.244781351257437905e+02 3.244781351257437905e+02 3.244781351257437905e+02 3.244781351257437905e+02 3.244781351257437905e+02
3.240000000000000000e+04 3.151966353832503387e+02 3.151966353832503387e+02 3.151966353832503387e+02 3.151966353832503387e+02 3.151966353832503387e+02 3.151966353832503387e+02 3.151966353832503387e+02 3.151966353832503387e+02 3.151966353832503387e+02 3.151966353832503387e+02 3.151966353832503387e+02 3.151966353832503387e+02 3.151966353832503387e+02 3.151966353832503387e+02
3.600000000000000000e+04 3.190878904428904548e+02 3.190878904428904548e+02 3.190878904428904548e+02 3.190878904428904548e+02 3.190878904428904548e+02 3.190878904428904548e+02 3.190878904428904548e+02 3.190878904428904548e+02 3.190878904428904548e+02 3.190878904428904548e+02 3.190878904428904548e+02 3.190878904428904548e+02 3.190878904428904548e+02 3.190878904428904548e+02
3.960000000000000000e+04 3.312524249663379692e+02 3.312524249663379692e+02 3.312524249663379692e+02 3.312524249663379692e+02 3.312524249663379692e+02 3.312524249663379692e+02 3.312524249663379692e+02 3.312524249663379692e+02 3.312524249663379692e+02 3.312524249663379692e+02 3.312524249663379692e+02 3.312524249663379692e+02 3.312524249663379692e+02 3.312524249663379692e+02
4.320000000000000000e+04 3.427061144652448661e+02 3.427061144652448661e+02 3.427061144652448661e+02 3.427061144652448661e+02 3.427061144652448661e+02 3.427061144652448661e+02 3.427061144652448661e+02 3.427061144652448661e+02 3.427061144652448661e+02 3.427061144652448661e+02 3.427061144652448661e+02 3.427061144652448661e+02 3.427061144652448661e+02 3.427061144652448661e+02
4.680000000000000000e+04 3.349579287379287393e+02 3.349579287379287393e+02 3.349579287379287393e+02 3.349579287379287393e+02 3.349579287379287393e+02 3.349579287379287393e+02 3.349579287379287393e+02 3.349579287379287393e+02 3.349579287379287393e+02 3.349579287379287393e+02 3.349579287379287393e+02 3.349579287379287393e+02 3.349579287379287393e+02 3.349579287379287393e+02
5.040000000000000000e+04 3.169364384166557898e+02 3.169364384166557898e+02 3.169364384166557898e+02 3.169364384166557898e+02 3.169364384166557898e+02 3.169364384166557898e+02 3.169364384166557898e+02 3.169364384166557898e+02 3.169364384166557898e+02 3.169364384166557898e+02 3.169364384166557898e+02 3.169364384166557898e+02 3.169364384166557898e+02 3.169364384166557898e+02
5.400000000000000000e+04 3.085477861993079500e+02 3.085477861993079500e+02 3.085477861993079500e+02 3.085477861993079500e+02 3.085477861993079500e+02 3.085477861993079500e+02 3.085477861993079500e+02 3.085477861993079500e+02 3.085477861993079500e+02 3.085477861993079500e+02 3.085477861993079500e+02 3.085477861993079500e+02 3.085477861993079500e+02 3.085477861993079500e+02
5.760000000000000000e+04 2.938567013421360912e+02 2.938567013421360912e+02 2.938567013421360912e+02 2.938567013421360912e+02 2.938567013421360912e+02 2.938567013421360912e+02 2.938567013421360912e+02 2.938567013421360912e+02 2.938567013421360912e+02 2.938567013421360912e+02 2.938567013421360912e+02 2.938567013421360912e+02 2.938567013421360912e+02 2.938567013421360912e+02
6.120000000000000000e+04 2.976690810638637004e+02 2.976690810638637004e+02 2.976690810638637004e+02 2.976690810638637004e+02 2.976690810638637004e+02 2.976690810638637004e+02 2.976690810638637004e+02 2.976690810638637004e+02 2.976690810638637004e+02 2.976690810638637004e+02 2.976690810638637004e+02 2.976690810638637004e+02 2.976690810638637004e+02 2.976690810638637004e+02
6.480000000000000000e+04 3.010561413224456260e+02 3.010561413224456260e+02 3.010561413224456260e+02 3.010561413224456260e+02 3.010561413224456260e+02 3.010561413224456260e+02 3.010561413224456260e+02 3.010561413224456260e+02 3.010561413224456260e+02 3.010561413224456260e+02 3.010561413224456260e+02 3.010561413224456260e+02 3.010561413224456260e+02 3.010561413224456260e+02
6.840000000000000000e+04 3.071205820990603570e+02 3.071205820990603570e+02 3.071205820990603570e+02 3.071205820990603570e+02 3.071205820990603570e+02 3.071205820990603570e+02 3.071205820990603570e+02 3.071205820990603570e+02 3.071205820990603570e+02 3.071205820990603570e+02 3.071205820990603570e+02 3.071205820990603570e+02 3.071205820990603570e+02 3.071205820990603570e+02
7.200000000000000000e+04 2.990958193979932958e+02 2.990958193979932958e+02 2.990958193979932958e+02 2.990958193979932958e+02 2.990958193979932958e+02 2.990958193979932958e+02 2.990958193979932958e+02 2.990958193979932958e+02 2.990958193979932958e+02 2.990958193979932958e+02 2.990958193979932958e+02 2.990958193979932958e+02 2.990958193979932958e+02 2.990958193979932958e+02
7.560000000000000000e+04 2.896126604554865480e+02 2.896126604554865480e+02 2.896126604554865480e+02 2.896126604554865480e+02 2.896126604554865480e+02 2.896126604554865480e+02 2.896126604554865480e+02 2.896126604554865480e+02 2.896126604554865480e+02 2.896126604554865480e+02 2.896126604554865480e+02 2.896126604554865480e+02 2.896126604554865480e+02 2.896126604554865480e+02
7.920000000000000000e+04 2.878772503583373350e+02 2.878772503583373350e+02 2.878772503583373350e+02 2.878772503583373350e+02 2.878772503583373350e+02 2.878772503583373350e+02 2.878772503583373350e+02 2.878772503583373350e+02 2.878772503583373350e+02 2.878772503583373350e+02 2.878772503583373350e+02 2.878772503583373350e+02 2.878772503583373350e+02 2.878772503583373350e+02
8.280000000000000000e+04 2.983033850931677193e+02 2.983033850931677193e+02 2.983033850931677193e+02 2.983033850931677193e+02 2.983033850931677193e+02 2.983033850931677193e+02 2.983033850931677193e+02 2.983033850931677193e+02 2.983033850931677193e+02 2.983033850931677193e+02 2.983033850931677193e+02 2.983033850931677193e+02 2.983033850931677193e+02 2.983033850931677193e+02
