#1
double table(24,15)
0.000000000000000000e+00 1.609198367346938880e+02 1.609198367346938880e+02 1.609198367346938880e+02 1.609198367346938880e+02 1.609198367346938880e+02 1.604509803921568505e+02 1.607647058823529278e+02 1.609198367346938880e+02 1.609198367346938880e+02 1.609198367346938880e+02 1.609198367346938880e+02 1.609198367346938880e+02 1.604509803921568505e+02 1.607647058823529278e+02
3.600000000000000000e+03 1.612164081632652994e+02 1.612164081632652994e+02 1.612164081632652994e+02 1.612164081632652994e+02 1.612164081632652994e+02 1.607843137254901933e+02 1.608627450980392268e+02 1.612164081632652994e+02 1.612164081632652994e+02 1.612164081632652994e+02 1.612164081632652994e+02 1.612164081632652994e+02 1.607843137254901933e+02 1.608627450980392268e+02
7.200000000000000000e+03 1.614706122448979499e+02 1.614706122448979499e+02 1.614706122448979499e+02 1.614706122448979499e+02 1.614706122448979499e+02 1.608823529411764639e+02 1.612549019607843093e+02 1.614706122448979499e+02 1.614706122448979499e+02 1.614706122448979499e+02 1.614706122448979499e+02 1.614706122448979499e+02 1.608823529411764639e+02 1.612549019607843093e+02
1.080000000000000000e+04 1.616017959183673440e+02 1.616017959183673440e+02 1.616017959183673440e+02 1.616017959183673440e+02 1.616017959183673440e+02 1.611176470588235361e+02 1.613725490196078454e+02 1.616017959183673440e+02 1.616017959183673440e+02 1.616017959183673440e+02 1.616017959183673440e+02 1.616017959183673440e+02 1.611176470588235361e+02 1.613725490196078454e+02
1.440000000000000000e+04 1.614022857142857106e+02 1.614022857142857106e+02 1.614022857142857106e+02 1.614022857142857106e+02 1.614022857142857106e+02 1.611568627450980387e+02 1.611176470588235361e+02 1.614022857142857106e+02 1.614022857142857106e+02 1.614022857142857106e+02 1.614022857142857106e+02 1.614022857142857106e+02 1.611568627450980387e+02 1.611176470588235361e+02
1.800000000000000000e+04 1.612362448979592102e+02 1.612362448979592102e+02 1.612362448979592102e+02 1.612362448979592102e+02 1.612362448979592102e+02 1.606274509803921546e+02 1.608235294117646959e+02 1.612362448979592102e+02 1.612362448979592102e+02 1.612362448979592102e+02 1.612362448979592102e+02 1.612362448979592102e+02 1.606274509803921546e+02 1.608235294117646959e+02
2.160000000000000000e+04 1.770391258503401275e+02 1.770391258503401275e+02 1.770391258503401275e+02 1.770391258503401275e+02 1.770391258503401275e+02 1.787450980392156907e+02 1.605098039215686185e+02 1.770391258503401275e+02 1.770391258503401275e+02 1.770391258503401275e+02 1.770391258503401275e+02 1.770391258503401275e+02 1.787450980392156907e+02 1.605098039215686185e+02
2.520000000000000000e+04 2.089192448979592029e+02 2.089192448979592029e+02 2.089192448979592029e+02 2.089192448979592029e+02 2.089192448979592029e+02 2.094901960784313815e+02 1.685098039215686185e+02 2.089192448979592029e+02 2.089192448979592029e+02 2.089192448979592029e+02 2.089192448979592029e+02 2.089192448979592029e+02 2.094901960784313815e+02 1.685098039215686185e+02
2.880000000000000000e+04 2.097184761904761672e+02 2.097184761904761672e+02 2.097184761904761672e+02 2.097184761904761672e+02 2.097184761904761672e+02 2.094117647058823479e+02 2.085098039215686185e+02 2.097184761904761672e+02 2.097184761904761672e+02 2.097184761904761672e+02 2.097184761904761672e+02 2.097184761904761672e+02 2.094117647058823479e+02 2.085098039215686185e+02
3.240000000000000000e+04 2.094684064264003496e+02 2.094684064264003496e+02 2.094684064264003496e+02 2.094684064264003496e+02 2.094684064264003496e+02 2.086470588235294201e+02 2.085686274509803866e+02 2.094684064264003496e+02 2.094684064264003496e+02 2.094684064264003496e+02 2.094684064264003496e+02 2.094684064264003496e+02 2.086470588235294201e+02 2.085686274509803866e+02
3.600000000000000000e+04 2.092958161264506032e+02 2.092958161264506032e+02 2.092958161264506032e+02 2.092958161264506032e+02 2.092958161264506032e+02 2.081764705882353041e+02 2.080980392156862706e+02 2.092958161264506032e+02 2.092958161264506032e+02 2.092958161264506032e+02 2.092958161264506032e+02 2.092958161264506032e+02 2.081764705882353041e+02 2.080980392156862706e+02
3.960000000000000000e+04 2.091279901960784287e+02 2.091279901960784287e+02 2.091279901960784287e+02 2.091279901960784287e+02 2.091279901960784287e+02 2.080000000000000000e+02 2.082549019607843093e+02 2.091279901960784287e+02 2.091279901960784287e+02 2.091279901960784287e+02 2.091279901960784287e+02 2.091279901960784287e+02 2.080000000000000000e+02 2.082549019607843093e+02
4.320000000000000000e+04 2.091985650260104137e+02 2.091985650260104137e+02 2.091985650260104137e+02 2.091985650260104137e+02 2.091985650260104137e+02 2.080784313725490335e+02 2.085098039215686185e+02 2.091985650260104137e+02 2.091985650260104137e+02 2.091985650260104137e+02 2.091985650260104137e+02 2.091985650260104137e+02 2.080784313725490335e+02 2.085098039215686185e+02
4.680000000000000000e+04 2.089995494197679022e+02 2.089995494197679022e+02 2.089995494197679022e+02 2.089995494197679022e+02 2.089995494197679022e+02 2.081568627450980387e+02 2.086470588235294201e+02 2.089995494197679022e+02 2.089995494197679022e+02 2.089995494197679022e+02 2.089995494197679022e+02 2.089995494197679022e+02 2.081568627450980387e+02 2.086470588235294201e+02
5.040000000000000000e+04 2.087585752300920490e+02 2.087585752300920490e+02 2.087585752300920490e+02 2.087585752300920490e+02 2.087585752300920490e+02 2.081960784313725412e+02 2.084509803921568505e+02 2.087585752300920490e+02 2.087585752300920490e+02 2.087585752300920490e+02 2.087585752300920490e+02 2.087585752300920490e+02 2.081960784313725412e+02 2.084509803921568505e+02
5.400000000000000000e+04 2.088734783913565423e+02 2.088734783913565423e+02 2.088734783913565423e+02 2.088734783913565423e+02 2.088734783913565423e+02 2.085882352941176521e+02 2.086470588235294201e+02 2.088734783913565423e+02 2.088734783913565423e+02 2.088734783913565423e+02 2.088734783913565423e+02 2.088734783913565423e+02 2.085882352941176521e+02 2.086470588235294201e+02
5.760000000000000000e+04 2.087898339335734477e+02 2.087898339335734477e+02 2.087898339335734477e+02 2.087898339335734477e+02 2.087898339335734477e+02 2.085294117647058840e+02 2.087254901960784252e+02 2.087898339335734477e+02 2.087898339335734477e+02 2.087898339335734477e+02 2.087898339335734477e+02 2.087898339335734477e+02 2.085294117647058840e+02 2.087254901960784252e+02
6.120000000000000000e+04 2.097045760304121416e+02 2.097045760304121416e+02 2.097045760304121416e+02 2.097045760304121416e+02 2.097045760304121416e+02 2.091372549019607732e+02 2.102800000000000011e+02 2.097045760304121416e+02 2.097045760304121416e+02 2.097045760304121416e+02 2.097045760304121416e+02 2.097045760304121416e+02 2.091372549019607732e+02 2.102800000000000011e+02
6.480000000000000000e+04 2.102311544617847119e+02 2.102311544617847119e+02 2.102311544617847119e+02 2.102311544617847119e+02 2.102311544617847119e+02 2.098823529411764639e+02 2.090999999999999943e+02 2.102311544617847119e+02 2.102311544617847119e+02 2.102311544617847119e+02 2.102311544617847119e+02 2.102311544617847119e+02 2.098823529411764639e+02 2.090999999999999943e+02
6.840000000000000000e+04 2.105954029611844760e+02 2.105954029611844760e+02 2.105954029611844760e+02 2.105954029611844760e+02 2.105954029611844760e+02 2.110000000000000000e+02 1.578823529411764639e+02 2.105954029611844760e+02 2.105954029611844760e+02 2.105954029611844760e+02 2.105954029611844760e+02 2.105954029611844760e+02 2.110000000000000000e+02 1.578823529411764639e+02
7.200000000000000000e+04 2.078888451380552453e+02 2.078888451380552453e+02 2.078888451380552453e+02 2.078888451380552453e+02 2.078888451380552453e+02 2.113137254901960773e+02 1.573725490196078454e+02 2.078888451380552453e+02 2.078888451380552453e+02 2.078888451380552453e+02 2.078888451380552453e+02 2.078888451380552453e+02 2.113137254901960773e+02 1.573725490196078454e+02
7.560000000000000000e+04 1.694247667066826466e+02 1.694247667066826466e+02 1.694247667066826466e+02 1.694247667066826466e+02 1.694247667066826466e+02 2.051568627450980387e+02 1.580980392156862706e+02 1.694247667066826466e+02 1.694247667066826466e+02 1.694247667066826466e+02 1.694247667066826466e+02 1.694247667066826466e+02 2.051568627450980387e+02 1.580980392156862706e+02
7.920000000000000000e+04 1.593040464185674239e+02 1.593040464185674239e+02 1.593040464185674239e+02 1.593040464185674239e+02 1.593040464185674239e+02 1.592745098039215748e+02 1.590784313725490335e+02 1.593040464185674239e+02 1.593040464185674239e+02 1.593040464185674239e+02 1.593040464185674239e+02 1.593040464185674239e+02 1.592745098039215748e+02 1.590784313725490335e+02
8.280000000000000000e+04 1.601495126050420197e+02 1.601495126050420197e+02 1.601495126050420197e+02 1.601495126050420197e+02 1.601495126050420197e+02 1.599199999999999875e+02 1.600800000000000125e+02 1.601495126050420197e+02 1.601495126050420197e+02 1.601495126050420197e+02 1.601495126050420197e+02 1.601495126050420197e+02 1.599199999999999875e+02 1.600800000000000125e+02
