#1
double table(24,15)
0.000000000000000000e+00 1.447163265306122604e+01 1.447163265306122604e+01 1.447163265306122604e+01 1.447163265306122604e+01 1.427999999999999936e+01 1.433333333333333393e+01 1.445098039215686292e+01 1.447163265306122604e+01 1.447163265306122604e+01 1.447163265306122604e+01 1.447163265306122604e+01 1.427999999999999936e+01 1.433333333333333393e+01 1.445098039215686292e+01
3.600000000000000000e+03 1.465459183673469390e+01 1.465459183673469390e+01 1.465459183673469390e+01 1.465459183673469390e+01 1.453999999999999915e+01 1.447058823529411775e+01 1.468627450980392091e+01 1.465459183673469390e+01 1.465459183673469390e+01 1.465459183673469390e+01 1.465459183673469390e+01 1.453999999999999915e+01 1.447058823529411775e+01 1.468627450980392091e+01
7.200000000000000000e+03 1.441642857142857181e+01 1.441642857142857181e+01 1.441642857142857181e+01 1.441642857142857181e+01 1.441999999999999993e+01 1.423529411764705799e+01 1.445098039215686292e+01 1.441642857142857181e+01 1.441642857142857181e+01 1.441642857142857181e+01 1.441642857142857181e+01 1.441999999999999993e+01 1.423529411764705799e+01 1.445098039215686292e+01
1.080000000000000000e+04 1.434500000000000064e+01 1.434500000000000064e+01 1.434500000000000064e+01 1.434500000000000064e+01 1.435999999999999943e+01 1.413725490196078383e+01 1.439215686274509842e+01 1.434500000000000064e+01 1.434500000000000064e+01 1.434500000000000064e+01 1.434500000000000064e+01 1.435999999999999943e+01 1.413725490196078383e+01 1.439215686274509842e+01
1.440000000000000000e+04 1.434989795918367328e+01 1.434989795918367328e+01 1.434989795918367328e+01 1.434989795918367328e+01 1.438000000000000078e+01 1.429411764705882426e+01 1.443137254901960809e+01 1.434989795918367328e+01 1.434989795918367328e+01 1.434989795918367328e+01 1.434989795918367328e+01 1.438000000000000078e+01 1.429411764705882426e+01 1.443137254901960809e+01
1.800000000000000000e+04 1.741561224489796089e+01 1.741561224489796089e+01 1.741561224489796089e+01 1.741561224489796089e+01 1.450000000000000000e+01 1.439215686274509842e+01 1.445098039215686292e+01 1.741561224489796089e+01 1.741561224489796089e+01 1.741561224489796089e+01 1.741561224489796089e+01 1.450000000000000000e+01 1.439215686274509842e+01 1.445098039215686292e+01
2.160000000000000000e+04 5.691863520408163168e+01 5.691863520408163168e+01 5.691863520408163168e+01 5.691863520408163168e+01 3.750000000000000000e+01 5.954901960784313530e+01 1.480392156862745168e+01 5.691863520408163168e+01 5.691863520408163168e+01 5.691863520408163168e+01 5.691863520408163168e+01 3.750000000000000000e+01 5.954901960784313530e+01 1.480392156862745168e+01
2.520000000000000000e+04 1.012707355442177004e+02 1.012707355442177004e+02 1.012707355442177004e+02 1.012707355442177004e+02 1.017399999999999949e+02 1.008039215686274446e+02 3.666666666666666430e+01 1.012707355442177004e+02 1.012707355442177004e+02 1.012707355442177004e+02 1.012707355442177004e+02 1.017399999999999949e+02 1.008039215686274446e+02 3.666666666666666430e+01
2.880000000000000000e+04 1.045373341836734795e+02 1.045373341836734795e+02 1.045373341836734795e+02 1.045373341836734795e+02 1.061400000000000006e+02 1.043921568627450966e+02 1.030392156862745168e+02 1.045373341836734795e+02 1.045373341836734795e+02 1.045373341836734795e+02 1.045373341836734795e+02 1.061400000000000006e+02 1.043921568627450966e+02 1.030392156862745168e+02
3.240000000000000000e+04 1.057456665219279159e+02 1.057456665219279159e+02 1.057456665219279159e+02 1.057456665219279159e+02 1.066666666666666714e+02 1.049607843137254832e+02 1.047647058823529420e+02 1.057456665219279159e+02 1.057456665219279159e+02 1.057456665219279159e+02 1.057456665219279159e+02 1.066666666666666714e+02 1.049607843137254832e+02 1.047647058823529420e+02
3.600000000000000000e+04 1.062125595238095173e+02 1.062125595238095173e+02 1.062125595238095173e+02 1.062125595238095173e+02 1.066078431372549034e+02 1.048235294117647101e+02 1.046470588235294059e+02 1.062125595238095173e+02 1.062125595238095173e+02 1.062125595238095173e+02 1.062125595238095173e+02 1.066078431372549034e+02 1.048235294117647101e+02 1.046470588235294059e+02
3.960000000000000000e+04 1.061223256802721124e+02 1.061223256802721124e+02 1.061223256802721124e+02 1.061223256802721124e+02 1.064509803921568647e+02 1.047647058823529420e+02 1.046078431372549034e+02 1.061223256802721124e+02 1.061223256802721124e+02 1.061223256802721124e+02 1.061223256802721124e+02 1.064509803921568647e+02 1.047647058823529420e+02 1.046078431372549034e+02
4.320000000000000000e+04 1.060745068027210891e+02 1.060745068027210891e+02 1.060745068027210891e+02 1.060745068027210891e+02 1.065294117647058840e+02 1.047254901960784252e+02 1.045686274509803866e+02 1.060745068027210891e+02 1.060745068027210891e+02 1.060745068027210891e+02 1.060745068027210891e+02 1.065294117647058840e+02 1.047254901960784252e+02 1.045686274509803866e+02
4.680000000000000000e+04 1.061015093537414913e+02 1.061015093537414913e+02 1.061015093537414913e+02 1.061015093537414913e+02 1.066470588235294059e+02 1.048039215686274446e+02 1.046666666666666714e+02 1.061015093537414913e+02 1.061015093537414913e+02 1.061015093537414913e+02 1.061015093537414913e+02 1.066470588235294059e+02 1.048039215686274446e+02 1.046666666666666714e+02
5.040000000000000000e+04 1.053906972789115599e+02 1.053906972789115599e+02 1.053906972789115599e+02 1.053906972789115599e+02 1.046862745098039227e+02 1.048627450980392126e+02 1.045098039215686327e+02 1.053906972789115599e+02 1.053906972789115599e+02 1.053906972789115599e+02 1.053906972789115599e+02 1.046862745098039227e+02 1.048627450980392126e+02 1.045098039215686327e+02
5.400000000000000000e+04 1.051960544217687072e+02 1.051960544217687072e+02 1.051960544217687072e+02 1.051960544217687072e+02 1.046666666666666714e+02 1.046666666666666714e+02 1.042156862745098067e+02 1.051960544217687072e+02 1.051960544217687072e+02 1.051960544217687072e+02 1.051960544217687072e+02 1.046666666666666714e+02 1.046666666666666714e+02 1.042156862745098067e+02
5.760000000000000000e+04 1.047572534013605434e+02 1.047572534013605434e+02 1.047572534013605434e+02 1.047572534013605434e+02 1.043725490196078454e+02 1.043921568627450966e+02 1.041764705882352899e+02 1.047572534013605434e+02 1.047572534013605434e+02 1.047572534013605434e+02 1.047572534013605434e+02 1.043725490196078454e+02 1.043921568627450966e+02 1.041764705882352899e+02
6.120000000000000000e+04 1.048789710884353639e+02 1.048789710884353639e+02 1.048789710884353639e+02 1.048789710884353639e+02 1.044117647058823479e+02 1.041960784313725554e+02 1.060000000000000000e+02 1.048789710884353639e+02 1.048789710884353639e+02 1.048789710884353639e+02 1.048789710884353639e+02 1.044117647058823479e+02 1.041960784313725554e+02 1.060000000000000000e+02
6.480000000000000000e+04 1.043152806122448908e+02 1.043152806122448908e+02 1.043152806122448908e+02 1.043152806122448908e+02 1.041764705882352899e+02 1.041176470588235361e+02 9.954000000000000625e+01 1.043152806122448908e+02 1.043152806122448908e+02 1.043152806122448908e+02 1.043152806122448908e+02 1.041764705882352899e+02 1.041176470588235361e+02 9.954000000000000625e+01
6.840000000000000000e+04 1.037013265306122491e+02 1.037013265306122491e+02 1.037013265306122491e+02 1.037013265306122491e+02 1.040980392156862706e+02 1.038823529411764639e+02 1.617647058823529349e+01 1.037013265306122491e+02 1.037013265306122491e+02 1.037013265306122491e+02 1.037013265306122491e+02 1.040980392156862706e+02 1.038823529411764639e+02 1.617647058823529349e+01
7.200000000000000000e+04 9.608816326530612173e+01 9.608816326530612173e+01 9.608816326530612173e+01 9.608816326530612173e+01 1.037254901960784252e+02 1.032352941176470580e+02 1.423529411764705799e+01 9.608816326530612173e+01 9.608816326530612173e+01 9.608816326530612173e+01 9.608816326530612173e+01 1.037254901960784252e+02 1.032352941176470580e+02 1.423529411764705799e+01
7.560000000000000000e+04 1.727459183673469312e+01 1.727459183673469312e+01 1.727459183673469312e+01 1.727459183673469312e+01 9.198039215686274872e+01 9.103921568627451677e+01 1.468627450980392091e+01 1.727459183673469312e+01 1.727459183673469312e+01 1.727459183673469312e+01 1.727459183673469312e+01 9.198039215686274872e+01 9.103921568627451677e+01 1.468627450980392091e+01
7.920000000000000000e+04 1.466642857142857181e+01 1.466642857142857181e+01 1.466642857142857181e+01 1.466642857142857181e+01 1.486274509803921617e+01 1.568627450980392091e+01 1.435294117647058876e+01 1.466642857142857181e+01 1.466642857142857181e+01 1.466642857142857181e+01 1.466642857142857181e+01 1.486274509803921617e+01 1.568627450980392091e+01 1.435294117647058876e+01
8.280000000000000000e+04 1.449051020408163382e+01 1.449051020408163382e+01 1.449051020408163382e+01 1.449051020408163382e+01 1.435294117647058876e+01 1.440000000000000036e+01 1.433999999999999986e+01 1.449051020408163382e+01 1.449051020408163382e+01 1.449051020408163382e+01 1.449051020408163382e+01 1.435294117647058876e+01 1.440000000000000036e+01 1.433999999999999986e+01
