#1
double table(24,15)
0.000000000000000000e+00 2.017006917052535186e+01 2.017006917052535186e+01 2.017006917052535186e+01 2.017006917052535186e+01 2.017006917052535186e+01 2.017006917052535186e+01 2.017006917052535186e+01 2.017006917052535186e+01 2.017006917052535186e+01 2.017006917052535186e+01 2.017006917052535186e+01 2.017006917052535186e+01 2.017006917052535186e+01 2.017006917052535186e+01
3.600000000000000000e+03 2.005649345452466648e+01 2.005649345452466648e+01 2.005649345452466648e+01 2.005649345452466648e+01 2.005649345452466648e+01 2.005649345452466648e+01 2.005649345452466648e+01 2.005649345452466648e+01 2.005649345452466648e+01 2.005649345452466648e+01 2.005649345452466648e+01 2.005649345452466648e+01 2.005649345452466648e+01 2.005649345452466648e+01
7.200000000000000000e+03 2.101290459040759373e+01 2.101290459040759373e+01 2.101290459040759373e+01 2.101290459040759373e+01 2.101290459040759373e+01 2.101290459040759373e+01 2.101290459040759373e+01 2.101290459040759373e+01 2.101290459040759373e+01 2.101290459040759373e+01 2.101290459040759373e+01 2.101290459040759373e+01 2.101290459040759373e+01 2.101290459040759373e+01
1.080000000000000000e+04 2.135029211684673811e+01 2.135029211684673811e+01 2.135029211684673811e+01 2.135029211684673811e+01 2.135029211684673811e+01 2.135029211684673811e+01 2.135029211684673811e+01 2.135029211684673811e+01 2.135029211684673811e+01 2.135029211684673811e+01 2.135029211684673811e+01 2.135029211684673811e+01 2.135029211684673811e+01 2.135029211684673811e+01
1.440000000000000000e+04 2.148967129709026480e+01 2.148967129709026480e+01 2.148967129709026480e+01 2.148967129709026480e+01 2.148967129709026480e+01 2.148967129709026480e+01 2.148967129709026480e+01 2.148967129709026480e+01 2.148967129709026480e+01 2.148967129709026480e+01 2.148967129709026480e+01 2.148967129709026480e+01 2.148967129709026480e+01 2.148967129709026480e+01
1.800000000000000000e+04 2.176670896930200882e+01 2.176670896930200882e+01 2.176670896930200882e+01 2.176670896930200882e+01 2.176670896930200882e+01 2.176670896930200882e+01 2.176670896930200882e+01 2.176670896930200882e+01 2.176670896930200882e+01 2.176670896930200882e+01 2.176670896930200882e+01 2.176670896930200882e+01 2.176670896930200882e+01 2.176670896930200882e+01
2.160000000000000000e+04 3.864877279483221884e+01 3.864877279483221884e+01 3.864877279483221884e+01 3.864877279483221884e+01 3.864877279483221884e+01 3.864877279483221884e+01 3.864877279483221884e+01 3.864877279483221884e+01 3.864877279483221884e+01 3.864877279483221884e+01 3.864877279483221884e+01 3.864877279483221884e+01 3.864877279483221884e+01 3.864877279483221884e+01
2.520000000000000000e+04 5.152732348653746612e+02 5.152732348653746612e+02 5.152732348653746612e+02 5.152732348653746612e+02 5.152732348653746612e+02 5.152732348653746612e+02 5.152732348653746612e+02 5.152732348653746612e+02 5.152732348653746612e+02 5.152732348653746612e+02 5.152732348653746612e+02 5.152732348653746612e+02 5.152732348653746612e+02 5.152732348653746612e+02
2.880000000000000000e+04 5.530414724461213609e+02 5.530414724461213609e+02 5.530414724461213609e+02 5.530414724461213609e+02 5.530414724461213609e+02 5.530414724461213609e+02 5.530414724461213609e+02 5.530414724461213609e+02 5.530414724461213609e+02 5.530414724461213609e+02 5.530414724461213609e+02 5.530414724461213609e+02 5.530414724461213609e+02 5.530414724461213609e+02
3.240000000000000000e+04 5.890108996060429263e+02 5.890108996060429263e+02 5.890108996060429263e+02 5.890108996060429263e+02 5.890108996060429263e+02 5.890108996060429263e+02 5.890108996060429263e+02 5.890108996060429263e+02 5.890108996060429263e+02 5.890108996060429263e+02 5.890108996060429263e+02 5.890108996060429263e+02 5.890108996060429263e+02 5.890108996060429263e+02
3.600000000000000000e+04 6.083179290287542926e+02 6.083179290287542926e+02 6.083179290287542926e+02 6.083179290287542926e+02 6.083179290287542926e+02 6.083179290287542926e+02 6.083179290287542926e+02 6.083179290287542926e+02 6.083179290287542926e+02 6.083179290287542926e+02 6.083179290287542926e+02 6.083179290287542926e+02 6.083179290287542926e+02 6.083179290287542926e+02
3.960000000000000000e+04 6.376376516320814289e+02 6.376376516320814289e+02 6.376376516320814289e+02 6.376376516320814289e+02 6.376376516320814289e+02 6.376376516320814289e+02 6.376376516320814289e+02 6.376376516320814289e+02 6.376376516320814289e+02 6.376376516320814289e+02 6.376376516320814289e+02 6.376376516320814289e+02 6.376376516320814289e+02 6.376376516320814289e+02
4.320000000000000000e+04 6.575395716858172364e+02 6.575395716858172364e+02 6.575395716858172364e+02 6.575395716858172364e+02 6.575395716858172364e+02 6.575395716858172364e+02 6.575395716858172364e+02 6.575395716858172364e+02 6.575395716858172364e+02 6.575395716858172364e+02 6.575395716858172364e+02 6.575395716858172364e+02 6.575395716858172364e+02 6.575395716858172364e+02
4.680000000000000000e+04 6.499255935231234389e+02 6.499255935231234389e+02 6.499255935231234389e+02 6.499255935231234389e+02 6.499255935231234389e+02 6.499255935231234389e+02 6.499255935231234389e+02 6.499255935231234389e+02 6.499255935231234389e+02 6.499255935231234389e+02 6.499255935231234389e+02 6.499255935231234389e+02 6.499255935231234389e+02 6.499255935231234389e+02
5.040000000000000000e+04 5.265288876979362840e+02 5.265288876979362840e+02 5.265288876979362840e+02 5.265288876979362840e+02 5.265288876979362840e+02 5.265288876979362840e+02 5.265288876979362840e+02 5.265288876979362840e+02 5.265288876979362840e+02 5.265288876979362840e+02 5.265288876979362840e+02 5.265288876979362840e+02 5.265288876979362840e+02 5.265288876979362840e+02
5.400000000000000000e+04 3.792065399016749438e+02 3.792065399016749438e+02 3.792065399016749438e+02 3.792065399016749438e+02 3.792065399016749438e+02 3.792065399016749438e+02 3.792065399016749438e+02 3.792065399016749438e+02 3.792065399016749438e+02 3.792065399016749438e+02 3.792065399016749438e+02 3.792065399016749438e+02 3.792065399016749438e+02 3.792065399016749438e+02
5.760000000000000000e+04 3.702353630023438313e+02 3.702353630023438313e+02 3.702353630023438313e+02 3.702353630023438313e+02 3.702353630023438313e+02 3.702353630023438313e+02 3.702353630023438313e+02 3.702353630023438313e+02 3.702353630023438313e+02 3.702353630023438313e+02 3.702353630023438313e+02 3.702353630023438313e+02 3.702353630023438313e+02 3.702353630023438313e+02
6.120000000000000000e+04 3.386877735379866863e+02 3.386877735379866863e+02 3.386877735379866863e+02 3.386877735379866863e+02 3.386877735379866863e+02 3.386877735379866863e+02 3.386877735379866863e+02 3.386877735379866863e+02 3.386877735379866863e+02 3.386877735379866863e+02 3.386877735379866863e+02 3.386877735379866863e+02 3.386877735379866863e+02 3.386877735379866863e+02
6.480000000000000000e+04 2.922687070542502852e+02 2.922687070542502852e+02 2.922687070542502852e+02 2.922687070542502852e+02 2.922687070542502852e+02 2.922687070542502852e+02 2.922687070542502852e+02 2.922687070542502852e+02 2.922687070542502852e+02 2.922687070542502852e+02 2.922687070542502852e+02 2.922687070542502852e+02 2.922687070542502852e+02 2.922687070542502852e+02
6.840000000000000000e+04 2.598951397701937935e+02 2.598951397701937935e+02 2.598951397701937935e+02 2.598951397701937935e+02 2.598951397701937935e+02 2.598951397701937935e+02 2.598951397701937935e+02 2.598951397701937935e+02 2.598951397701937935e+02 2.598951397701937935e+02 2.598951397701937935e+02 2.598951397701937935e+02 2.598951397701937935e+02 2.598951397701937935e+02
7.200000000000000000e+04 1.631301103298462181e+02 1.631301103298462181e+02 1.631301103298462181e+02 1.631301103298462181e+02 1.631301103298462181e+02 1.631301103298462181e+02 1.631301103298462181e+02 1.631301103298462181e+02 1.631301103298462181e+02 1.631301103298462181e+02 1.631301103298462181e+02 1.631301103298462181e+02 1.631301103298462181e+02 1.631301103298462181e+02
7.560000000000000000e+04 3.724873606585492070e+01 3.724873606585492070e+01 3.724873606585492070e+01 3.724873606585492070e+01 3.724873606585492070e+01 3.724873606585492070e+01 3.724873606585492070e+01 3.724873606585492070e+01 3.724873606585492070e+01 3.724873606585492070e+01 3.724873606585492070e+01 3.724873606585492070e+01 3.724873606585492070e+01 3.724873606585492070e+01
7.920000000000000000e+04 2.147065683416223791e+01 2.147065683416223791e+01 2.147065683416223791e+01 2.147065683416223791e+01 2.147065683416223791e+01 2.147065683416223791e+01 2.147065683416223791e+01 2.147065683416223791e+01 2.147065683416223791e+01 2.147065683416223791e+01 2.147065683416223791e+01 2.147065683416223791e+01 2.147065683416223791e+01 2.147065683416223791e+01
8.280000000000000000e+04 2.115618247298919385e+01 2.115618247298919385e+01 2.115618247298919385e+01 2.115618247298919385e+01 2.115618247298919385e+01 2.115618247298919385e+01 2.115618247298919385e+01 2.115618247298919385e+01 2.115618247298919385e+01 2.115618247298919385e+01 2.115618247298919385e+01 2.115618247298919385e+01 2.115618247298919385e+01 2.115618247298919385e+01
