#1
double table(24,15)
0.000000000000000000e+00 3.422095546790145022e+02 3.422095546790145022e+02 3.422095546790145022e+02 3.422095546790145022e+02 3.422095546790145022e+02 3.422095546790145022e+02 3.422095546790145022e+02 3.422095546790145022e+02 3.422095546790145022e+02 3.422095546790145022e+02 3.422095546790145022e+02 3.422095546790145022e+02 3.422095546790145022e+02 3.422095546790145022e+02
3.600000000000000000e+03 3.429850157205739265e+02 3.429850157205739265e+02 3.429850157205739265e+02 3.429850157205739265e+02 3.429850157205739265e+02 3.429850157205739265e+02 3.429850157205739265e+02 3.429850157205739265e+02 3.429850157205739265e+02 3.429850157205739265e+02 3.429850157205739265e+02 3.429850157205739265e+02 3.429850157205739265e+02 3.429850157205739265e+02
7.200000000000000000e+03 3.426368810381295589e+02 3.426368810381295589e+02 3.426368810381295589e+02 3.426368810381295589e+02 3.426368810381295589e+02 3.426368810381295589e+02 3.426368810381295589e+02 3.426368810381295589e+02 3.426368810381295589e+02 3.426368810381295589e+02 3.426368810381295589e+02 3.426368810381295589e+02 3.426368810381295589e+02 3.426368810381295589e+02
1.080000000000000000e+04 3.425737449265420196e+02 3.425737449265420196e+02 3.425737449265420196e+02 3.425737449265420196e+02 3.425737449265420196e+02 3.425737449265420196e+02 3.425737449265420196e+02 3.425737449265420196e+02 3.425737449265420196e+02 3.425737449265420196e+02 3.425737449265420196e+02 3.425737449265420196e+02 3.425737449265420196e+02 3.425737449265420196e+02
1.440000000000000000e+04 3.426415080317841557e+02 3.426415080317841557e+02 3.426415080317841557e+02 3.426415080317841557e+02 3.426415080317841557e+02 3.426415080317841557e+02 3.426415080317841557e+02 3.426415080317841557e+02 3.426415080317841557e+02 3.426415080317841557e+02 3.426415080317841557e+02 3.426415080317841557e+02 3.426415080317841557e+02 3.426415080317841557e+02
1.800000000000000000e+04 3.427211867604183908e+02 3.427211867604183908e+02 3.427211867604183908e+02 3.427211867604183908e+02 3.427211867604183908e+02 3.427211867604183908e+02 3.427211867604183908e+02 3.427211867604183908e+02 3.427211867604183908e+02 3.427211867604183908e+02 3.427211867604183908e+02 3.427211867604183908e+02 3.427211867604183908e+02 3.427211867604183908e+02
2.160000000000000000e+04 3.430353684330875126e+02 3.430353684330875126e+02 3.430353684330875126e+02 3.430353684330875126e+02 3.430353684330875126e+02 3.430353684330875126e+02 3.430353684330875126e+02 3.430353684330875126e+02 3.430353684330875126e+02 3.430353684330875126e+02 3.430353684330875126e+02 3.430353684330875126e+02 3.430353684330875126e+02 3.430353684330875126e+02
2.520000000000000000e+04 3.434476450580231699e+02 3.434476450580231699e+02 3.434476450580231699e+02 3.434476450580231699e+02 3.434476450580231699e+02 3.434476450580231699e+02 3.434476450580231699e+02 3.434476450580231699e+02 3.434476450580231699e+02 3.434476450580231699e+02 3.434476450580231699e+02 3.434476450580231699e+02 3.434476450580231699e+02 3.434476450580231699e+02
2.880000000000000000e+04 3.436403595724003708e+02 3.436403595724003708e+02 3.436403595724003708e+02 3.436403595724003708e+02 3.436403595724003708e+02 3.436403595724003708e+02 3.436403595724003708e+02 3.436403595724003708e+02 3.436403595724003708e+02 3.436403595724003708e+02 3.436403595724003708e+02 3.436403595724003708e+02 3.436403595724003708e+02 3.436403595724003708e+02
3.240000000000000000e+04 3.482485485379561965e+02 3.482485485379561965e+02 3.482485485379561965e+02 3.482485485379561965e+02 3.482485485379561965e+02 3.482485485379561965e+02 3.482485485379561965e+02 3.482485485379561965e+02 3.482485485379561965e+02 3.482485485379561965e+02 3.482485485379561965e+02 3.482485485379561965e+02 3.482485485379561965e+02 3.482485485379561965e+02
3.600000000000000000e+04 3.608623788086662785e+02 3.608623788086662785e+02 3.608623788086662785e+02 3.608623788086662785e+02 3.608623788086662785e+02 3.608623788086662785e+02 3.608623788086662785e+02 3.608623788086662785e+02 3.608623788086662785e+02 3.608623788086662785e+02 3.608623788086662785e+02 3.608623788086662785e+02 3.608623788086662785e+02 3.608623788086662785e+02
3.960000000000000000e+04 3.494303392785686242e+02 3.494303392785686242e+02 3.494303392785686242e+02 3.494303392785686242e+02 3.494303392785686242e+02 3.494303392785686242e+02 3.494303392785686242e+02 3.494303392785686242e+02 3.494303392785686242e+02 3.494303392785686242e+02 3.494303392785686242e+02 3.494303392785686242e+02 3.494303392785686242e+02 3.494303392785686242e+02
4.320000000000000000e+04 3.449210459898245063e+02 3.449210459898245063e+02 3.449210459898245063e+02 3.449210459898245063e+02 3.449210459898245063e+02 3.449210459898245063e+02 3.449210459898245063e+02 3.449210459898245063e+02 3.449210459898245063e+02 3.449210459898245063e+02 3.449210459898245063e+02 3.449210459898245063e+02 3.449210459898245063e+02 3.449210459898245063e+02
4.680000000000000000e+04 3.473035324129651826e+02 3.473035324129651826e+02 3.473035324129651826e+02 3.473035324129651826e+02 3.473035324129651826e+02 3.473035324129651826e+02 3.473035324129651826e+02 3.473035324129651826e+02 3.473035324129651826e+02 3.473035324129651826e+02 3.473035324129651826e+02 3.473035324129651826e+02 3.473035324129651826e+02 3.473035324129651826e+02
5.040000000000000000e+04 3.465060276967930122e+02 3.465060276967930122e+02 3.465060276967930122e+02 3.465060276967930122e+02 3.465060276967930122e+02 3.465060276967930122e+02 3.465060276967930122e+02 3.465060276967930122e+02 3.465060276967930122e+02 3.465060276967930122e+02 3.465060276967930122e+02 3.465060276967930122e+02 3.465060276967930122e+02 3.465060276967930122e+02
5.400000000000000000e+04 3.475564778768650172e+02 3.475564778768650172e+02 3.475564778768650172e+02 3.475564778768650172e+02 3.475564778768650172e+02 3.475564778768650172e+02 3.475564778768650172e+02 3.475564778768650172e+02 3.475564778768650172e+02 3.475564778768650172e+02 3.475564778768650172e+02 3.475564778768650172e+02 3.475564778768650172e+02 3.475564778768650172e+02
5.760000000000000000e+04 3.479323976733550694e+02 3.479323976733550694e+02 3.479323976733550694e+02 3.479323976733550694e+02 3.479323976733550694e+02 3.479323976733550694e+02 3.479323976733550694e+02 3.479323976733550694e+02 3.479323976733550694e+02 3.479323976733550694e+02 3.479323976733550694e+02 3.479323976733550694e+02 3.479323976733550694e+02 3.479323976733550694e+02
6.120000000000000000e+04 3.454456159606700680e+02 3.454456159606700680e+02 3.454456159606700680e+02 3.454456159606700680e+02 3.454456159606700680e+02 3.454456159606700680e+02 3.454456159606700680e+02 3.454456159606700680e+02 3.454456159606700680e+02 3.454456159606700680e+02 3.454456159606700680e+02 3.454456159606700680e+02 3.454456159606700680e+02 3.454456159606700680e+02
6.480000000000000000e+04 3.463584715314697746e+02 3.463584715314697746e+02 3.463584715314697746e+02 3.463584715314697746e+02 3.463584715314697746e+02 3.463584715314697746e+02 3.463584715314697746e+02 3.463584715314697746e+02 3.463584715314697746e+02 3.463584715314697746e+02 3.463584715314697746e+02 3.463584715314697746e+02 3.463584715314697746e+02 3.463584715314697746e+02
6.840000000000000000e+04 3.455465168924712316e+02 3.455465168924712316e+02 3.455465168924712316e+02 3.455465168924712316e+02 3.455465168924712316e+02 3.455465168924712316e+02 3.455465168924712316e+02 3.455465168924712316e+02 3.455465168924712316e+02 3.455465168924712316e+02 3.455465168924712316e+02 3.455465168924712316e+02 3.455465168924712316e+02 3.455465168924712316e+02
7.200000000000000000e+04 3.441306819870805498e+02 3.441306819870805498e+02 3.441306819870805498e+02 3.441306819870805498e+02 3.441306819870805498e+02 3.441306819870805498e+02 3.441306819870805498e+02 3.441306819870805498e+02 3.441306819870805498e+02 3.441306819870805498e+02 3.441306819870805498e+02 3.441306819870805498e+02 3.441306819870805498e+02 3.441306819870805498e+02
7.560000000000000000e+04 3.423725261533185176e+02 3.423725261533185176e+02 3.423725261533185176e+02 3.423725261533185176e+02 3.423725261533185176e+02 3.423725261533185176e+02 3.423725261533185176e+02 3.423725261533185176e+02 3.423725261533185176e+02 3.423725261533185176e+02 3.423725261533185176e+02 3.423725261533185176e+02 3.423725261533185176e+02 3.423725261533185176e+02
7.920000000000000000e+04 3.403389767335505667e+02 3.403389767335505667e+02 3.403389767335505667e+02 3.403389767335505667e+02 3.403389767335505667e+02 3.403389767335505667e+02 3.403389767335505667e+02 3.403389767335505667e+02 3.403389767335505667e+02 3.403389767335505667e+02 3.403389767335505667e+02 3.403389767335505667e+02 3.403389767335505667e+02 3.403389767335505667e+02
8.280000000000000000e+04 3.397098279311724696e+02 3.397098279311724696e+02 3.397098279311724696e+02 3.397098279311724696e+02 3.397098279311724696e+02 3.397098279311724696e+02 3.397098279311724696e+02 3.397098279311724696e+02 3.397098279311724696e+02 3.397098279311724696e+02 3.397098279311724696e+02 3.397098279311724696e+02 3.397098279311724696e+02 3.397098279311724696e+02
