#1
double table(24,15)
0.000000000000000000e+00 5.602240896358543464e-03 5.602240896358543464e-03 5.602240896358543464e-03 5.602240896358543464e-03 5.602240896358543464e-03 5.602240896358543464e-03 5.602240896358543464e-03 5.602240896358543464e-03 5.602240896358543464e-03 5.602240896358543464e-03 5.602240896358543464e-03 5.602240896358543464e-03 5.602240896358543464e-03 5.602240896358543464e-03
3.600000000000000000e+03 2.801120448179271732e-03 2.801120448179271732e-03 2.801120448179271732e-03 2.801120448179271732e-03 2.801120448179271732e-03 2.801120448179271732e-03 2.801120448179271732e-03 2.801120448179271732e-03 2.801120448179271732e-03 2.801120448179271732e-03 2.801120448179271732e-03 2.801120448179271732e-03 2.801120448179271732e-03 2.801120448179271732e-03
7.200000000000000000e+03 5.772594752186588872e-03 5.772594752186588872e-03 5.772594752186588872e-03 5.772594752186588872e-03 5.772594752186588872e-03 5.772594752186588872e-03 5.772594752186588872e-03 5.772594752186588872e-03 5.772594752186588872e-03 5.772594752186588872e-03 5.772594752186588872e-03 5.772594752186588872e-03 5.772594752186588872e-03 5.772594752186588872e-03
1.080000000000000000e+04 2.801120448179271732e-03 2.801120448179271732e-03 2.801120448179271732e-03 2.801120448179271732e-03 2.801120448179271732e-03 2.801120448179271732e-03 2.801120448179271732e-03 2.801120448179271732e-03 2.801120448179271732e-03 2.801120448179271732e-03 2.801120448179271732e-03 2.801120448179271732e-03 2.801120448179271732e-03 2.801120448179271732e-03
1.440000000000000000e+04 0.000000000000000000e+00 0.000000000000000000e+00 0.000000000000000000e+00 0.000000000000000000e+00 0.000000000000000000e+00 0.000000000000000000e+00 0.000000000000000000e+00 0.000000000000000000e+00 0.000000000000000000e+00 0.000000000000000000e+00 0.000000000000000000e+00 0.000000000000000000e+00 0.000000000000000000e+00 0.000000000000000000e+00
1.800000000000000000e+04 0.000000000000000000e+00 0.000000000000000000e+00 0.000000000000000000e+00 0.000000000000000000e+00 0.000000000000000000e+00 0.000000000000000000e+00 0.000000000000000000e+00 0.000000000000000000e+00 0.000000000000000000e+00 0.000000000000000000e+00 0.000000000000000000e+00 0.000000000000000000e+00 0.000000000000000000e+00 0.000000000000000000e+00
2.160000000000000000e+04 1.732007088549705406e-02 1.732007088549705406e-02 1.732007088549705406e-02 1.732007088549705406e-02 1.732007088549705406e-02 1.732007088549705406e-02 1.732007088549705406e-02 1.732007088549705406e-02 1.732007088549705406e-02 1.732007088549705406e-02 1.732007088549705406e-02 1.732007088549705406e-02 1.732007088549705406e-02 1.732007088549705406e-02
2.520000000000000000e+04 1.154218830389298622e-01 1.154218830389298622e-01 1.154218830389298622e-01 1.154218830389298622e-01 1.154218830389298622e-01 1.154218830389298622e-01 1.154218830389298622e-01 1.154218830389298622e-01 1.154218830389298622e-01 1.154218830389298622e-01 1.154218830389298622e-01 1.154218830389298622e-01 1.154218830389298622e-01 1.154218830389298622e-01
2.880000000000000000e+04 1.205643686045847068e-01 1.205643686045847068e-01 1.205643686045847068e-01 1.205643686045847068e-01 1.205643686045847068e-01 1.205643686045847068e-01 1.205643686045847068e-01 1.205643686045847068e-01 1.205643686045847068e-01 1.205643686045847068e-01 1.205643686045847068e-01 1.205643686045847068e-01 1.205643686045847068e-01 1.205643686045847068e-01
3.240000000000000000e+04 1.321580790370859571e-01 1.321580790370859571e-01 1.321580790370859571e-01 1.321580790370859571e-01 1.321580790370859571e-01 1.321580790370859571e-01 1.321580790370859571e-01 1.321580790370859571e-01 1.321580790370859571e-01 1.321580790370859571e-01 1.321580790370859571e-01 1.321580790370859571e-01 1.321580790370859571e-01 1.321580790370859571e-01
3.600000000000000000e+04 1.801463442519865288e-01 1.801463442519865288e-01 1.801463442519865288e-01 1.801463442519865288e-01 1.801463442519865288e-01 1.801463442519865288e-01 1.801463442519865288e-01 1.801463442519865288e-01 1.801463442519865288e-01 1.801463442519865288e-01 1.801463442519865288e-01 1.801463442519865288e-01 1.801463442519865288e-01 1.801463442519865288e-01
3.960000000000000000e+04 1.492364088492539875e-01 1.492364088492539875e-01 1.492364088492539875e-01 1.492364088492539875e-01 1.492364088492539875e-01 1.492364088492539875e-01 1.492364088492539875e-01 1.492364088492539875e-01 1.492364088492539875e-01 1.492364088492539875e-01 1.492364088492539875e-01 1.492364088492539875e-01 1.492364088492539875e-01 1.492364088492539875e-01
4.320000000000000000e+04 1.319161950494483482e-01 1.319161950494483482e-01 1.319161950494483482e-01 1.319161950494483482e-01 1.319161950494483482e-01 1.319161950494483482e-01 1.319161950494483482e-01 1.319161950494483482e-01 1.319161950494483482e-01 1.319161950494483482e-01 1.319161950494483482e-01 1.319161950494483482e-01 1.319161950494483482e-01 1.319161950494483482e-01
4.680000000000000000e+04 1.812087692219745139e-01 1.812087692219745139e-01 1.812087692219745139e-01 1.812087692219745139e-01 1.812087692219745139e-01 1.812087692219745139e-01 1.812087692219745139e-01 1.812087692219745139e-01 1.812087692219745139e-01 1.812087692219745139e-01 1.812087692219745139e-01 1.812087692219745139e-01 1.812087692219745139e-01 1.812087692219745139e-01
5.040000000000000000e+04 2.123642314068484027e-01 2.123642314068484027e-01 2.123642314068484027e-01 2.123642314068484027e-01 2.123642314068484027e-01 2.123642314068484027e-01 2.123642314068484027e-01 2.123642314068484027e-01 2.123642314068484027e-01 2.123642314068484027e-01 2.123642314068484027e-01 2.123642314068484027e-01 2.123642314068484027e-01 2.123642314068484027e-01
5.400000000000000000e+04 2.183773509403761637e-01 2.183773509403761637e-01 2.183773509403761637e-01 2.183773509403761637e-01 2.183773509403761637e-01 2.183773509403761637e-01 2.183773509403761637e-01 2.183773509403761637e-01 2.183773509403761637e-01 2.183773509403761637e-01 2.183773509403761637e-01 2.183773509403761637e-01 2.183773509403761637e-01 2.183773509403761637e-01
5.760000000000000000e+04 2.173589435774309908e-01 2.173589435774309908e-01 2.173589435774309908e-01 2.173589435774309908e-01 2.173589435774309908e-01 2.173589435774309908e-01 2.173589435774309908e-01 2.173589435774309908e-01 2.173589435774309908e-01 2.173589435774309908e-01 2.173589435774309908e-01 2.173589435774309908e-01 2.173589435774309908e-01 2.173589435774309908e-01
6.120000000000000000e+04 1.974458354770480262e-01 1.974458354770480262e-01 1.974458354770480262e-01 1.974458354770480262e-01 1.974458354770480262e-01 1.974458354770480262e-01 1.974458354770480262e-01 1.974458354770480262e-01 1.974458354770480262e-01 1.974458354770480262e-01 1.974458354770480262e-01 1.974458354770480262e-01 1.974458354770480262e-01 1.974458354770480262e-01
6.480000000000000000e+04 2.012920882638769560e-01 2.012920882638769560e-01 2.012920882638769560e-01 2.012920882638769560e-01 2.012920882638769560e-01 2.012920882638769560e-01 2.012920882638769560e-01 2.012920882638769560e-01 2.012920882638769560e-01 2.012920882638769560e-01 2.012920882638769560e-01 2.012920882638769560e-01 2.012920882638769560e-01 2.012920882638769560e-01
6.840000000000000000e+04 1.971977362373520948e-01 1.971977362373520948e-01 1.971977362373520948e-01 1.971977362373520948e-01 1.971977362373520948e-01 1.971977362373520948e-01 1.971977362373520948e-01 1.971977362373520948e-01 1.971977362373520948e-01 1.971977362373520948e-01 1.971977362373520948e-01 1.971977362373520948e-01 1.971977362373520948e-01 1.971977362373520948e-01
7.200000000000000000e+04 1.654753329903389802e-01 1.654753329903389802e-01 1.654753329903389802e-01 1.654753329903389802e-01 1.654753329903389802e-01 1.654753329903389802e-01 1.654753329903389802e-01 1.654753329903389802e-01 1.654753329903389802e-01 1.654753329903389802e-01 1.654753329903389802e-01 1.654753329903389802e-01 1.654753329903389802e-01 1.654753329903389802e-01
7.560000000000000000e+04 4.761904761904762334e-02 4.761904761904762334e-02 4.761904761904762334e-02 4.761904761904762334e-02 4.761904761904762334e-02 4.761904761904762334e-02 4.761904761904762334e-02 4.761904761904762334e-02 4.761904761904762334e-02 4.761904761904762334e-02 4.761904761904762334e-02 4.761904761904762334e-02 4.761904761904762334e-02 4.761904761904762334e-02
7.920000000000000000e+04 1.703309895386726294e-02 1.703309895386726294e-02 1.703309895386726294e-02 1.703309895386726294e-02 1.703309895386726294e-02 1.703309895386726294e-02 1.703309895386726294e-02 1.703309895386726294e-02 1.703309895386726294e-02 1.703309895386726294e-02 1.703309895386726294e-02 1.703309895386726294e-02 1.703309895386726294e-02 1.703309895386726294e-02
8.280000000000000000e+04 2.006059566683816159e-02 2.006059566683816159e-02 2.006059566683816159e-02 2.006059566683816159e-02 2.006059566683816159e-02 2.006059566683816159e-02 2.006059566683816159e-02 2.006059566683816159e-02 2.006059566683816159e-02 2.006059566683816159e-02 2.006059566683816159e-02 2.006059566683816159e-02 2.006059566683816159e-02 2.006059566683816159e-02
