#1
double table(24,15)
0.000000000000000000e+00 3.695758646315669438e+01 3.695758646315669438e+01 3.695758646315669438e+01 3.695758646315669438e+01 3.695758646315669438e+01 3.695758646315669438e+01 3.695758646315669438e+01 3.695758646315669438e+01 3.695758646315669438e+01 3.695758646315669438e+01 3.695758646315669438e+01 3.695758646315669438e+01 3.695758646315669438e+01 3.695758646315669438e+01
3.600000000000000000e+03 3.696050191505173643e+01 3.696050191505173643e+01 3.696050191505173643e+01 3.696050191505173643e+01 3.696050191505173643e+01 3.696050191505173643e+01 3.696050191505173643e+01 3.696050191505173643e+01 3.696050191505173643e+01 3.696050191505173643e+01 3.696050191505173643e+01 3.696050191505173643e+01 3.696050191505173643e+01 3.696050191505173643e+01
7.200000000000000000e+03 3.699170868347339081e+01 3.699170868347339081e+01 3.699170868347339081e+01 3.699170868347339081e+01 3.699170868347339081e+01 3.699170868347339081e+01 3.699170868347339081e+01 3.699170868347339081e+01 3.699170868347339081e+01 3.699170868347339081e+01 3.699170868347339081e+01 3.699170868347339081e+01 3.699170868347339081e+01 3.699170868347339081e+01
1.080000000000000000e+04 3.698616246498600191e+01 3.698616246498600191e+01 3.698616246498600191e+01 3.698616246498600191e+01 3.698616246498600191e+01 3.698616246498600191e+01 3.698616246498600191e+01 3.698616246498600191e+01 3.698616246498600191e+01 3.698616246498600191e+01 3.698616246498600191e+01 3.698616246498600191e+01 3.698616246498600191e+01 3.698616246498600191e+01
1.440000000000000000e+04 3.697444692162579116e+01 3.697444692162579116e+01 3.697444692162579116e+01 3.697444692162579116e+01 3.697444692162579116e+01 3.697444692162579116e+01 3.697444692162579116e+01 3.697444692162579116e+01 3.697444692162579116e+01 3.697444692162579116e+01 3.697444692162579116e+01 3.697444692162579116e+01 3.697444692162579116e+01 3.697444692162579116e+01
1.800000000000000000e+04 3.697433716343680743e+01 3.697433716343680743e+01 3.697433716343680743e+01 3.697433716343680743e+01 3.697433716343680743e+01 3.697433716343680743e+01 3.697433716343680743e+01 3.697433716343680743e+01 3.697433716343680743e+01 3.697433716343680743e+01 3.697433716343680743e+01 3.697433716343680743e+01 3.697433716343680743e+01 3.697433716343680743e+01
2.160000000000000000e+04 3.695969187675070344e+01 3.695969187675070344e+01 3.695969187675070344e+01 3.695969187675070344e+01 3.695969187675070344e+01 3.695969187675070344e+01 3.695969187675070344e+01 3.695969187675070344e+01 3.695969187675070344e+01 3.695969187675070344e+01 3.695969187675070344e+01 3.695969187675070344e+01 3.695969187675070344e+01 3.695969187675070344e+01
2.520000000000000000e+04 3.695449579831932851e+01 3.695449579831932851e+01 3.695449579831932851e+01 3.695449579831932851e+01 3.695449579831932851e+01 3.695449579831932851e+01 3.695449579831932851e+01 3.695449579831932851e+01 3.695449579831932851e+01 3.695449579831932851e+01 3.695449579831932851e+01 3.695449579831932851e+01 3.695449579831932851e+01 3.695449579831932851e+01
2.880000000000000000e+04 3.695181372549019017e+01 3.695181372549019017e+01 3.695181372549019017e+01 3.695181372549019017e+01 3.695181372549019017e+01 3.695181372549019017e+01 3.695181372549019017e+01 3.695181372549019017e+01 3.695181372549019017e+01 3.695181372549019017e+01 3.695181372549019017e+01 3.695181372549019017e+01 3.695181372549019017e+01 3.695181372549019017e+01
3.240000000000000000e+04 3.692305478001348007e+01 3.692305478001348007e+01 3.692305478001348007e+01 3.692305478001348007e+01 3.692305478001348007e+01 3.692305478001348007e+01 3.692305478001348007e+01 3.692305478001348007e+01 3.692305478001348007e+01 3.692305478001348007e+01 3.692305478001348007e+01 3.692305478001348007e+01 3.692305478001348007e+01 3.692305478001348007e+01
3.600000000000000000e+04 3.682067711700064194e+01 3.682067711700064194e+01 3.682067711700064194e+01 3.682067711700064194e+01 3.682067711700064194e+01 3.682067711700064194e+01 3.682067711700064194e+01 3.682067711700064194e+01 3.682067711700064194e+01 3.682067711700064194e+01 3.682067711700064194e+01 3.682067711700064194e+01 3.682067711700064194e+01 3.682067711700064194e+01
3.960000000000000000e+04 3.680226206966302982e+01 3.680226206966302982e+01 3.680226206966302982e+01 3.680226206966302982e+01 3.680226206966302982e+01 3.680226206966302982e+01 3.680226206966302982e+01 3.680226206966302982e+01 3.680226206966302982e+01 3.680226206966302982e+01 3.680226206966302982e+01 3.680226206966302982e+01 3.680226206966302982e+01 3.680226206966302982e+01
4.320000000000000000e+04 3.676649835758479412e+01 3.676649835758479412e+01 3.676649835758479412e+01 3.676649835758479412e+01 3.676649835758479412e+01 3.676649835758479412e+01 3.676649835758479412e+01 3.676649835758479412e+01 3.676649835758479412e+01 3.676649835758479412e+01 3.676649835758479412e+01 3.676649835758479412e+01 3.676649835758479412e+01 3.676649835758479412e+01
4.680000000000000000e+04 3.677675252518589843e+01 3.677675252518589843e+01 3.677675252518589843e+01 3.677675252518589843e+01 3.677675252518589843e+01 3.677675252518589843e+01 3.677675252518589843e+01 3.677675252518589843e+01 3.677675252518589843e+01 3.677675252518589843e+01 3.677675252518589843e+01 3.677675252518589843e+01 3.677675252518589843e+01 3.677675252518589843e+01
5.040000000000000000e+04 3.674254236859579947e+01 3.674254236859579947e+01 3.674254236859579947e+01 3.674254236859579947e+01 3.674254236859579947e+01 3.674254236859579947e+01 3.674254236859579947e+01 3.674254236859579947e+01 3.674254236859579947e+01 3.674254236859579947e+01 3.674254236859579947e+01 3.674254236859579947e+01 3.674254236859579947e+01 3.674254236859579947e+01
5.400000000000000000e+04 3.674949155486370245e+01 3.674949155486370245e+01 3.674949155486370245e+01 3.674949155486370245e+01 3.674949155486370245e+01 3.674949155486370245e+01 3.674949155486370245e+01 3.674949155486370245e+01 3.674949155486370245e+01 3.674949155486370245e+01 3.674949155486370245e+01 3.674949155486370245e+01 3.674949155486370245e+01 3.674949155486370245e+01
5.760000000000000000e+04 3.674956775017699329e+01 3.674956775017699329e+01 3.674956775017699329e+01 3.674956775017699329e+01 3.674956775017699329e+01 3.674956775017699329e+01 3.674956775017699329e+01 3.674956775017699329e+01 3.674956775017699329e+01 3.674956775017699329e+01 3.674956775017699329e+01 3.674956775017699329e+01 3.674956775017699329e+01 3.674956775017699329e+01
6.120000000000000000e+04 3.687554621848739345e+01 3.687554621848739345e+01 3.687554621848739345e+01 3.687554621848739345e+01 3.687554621848739345e+01 3.687554621848739345e+01 3.687554621848739345e+01 3.687554621848739345e+01 3.687554621848739345e+01 3.687554621848739345e+01 3.687554621848739345e+01 3.687554621848739345e+01 3.687554621848739345e+01 3.687554621848739345e+01
6.480000000000000000e+04 3.690927871148459616e+01 3.690927871148459616e+01 3.690927871148459616e+01 3.690927871148459616e+01 3.690927871148459616e+01 3.690927871148459616e+01 3.690927871148459616e+01 3.690927871148459616e+01 3.690927871148459616e+01 3.690927871148459616e+01 3.690927871148459616e+01 3.690927871148459616e+01 3.690927871148459616e+01 3.690927871148459616e+01
6.840000000000000000e+04 3.734673223135407483e+01 3.734673223135407483e+01 3.734673223135407483e+01 3.734673223135407483e+01 3.734673223135407483e+01 3.734673223135407483e+01 3.734673223135407483e+01 3.734673223135407483e+01 3.734673223135407483e+01 3.734673223135407483e+01 3.734673223135407483e+01 3.734673223135407483e+01 3.734673223135407483e+01 3.734673223135407483e+01
7.200000000000000000e+04 3.698683996675593022e+01 3.698683996675593022e+01 3.698683996675593022e+01 3.698683996675593022e+01 3.698683996675593022e+01 3.698683996675593022e+01 3.698683996675593022e+01 3.698683996675593022e+01 3.698683996675593022e+01 3.698683996675593022e+01 3.698683996675593022e+01 3.698683996675593022e+01 3.698683996675593022e+01 3.698683996675593022e+01
7.560000000000000000e+04 3.697014084754781749e+01 3.697014084754781749e+01 3.697014084754781749e+01 3.697014084754781749e+01 3.697014084754781749e+01 3.697014084754781749e+01 3.697014084754781749e+01 3.697014084754781749e+01 3.697014084754781749e+01 3.697014084754781749e+01 3.697014084754781749e+01 3.697014084754781749e+01 3.697014084754781749e+01 3.697014084754781749e+01
7.920000000000000000e+04 3.696139664657071933e+01 3.696139664657071933e+01 3.696139664657071933e+01 3.696139664657071933e+01 3.696139664657071933e+01 3.696139664657071933e+01 3.696139664657071933e+01 3.696139664657071933e+01 3.696139664657071933e+01 3.696139664657071933e+01 3.696139664657071933e+01 3.696139664657071933e+01 3.696139664657071933e+01 3.696139664657071933e+01
8.280000000000000000e+04 3.698044817927171124e+01 3.698044817927171124e+01 3.698044817927171124e+01 3.698044817927171124e+01 3.698044817927171124e+01 3.698044817927171124e+01 3.698044817927171124e+01 3.698044817927171124e+01 3.698044817927171124e+01 3.698044817927171124e+01 3.698044817927171124e+01 3.698044817927171124e+01 3.698044817927171124e+01 3.698044817927171124e+01
