#1
double table(24,15)
0.000000000000000000e+00 4.368600000000000136e+02 4.604932026143790722e+02 4.604932026143790722e+02 4.368600000000000136e+02 4.604932026143790722e+02 4.469607843137254690e+02 4.469607843137254690e+02 4.368600000000000136e+02 4.604932026143790722e+02 4.604932026143790722e+02 4.368600000000000136e+02 4.604932026143790722e+02 4.469607843137254690e+02 4.469607843137254690e+02
3.600000000000000000e+03 4.267500000000000000e+02 4.404445751633986674e+02 4.404445751633986674e+02 4.267500000000000000e+02 4.404445751633986674e+02 4.358627450980392268e+02 4.358627450980392268e+02 4.267500000000000000e+02 4.404445751633986674e+02 4.404445751633986674e+02 4.267500000000000000e+02 4.404445751633986674e+02 4.358627450980392268e+02 4.358627450980392268e+02
7.200000000000000000e+03 4.291800000000000068e+02 4.492793464052287504e+02 4.492793464052287504e+02 4.291800000000000068e+02 4.492793464052287504e+02 4.362352941176470722e+02 4.362352941176470722e+02 4.291800000000000068e+02 4.492793464052287504e+02 4.492793464052287504e+02 4.291800000000000068e+02 4.492793464052287504e+02 4.362352941176470722e+02 4.362352941176470722e+02
1.080000000000000000e+04 4.425600000000000023e+02 4.567764705882352700e+02 4.567764705882352700e+02 4.425600000000000023e+02 4.567764705882352700e+02 4.484215686274509949e+02 4.484215686274509949e+02 4.425600000000000023e+02 4.567764705882352700e+02 4.567764705882352700e+02 4.425600000000000023e+02 4.567764705882352700e+02 4.484215686274509949e+02 4.484215686274509949e+02
1.440000000000000000e+04 4.329099999999999682e+02 4.461633986928104605e+02 4.461633986928104605e+02 4.329099999999999682e+02 4.461633986928104605e+02 4.316568627450980102e+02 4.316568627450980102e+02 4.329099999999999682e+02 4.461633986928104605e+02 4.461633986928104605e+02 4.329099999999999682e+02 4.461633986928104605e+02 4.316568627450980102e+02 4.316568627450980102e+02
1.800000000000000000e+04 4.202799999999999727e+02 4.322487581699346606e+02 4.322487581699346606e+02 4.202799999999999727e+02 4.322487581699346606e+02 4.281568627450980102e+02 4.281568627450980102e+02 4.202799999999999727e+02 4.322487581699346606e+02 4.322487581699346606e+02 4.202799999999999727e+02 4.322487581699346606e+02 4.281568627450980102e+02 4.281568627450980102e+02
2.160000000000000000e+04 4.164900000000000091e+02 4.323767320261437703e+02 4.323767320261437703e+02 4.164900000000000091e+02 4.323767320261437703e+02 4.427745098039215463e+02 4.427745098039215463e+02 4.164900000000000091e+02 4.323767320261437703e+02 4.323767320261437703e+02 4.164900000000000091e+02 4.323767320261437703e+02 4.427745098039215463e+02 4.427745098039215463e+02
2.520000000000000000e+04 4.201200000000000045e+02 4.494646498599439042e+02 4.494646498599439042e+02 4.201200000000000045e+02 4.494646498599439042e+02 4.434215686274509380e+02 4.434215686274509380e+02 4.201200000000000045e+02 4.494646498599439042e+02 4.494646498599439042e+02 4.201200000000000045e+02 4.494646498599439042e+02 4.434215686274509380e+02 4.434215686274509380e+02
2.880000000000000000e+04 4.313700000000000045e+02 4.492026250500200035e+02 4.492026250500200035e+02 4.313700000000000045e+02 4.492026250500200035e+02 4.272352941176470722e+02 4.272352941176470722e+02 4.313700000000000045e+02 4.492026250500200035e+02 4.492026250500200035e+02 4.313700000000000045e+02 4.492026250500200035e+02 4.272352941176470722e+02 4.272352941176470722e+02
3.240000000000000000e+04 4.313199999999999932e+02 4.347245424836601160e+02 4.347245424836601160e+02 4.313199999999999932e+02 4.347245424836601160e+02 4.124238310708898894e+02 4.124238310708898894e+02 4.313199999999999932e+02 4.347245424836601160e+02 4.347245424836601160e+02 4.313199999999999932e+02 4.347245424836601160e+02 4.124238310708898894e+02 4.124238310708898894e+02
3.600000000000000000e+04 4.285199999999999818e+02 4.235587995198079625e+02 4.235587995198079625e+02 4.285199999999999818e+02 4.235587995198079625e+02 4.175311085972850833e+02 4.175311085972850833e+02 4.285199999999999818e+02 4.235587995198079625e+02 4.235587995198079625e+02 4.285199999999999818e+02 4.235587995198079625e+02 4.175311085972850833e+02 4.175311085972850833e+02
3.960000000000000000e+04 4.220142857142857338e+02 4.174725623582766616e+02 4.174725623582766616e+02 4.220142857142857338e+02 4.174725623582766616e+02 4.192861990950226527e+02 4.192861990950226527e+02 4.220142857142857338e+02 4.174725623582766616e+02 4.174725623582766616e+02 4.220142857142857338e+02 4.174725623582766616e+02 4.192861990950226527e+02 4.192861990950226527e+02
4.320000000000000000e+04 4.165734693877550967e+02 3.968059863945578059e+02 3.968059863945578059e+02 4.165734693877550967e+02 3.968059863945578059e+02 3.980328054298642542e+02 3.980328054298642542e+02 4.165734693877550967e+02 3.968059863945578059e+02 3.968059863945578059e+02 4.165734693877550967e+02 3.968059863945578059e+02 3.980328054298642542e+02 3.980328054298642542e+02
4.680000000000000000e+04 4.150408163265306030e+02 4.085806295851674008e+02 4.085806295851674008e+02 4.150408163265306030e+02 4.085806295851674008e+02 3.913627450980392268e+02 3.913627450980392268e+02 4.150408163265306030e+02 4.085806295851674008e+02 4.085806295851674008e+02 4.150408163265306030e+02 4.085806295851674008e+02 3.913627450980392268e+02 3.913627450980392268e+02
5.040000000000000000e+04 4.333265306122449374e+02 4.130754861944778327e+02 4.130754861944778327e+02 4.333265306122449374e+02 4.130754861944778327e+02 3.964117647058823195e+02 3.964117647058823195e+02 4.333265306122449374e+02 4.130754861944778327e+02 4.130754861944778327e+02 4.333265306122449374e+02 4.130754861944778327e+02 3.964117647058823195e+02 3.964117647058823195e+02
5.400000000000000000e+04 4.254183673469387941e+02 4.152938508736828567e+02 4.152938508736828567e+02 4.254183673469387941e+02 4.152938508736828567e+02 4.123823529411764639e+02 4.123823529411764639e+02 4.254183673469387941e+02 4.152938508736828567e+02 4.152938508736828567e+02 4.254183673469387941e+02 4.152938508736828567e+02 4.123823529411764639e+02 4.123823529411764639e+02
5.760000000000000000e+04 4.408024489795918726e+02 4.071990129385087585e+02 4.071990129385087585e+02 4.408024489795918726e+02 4.071990129385087585e+02 4.272352941176470722e+02 4.272352941176470722e+02 4.408024489795918726e+02 4.071990129385087585e+02 4.071990129385087585e+02 4.408024489795918726e+02 4.071990129385087585e+02 4.272352941176470722e+02 4.272352941176470722e+02
6.120000000000000000e+04 4.522799999999999727e+02 4.242634387088168637e+02 4.242634387088168637e+02 4.522799999999999727e+02 4.242634387088168637e+02 4.298809803921568573e+02 4.298809803921568573e+02 4.522799999999999727e+02 4.242634387088168637e+02 4.242634387088168637e+02 4.522799999999999727e+02 4.242634387088168637e+02 4.298809803921568573e+02 4.298809803921568573e+02
6.480000000000000000e+04 4.904500000000000455e+02 4.493849273042549726e+02 4.493849273042549726e+02 4.904500000000000455e+02 4.493849273042549726e+02 4.473627450980392268e+02 4.473627450980392268e+02 4.904500000000000455e+02 4.493849273042549726e+02 4.493849273042549726e+02 4.904500000000000455e+02 4.493849273042549726e+02 4.473627450980392268e+02 4.473627450980392268e+02
6.840000000000000000e+04 5.199776470588235497e+02 4.681081045751633951e+02 4.681081045751633951e+02 5.199776470588235497e+02 4.681081045751633951e+02 4.629841628959276250e+02 4.629841628959276250e+02 5.199776470588235497e+02 4.681081045751633951e+02 4.681081045751633951e+02 5.199776470588235497e+02 4.681081045751633951e+02 4.629841628959276250e+02 4.629841628959276250e+02
7.200000000000000000e+04 5.213999999999999773e+02 4.747963398692809847e+02 4.747963398692809847e+02 5.213999999999999773e+02 4.747963398692809847e+02 4.633946078431372371e+02 4.633946078431372371e+02 5.213999999999999773e+02 4.747963398692809847e+02 4.747963398692809847e+02 5.213999999999999773e+02 4.747963398692809847e+02 4.633946078431372371e+02 4.633946078431372371e+02
7.560000000000000000e+04 4.871341176470588152e+02 4.596852287581698988e+02 4.596852287581698988e+02 4.871341176470588152e+02 4.596852287581698988e+02 4.624215686274509380e+02 4.624215686274509380e+02 4.871341176470588152e+02 4.596852287581698988e+02 4.596852287581698988e+02 4.871341176470588152e+02 4.596852287581698988e+02 4.624215686274509380e+02 4.624215686274509380e+02
7.920000000000000000e+04 4.857331372549019761e+02 4.569126797385620762e+02 4.569126797385620762e+02 4.857331372549019761e+02 4.569126797385620762e+02 4.532285067873302751e+02 4.532285067873302751e+02 4.857331372549019761e+02 4.569126797385620762e+02 4.569126797385620762e+02 4.857331372549019761e+02 4.569126797385620762e+02 4.532285067873302751e+02 4.532285067873302751e+02
8.280000000000000000e+04 4.739382352941176464e+02 4.645307189542483570e+02 4.645307189542483570e+02 4.739382352941176464e+02 4.645307189542483570e+02 4.490841176470588039e+02 4.490841176470588039e+02 4.739382352941176464e+02 4.645307189542483570e+02 4.645307189542483570e+02 4.739382352941176464e+02 4.645307189542483570e+02 4.490841176470588039e+02 4.490841176470588039e+02
