#1
double table(24,15)
0.000000000000000000e+00 0.000000000000000000e+00 4.588769143505388448e-01 4.588769143505388448e-01 4.588769143505388448e-01 4.588769143505388448e-01 0.000000000000000000e+00 0.000000000000000000e+00 0.000000000000000000e+00 4.588769143505388448e-01 4.588769143505388448e-01 4.588769143505388448e-01 4.588769143505388448e-01 0.000000000000000000e+00 0.000000000000000000e+00
3.600000000000000000e+03 0.000000000000000000e+00 4.707884288145207097e-01 4.707884288145207097e-01 4.707884288145207097e-01 4.707884288145207097e-01 0.000000000000000000e+00 0.000000000000000000e+00 0.000000000000000000e+00 4.707884288145207097e-01 4.707884288145207097e-01 4.707884288145207097e-01 4.707884288145207097e-01 0.000000000000000000e+00 0.000000000000000000e+00
7.200000000000000000e+03 0.000000000000000000e+00 4.649744753261486063e-01 4.649744753261486063e-01 4.649744753261486063e-01 4.649744753261486063e-01 0.000000000000000000e+00 0.000000000000000000e+00 0.000000000000000000e+00 4.649744753261486063e-01 4.649744753261486063e-01 4.649744753261486063e-01 4.649744753261486063e-01 0.000000000000000000e+00 0.000000000000000000e+00
1.080000000000000000e+04 0.000000000000000000e+00 4.588769143505388448e-01 4.588769143505388448e-01 4.588769143505388448e-01 4.588769143505388448e-01 0.000000000000000000e+00 0.000000000000000000e+00 0.000000000000000000e+00 4.588769143505388448e-01 4.588769143505388448e-01 4.588769143505388448e-01 4.588769143505388448e-01 0.000000000000000000e+00 0.000000000000000000e+00
1.440000000000000000e+04 0.000000000000000000e+00 4.649744753261486063e-01 4.649744753261486063e-01 4.649744753261486063e-01 4.649744753261486063e-01 0.000000000000000000e+00 0.000000000000000000e+00 0.000000000000000000e+00 4.649744753261486063e-01 4.649744753261486063e-01 4.649744753261486063e-01 4.649744753261486063e-01 0.000000000000000000e+00 0.000000000000000000e+00
1.800000000000000000e+04 0.000000000000000000e+00 4.707884288145207097e-01 4.707884288145207097e-01 4.707884288145207097e-01 4.707884288145207097e-01 0.000000000000000000e+00 0.000000000000000000e+00 0.000000000000000000e+00 4.707884288145207097e-01 4.707884288145207097e-01 4.707884288145207097e-01 4.707884288145207097e-01 0.000000000000000000e+00 0.000000000000000000e+00
2.160000000000000000e+04 0.000000000000000000e+00 4.588769143505388448e-01 4.588769143505388448e-01 4.588769143505388448e-01 4.588769143505388448e-01 0.000000000000000000e+00 0.000000000000000000e+00 0.000000000000000000e+00 4.588769143505388448e-01 4.588769143505388448e-01 4.588769143505388448e-01 4.588769143505388448e-01 0.000000000000000000e+00 0.000000000000000000e+00
2.520000000000000000e+04 0.000000000000000000e+00 4.649744753261486063e-01 4.649744753261486063e-01 4.649744753261486063e-01 4.649744753261486063e-01 0.000000000000000000e+00 0.000000000000000000e+00 0.000000000000000000e+00 4.649744753261486063e-01 4.649744753261486063e-01 4.649744753261486063e-01 4.649744753261486063e-01 0.000000000000000000e+00 0.000000000000000000e+00
2.880000000000000000e+04 0.000000000000000000e+00 5.056721497447532743e-01 5.056721497447532743e-01 5.056721497447532743e-01 5.056721497447532743e-01 2.790697674418604612e-01 0.000000000000000000e+00 0.000000000000000000e+00 5.056721497447532743e-01 5.056721497447532743e-01 5.056721497447532743e-01 5.056721497447532743e-01 2.790697674418604612e-01 0.000000000000000000e+00
3.240000000000000000e+04 0.000000000000000000e+00 6.306547619047617736e-01 6.306547619047617736e-01 6.306547619047617736e-01 6.306547619047617736e-01 1.000000000000000000e+00 0.000000000000000000e+00 0.000000000000000000e+00 6.306547619047617736e-01 6.306547619047617736e-01 6.306547619047617736e-01 6.306547619047617736e-01 1.000000000000000000e+00 0.000000000000000000e+00
3.600000000000000000e+04 3.414634146341463672e-01 3.023461767009696821e+00 3.023461767009696821e+00 3.023461767009696821e+00 3.023461767009696821e+00 5.906976744186046346e+00 1.590909090909090884e-01 3.414634146341463672e-01 3.023461767009696821e+00 3.023461767009696821e+00 3.023461767009696821e+00 3.023461767009696821e+00 5.906976744186046346e+00 1.590909090909090884e-01
3.960000000000000000e+04 5.250000000000000222e-01 9.090291845609485222e+00 9.090291845609485222e+00 9.090291845609485222e+00 9.090291845609485222e+00 1.120930232558139572e+01 6.590909090909090606e-01 5.250000000000000222e-01 9.090291845609485222e+00 9.090291845609485222e+00 9.090291845609485222e+00 9.090291845609485222e+00 1.120930232558139572e+01 6.590909090909090606e-01
4.320000000000000000e+04 5.121951219512195230e-01 9.760034303000836076e+00 9.760034303000836076e+00 9.760034303000836076e+00 9.760034303000836076e+00 1.120930232558139572e+01 7.727272727272727071e-01 5.121951219512195230e-01 9.760034303000836076e+00 9.760034303000836076e+00 9.760034303000836076e+00 9.760034303000836076e+00 1.120930232558139572e+01 7.727272727272727071e-01
4.680000000000000000e+04 5.121951219512195230e-01 9.807653350619885302e+00 9.807653350619885302e+00 9.807653350619885302e+00 9.807653350619885302e+00 1.120930232558139572e+01 9.534883720930232842e-01 5.121951219512195230e-01 9.807653350619885302e+00 9.807653350619885302e+00 9.807653350619885302e+00 9.807653350619885302e+00 1.120930232558139572e+01 9.534883720930232842e-01
5.040000000000000000e+04 5.121951219512195230e-01 9.599944629014396824e+00 9.599944629014396824e+00 9.599944629014396824e+00 9.599944629014396824e+00 1.060465116279069697e+01 7.441860465116278966e-01 5.121951219512195230e-01 9.599944629014396824e+00 9.599944629014396824e+00 9.599944629014396824e+00 9.599944629014396824e+00 1.060465116279069697e+01 7.441860465116278966e-01
5.400000000000000000e+04 5.853658536585365502e-01 8.583471760797342753e+00 8.583471760797342753e+00 8.583471760797342753e+00 8.583471760797342753e+00 1.027906976744186096e+01 1.395348837209302306e-01 5.853658536585365502e-01 8.583471760797342753e+00 8.583471760797342753e+00 8.583471760797342753e+00 8.583471760797342753e+00 1.027906976744186096e+01 1.395348837209302306e-01
5.760000000000000000e+04 5.238095238095238360e-01 3.751522702104097995e+00 3.751522702104097995e+00 3.751522702104097995e+00 3.751522702104097995e+00 4.627906976744186274e+00 0.000000000000000000e+00 5.238095238095238360e-01 3.751522702104097995e+00 3.751522702104097995e+00 3.751522702104097995e+00 3.751522702104097995e+00 4.627906976744186274e+00 0.000000000000000000e+00
6.120000000000000000e+04 0.000000000000000000e+00 7.099944629014396380e-01 7.099944629014396380e-01 7.099944629014396380e-01 7.099944629014396380e-01 8.837209302325581550e-01 0.000000000000000000e+00 0.000000000000000000e+00 7.099944629014396380e-01 7.099944629014396380e-01 7.099944629014396380e-01 7.099944629014396380e-01 8.837209302325581550e-01 0.000000000000000000e+00
6.480000000000000000e+04 0.000000000000000000e+00 4.757751937984495694e-01 4.757751937984495694e-01 4.757751937984495694e-01 4.757751937984495694e-01 0.000000000000000000e+00 0.000000000000000000e+00 0.000000000000000000e+00 4.757751937984495694e-01 4.757751937984495694e-01 4.757751937984495694e-01 4.757751937984495694e-01 0.000000000000000000e+00 0.000000000000000000e+00
6.840000000000000000e+04 0.000000000000000000e+00 4.503045404208194658e-01 4.503045404208194658e-01 4.503045404208194658e-01 4.503045404208194658e-01 0.000000000000000000e+00 0.000000000000000000e+00 0.000000000000000000e+00 4.503045404208194658e-01 4.503045404208194658e-01 4.503045404208194658e-01 4.503045404208194658e-01 0.000000000000000000e+00 0.000000000000000000e+00
7.200000000000000000e+04 0.000000000000000000e+00 4.503045404208194658e-01 4.503045404208194658e-01 4.503045404208194658e-01 4.503045404208194658e-01 0.000000000000000000e+00 0.000000000000000000e+00 0.000000000000000000e+00 4.503045404208194658e-01 4.503045404208194658e-01 4.503045404208194658e-01 4.503045404208194658e-01 0.000000000000000000e+00 0.000000000000000000e+00
7.560000000000000000e+04 0.000000000000000000e+00 4.503045404208194658e-01 4.503045404208194658e-01 4.503045404208194658e-01 4.503045404208194658e-01 0.000000000000000000e+00 0.000000000000000000e+00 0.000000000000000000e+00 4.503045404208194658e-01 4.503045404208194658e-01 4.503045404208194658e-01 4.503045404208194658e-01 0.000000000000000000e+00 0.000000000000000000e+00
7.920000000000000000e+04 0.000000000000000000e+00 4.619324473975636725e-01 4.619324473975636725e-01 4.619324473975636725e-01 4.619324473975636725e-01 0.000000000000000000e+00 0.000000000000000000e+00 0.000000000000000000e+00 4.619324473975636725e-01 4.619324473975636725e-01 4.619324473975636725e-01 4.619324473975636725e-01 0.000000000000000000e+00 0.000000000000000000e+00
8.280000000000000000e+04 0.000000000000000000e+00 4.562569213732003970e-01 4.562569213732003970e-01 4.562569213732003970e-01 4.562569213732003970e-01 0.000000000000000000e+00 0.000000000000000000e+00 0.000000000000000000e+00 4.562569213732003970e-01 4.562569213732003970e-01 4.562569213732003970e-01 4.562569213732003970e-01 0.000000000000000000e+00 0.000000000000000000e+00
