#1
double table(24,15)
0.000000000000000000e+00 1.150575110044017464e+02 1.150575110044017464e+02 1.150575110044017464e+02 1.150575110044017464e+02 1.150575110044017464e+02 1.150575110044017464e+02 1.150575110044017464e+02 1.150575110044017464e+02 1.150575110044017464e+02 1.150575110044017464e+02 1.150575110044017464e+02 1.150575110044017464e+02 1.150575110044017464e+02 1.150575110044017464e+02
3.600000000000000000e+03 8.580108386211627192e+01 8.580108386211627192e+01 8.580108386211627192e+01 8.580108386211627192e+01 8.580108386211627192e+01 8.580108386211627192e+01 8.580108386211627192e+01 8.580108386211627192e+01 8.580108386211627192e+01 8.580108386211627192e+01 8.580108386211627192e+01 8.580108386211627192e+01 8.580108386211627192e+01 8.580108386211627192e+01
7.200000000000000000e+03 7.035319499228262430e+01 7.035319499228262430e+01 7.035319499228262430e+01 7.035319499228262430e+01 7.035319499228262430e+01 7.035319499228262430e+01 7.035319499228262430e+01 7.035319499228262430e+01 7.035319499228262430e+01 7.035319499228262430e+01 7.035319499228262430e+01 7.035319499228262430e+01 7.035319499228262430e+01 7.035319499228262430e+01
1.080000000000000000e+04 4.558203166981078169e+01 4.558203166981078169e+01 4.558203166981078169e+01 4.558203166981078169e+01 4.558203166981078169e+01 4.558203166981078169e+01 4.558203166981078169e+01 4.558203166981078169e+01 4.558203166981078169e+01 4.558203166981078169e+01 4.558203166981078169e+01 4.558203166981078169e+01 4.558203166981078169e+01 4.558203166981078169e+01
1.440000000000000000e+04 3.718219516377980227e+01 3.718219516377980227e+01 3.718219516377980227e+01 3.718219516377980227e+01 3.718219516377980227e+01 3.718219516377980227e+01 3.718219516377980227e+01 3.718219516377980227e+01 3.718219516377980227e+01 3.718219516377980227e+01 3.718219516377980227e+01 3.718219516377980227e+01 3.718219516377980227e+01 3.718219516377980227e+01
1.800000000000000000e+04 3.704347910592808546e+01 3.704347910592808546e+01 3.704347910592808546e+01 3.704347910592808546e+01 3.704347910592808546e+01 3.704347910592808546e+01 3.704347910592808546e+01 3.704347910592808546e+01 3.704347910592808546e+01 3.704347910592808546e+01 3.704347910592808546e+01 3.704347910592808546e+01 3.704347910592808546e+01 3.704347910592808546e+01
2.160000000000000000e+04 3.699184473789515692e+01 3.699184473789515692e+01 3.699184473789515692e+01 3.699184473789515692e+01 3.699184473789515692e+01 3.699184473789515692e+01 3.699184473789515692e+01 3.699184473789515692e+01 3.699184473789515692e+01 3.699184473789515692e+01 3.699184473789515692e+01 3.699184473789515692e+01 3.699184473789515692e+01 3.699184473789515692e+01
2.520000000000000000e+04 3.741062253472817645e+01 3.741062253472817645e+01 3.741062253472817645e+01 3.741062253472817645e+01 3.741062253472817645e+01 3.741062253472817645e+01 3.741062253472817645e+01 3.741062253472817645e+01 3.741062253472817645e+01 3.741062253472817645e+01 3.741062253472817645e+01 3.741062253472817645e+01 3.741062253472817645e+01 3.741062253472817645e+01
2.880000000000000000e+04 3.683315154633281452e+01 3.683315154633281452e+01 3.683315154633281452e+01 3.683315154633281452e+01 3.683315154633281452e+01 3.683315154633281452e+01 3.683315154633281452e+01 3.683315154633281452e+01 3.683315154633281452e+01 3.683315154633281452e+01 3.683315154633281452e+01 3.683315154633281452e+01 3.683315154633281452e+01 3.683315154633281452e+01
3.240000000000000000e+04 3.617370300867600008e+01 3.617370300867600008e+01 3.617370300867600008e+01 3.617370300867600008e+01 3.617370300867600008e+01 3.617370300867600008e+01 3.617370300867600008e+01 3.617370300867600008e+01 3.617370300867600008e+01 3.617370300867600008e+01 3.617370300867600008e+01 3.617370300867600008e+01 3.617370300867600008e+01 3.617370300867600008e+01
3.600000000000000000e+04 3.539852138657660419e+01 3.539852138657660419e+01 3.539852138657660419e+01 3.539852138657660419e+01 3.539852138657660419e+01 3.539852138657660419e+01 3.539852138657660419e+01 3.539852138657660419e+01 3.539852138657660419e+01 3.539852138657660419e+01 3.539852138657660419e+01 3.539852138657660419e+01 3.539852138657660419e+01 3.539852138657660419e+01
3.960000000000000000e+04 3.639488626219718270e+01 3.639488626219718270e+01 3.639488626219718270e+01 3.639488626219718270e+01 3.639488626219718270e+01 3.639488626219718270e+01 3.639488626219718270e+01 3.639488626219718270e+01 3.639488626219718270e+01 3.639488626219718270e+01 3.639488626219718270e+01 3.639488626219718270e+01 3.639488626219718270e+01 3.639488626219718270e+01
4.320000000000000000e+04 3.798371361731506113e+01 3.798371361731506113e+01 3.798371361731506113e+01 3.798371361731506113e+01 3.798371361731506113e+01 3.798371361731506113e+01 3.798371361731506113e+01 3.798371361731506113e+01 3.798371361731506113e+01 3.798371361731506113e+01 3.798371361731506113e+01 3.798371361731506113e+01 3.798371361731506113e+01 3.798371361731506113e+01
4.680000000000000000e+04 4.114486668293691451e+01 4.114486668293691451e+01 4.114486668293691451e+01 4.114486668293691451e+01 4.114486668293691451e+01 4.114486668293691451e+01 4.114486668293691451e+01 4.114486668293691451e+01 4.114486668293691451e+01 4.114486668293691451e+01 4.114486668293691451e+01 4.114486668293691451e+01 4.114486668293691451e+01 4.114486668293691451e+01
5.040000000000000000e+04 4.356394629280283937e+01 4.356394629280283937e+01 4.356394629280283937e+01 4.356394629280283937e+01 4.356394629280283937e+01 4.356394629280283937e+01 4.356394629280283937e+01 4.356394629280283937e+01 4.356394629280283937e+01 4.356394629280283937e+01 4.356394629280283937e+01 4.356394629280283937e+01 4.356394629280283937e+01 4.356394629280283937e+01
5.400000000000000000e+04 4.740789447647191679e+01 4.740789447647191679e+01 4.740789447647191679e+01 4.740789447647191679e+01 4.740789447647191679e+01 4.740789447647191679e+01 4.740789447647191679e+01 4.740789447647191679e+01 4.740789447647191679e+01 4.740789447647191679e+01 4.740789447647191679e+01 4.740789447647191679e+01 4.740789447647191679e+01 4.740789447647191679e+01
5.760000000000000000e+04 5.167142600996442070e+01 5.167142600996442070e+01 5.167142600996442070e+01 5.167142600996442070e+01 5.167142600996442070e+01 5.167142600996442070e+01 5.167142600996442070e+01 5.167142600996442070e+01 5.167142600996442070e+01 5.167142600996442070e+01 5.167142600996442070e+01 5.167142600996442070e+01 5.167142600996442070e+01 5.167142600996442070e+01
6.120000000000000000e+04 5.893165037443548471e+01 5.893165037443548471e+01 5.893165037443548471e+01 5.893165037443548471e+01 5.893165037443548471e+01 5.893165037443548471e+01 5.893165037443548471e+01 5.893165037443548471e+01 5.893165037443548471e+01 5.893165037443548471e+01 5.893165037443548471e+01 5.893165037443548471e+01 5.893165037443548471e+01 5.893165037443548471e+01
6.480000000000000000e+04 6.593969473503688050e+01 6.593969473503688050e+01 6.593969473503688050e+01 6.593969473503688050e+01 6.593969473503688050e+01 6.593969473503688050e+01 6.593969473503688050e+01 6.593969473503688050e+01 6.593969473503688050e+01 6.593969473503688050e+01 6.593969473503688050e+01 6.593969473503688050e+01 6.593969473503688050e+01 6.593969473503688050e+01
6.840000000000000000e+04 7.312421847860022694e+01 7.312421847860022694e+01 7.312421847860022694e+01 7.312421847860022694e+01 7.312421847860022694e+01 7.312421847860022694e+01 7.312421847860022694e+01 7.312421847860022694e+01 7.312421847860022694e+01 7.312421847860022694e+01 7.312421847860022694e+01 7.312421847860022694e+01 7.312421847860022694e+01 7.312421847860022694e+01
7.200000000000000000e+04 1.053305635660857718e+02 1.053305635660857718e+02 1.053305635660857718e+02 1.053305635660857718e+02 1.053305635660857718e+02 1.053305635660857718e+02 1.053305635660857718e+02 1.053305635660857718e+02 1.053305635660857718e+02 1.053305635660857718e+02 1.053305635660857718e+02 1.053305635660857718e+02 1.053305635660857718e+02 1.053305635660857718e+02
7.560000000000000000e+04 1.248510839940371824e+02 1.248510839940371824e+02 1.248510839940371824e+02 1.248510839940371824e+02 1.248510839940371824e+02 1.248510839940371824e+02 1.248510839940371824e+02 1.248510839940371824e+02 1.248510839940371824e+02 1.248510839940371824e+02 1.248510839940371824e+02 1.248510839940371824e+02 1.248510839940371824e+02 1.248510839940371824e+02
7.920000000000000000e+04 1.480175058594866471e+02 1.480175058594866471e+02 1.480175058594866471e+02 1.480175058594866471e+02 1.480175058594866471e+02 1.480175058594866471e+02 1.480175058594866471e+02 1.480175058594866471e+02 1.480175058594866471e+02 1.480175058594866471e+02 1.480175058594866471e+02 1.480175058594866471e+02 1.480175058594866471e+02 1.480175058594866471e+02
8.280000000000000000e+04 1.565664963128108411e+02 1.565664963128108411e+02 1.565664963128108411e+02 1.565664963128108411e+02 1.565664963128108411e+02 1.565664963128108411e+02 1.565664963128108411e+02 1.565664963128108411e+02 1.565664963128108411e+02 1.565664963128108411e+02 1.565664963128108411e+02 1.565664963128108411e+02 1.565664963128108411e+02 1.565664963128108411e+02
