#1
double table(24,15)
0.000000000000000000e+00 6.728405647973475290e+00 6.728405647973475290e+00 6.728405647973475290e+00 6.728405647973475290e+00 6.728405647973475290e+00 6.728405647973475290e+00 6.728405647973475290e+00 6.728405647973475290e+00 6.728405647973475290e+00 6.728405647973475290e+00 6.728405647973475290e+00 6.728405647973475290e+00 6.728405647973475290e+00 6.728405647973475290e+00
3.600000000000000000e+03 2.746386554621848664e+00 2.746386554621848664e+00 2.746386554621848664e+00 2.746386554621848664e+00 2.746386554621848664e+00 2.746386554621848664e+00 2.746386554621848664e+00 2.746386554621848664e+00 2.746386554621848664e+00 2.746386554621848664e+00 2.746386554621848664e+00 2.746386554621848664e+00 2.746386554621848664e+00 2.746386554621848664e+00
7.200000000000000000e+03 3.683473389355742533e-01 3.683473389355742533e-01 3.683473389355742533e-01 3.683473389355742533e-01 3.683473389355742533e-01 3.683473389355742533e-01 3.683473389355742533e-01 3.683473389355742533e-01 3.683473389355742533e-01 3.683473389355742533e-01 3.683473389355742533e-01 3.683473389355742533e-01 3.683473389355742533e-01 3.683473389355742533e-01
1.080000000000000000e+04 5.714285714285714281e-03 5.714285714285714281e-03 5.714285714285714281e-03 5.714285714285714281e-03 5.714285714285714281e-03 5.714285714285714281e-03 5.714285714285714281e-03 5.714285714285714281e-03 5.714285714285714281e-03 5.714285714285714281e-03 5.714285714285714281e-03 5.714285714285714281e-03 5.714285714285714281e-03 5.714285714285714281e-03
1.440000000000000000e+04 0.000000000000000000e+00 0.000000000000000000e+00 0.000000000000000000e+00 0.000000000000000000e+00 0.000000000000000000e+00 0.000000000000000000e+00 0.000000000000000000e+00 0.000000000000000000e+00 0.000000000000000000e+00 0.000000000000000000e+00 0.000000000000000000e+00 0.000000000000000000e+00 0.000000000000000000e+00 0.000000000000000000e+00
1.800000000000000000e+04 0.000000000000000000e+00 0.000000000000000000e+00 0.000000000000000000e+00 0.000000000000000000e+00 0.000000000000000000e+00 0.000000000000000000e+00 0.000000000000000000e+00 0.000000000000000000e+00 0.000000000000000000e+00 0.000000000000000000e+00 0.000000000000000000e+00 0.000000000000000000e+00 0.000000000000000000e+00 0.000000000000000000e+00
2.160000000000000000e+04 0.000000000000000000e+00 0.000000000000000000e+00 0.000000000000000000e+00 0.000000000000000000e+00 0.000000000000000000e+00 0.000000000000000000e+00 0.000000000000000000e+00 0.000000000000000000e+00 0.000000000000000000e+00 0.000000000000000000e+00 0.000000000000000000e+00 0.000000000000000000e+00 0.000000000000000000e+00 0.000000000000000000e+00
2.520000000000000000e+04 0.000000000000000000e+00 0.000000000000000000e+00 0.000000000000000000e+00 0.000000000000000000e+00 0.000000000000000000e+00 0.000000000000000000e+00 0.000000000000000000e+00 0.000000000000000000e+00 0.000000000000000000e+00 0.000000000000000000e+00 0.000000000000000000e+00 0.000000000000000000e+00 0.000000000000000000e+00 0.000000000000000000e+00
2.880000000000000000e+04 2.857142857142857140e-03 2.857142857142857140e-03 2.857142857142857140e-03 2.857142857142857140e-03 2.857142857142857140e-03 2.857142857142857140e-03 2.857142857142857140e-03 2.857142857142857140e-03 2.857142857142857140e-03 2.857142857142857140e-03 2.857142857142857140e-03 2.857142857142857140e-03 2.857142857142857140e-03 2.857142857142857140e-03
3.240000000000000000e+04 5.714285714285714281e-03 5.714285714285714281e-03 5.714285714285714281e-03 5.714285714285714281e-03 5.714285714285714281e-03 5.714285714285714281e-03 5.714285714285714281e-03 5.714285714285714281e-03 5.714285714285714281e-03 5.714285714285714281e-03 5.714285714285714281e-03 5.714285714285714281e-03 5.714285714285714281e-03 5.714285714285714281e-03
3.600000000000000000e+04 2.247158203940917073e-02 2.247158203940917073e-02 2.247158203940917073e-02 2.247158203940917073e-02 2.247158203940917073e-02 2.247158203940917073e-02 2.247158203940917073e-02 2.247158203940917073e-02 2.247158203940917073e-02 2.247158203940917073e-02 2.247158203940917073e-02 2.247158203940917073e-02 2.247158203940917073e-02 2.247158203940917073e-02
3.960000000000000000e+04 3.890782686701053927e-02 3.890782686701053927e-02 3.890782686701053927e-02 3.890782686701053927e-02 3.890782686701053927e-02 3.890782686701053927e-02 3.890782686701053927e-02 3.890782686701053927e-02 3.890782686701053927e-02 3.890782686701053927e-02 3.890782686701053927e-02 3.890782686701053927e-02 3.890782686701053927e-02 3.890782686701053927e-02
4.320000000000000000e+04 2.202803758866183625e-01 2.202803758866183625e-01 2.202803758866183625e-01 2.202803758866183625e-01 2.202803758866183625e-01 2.202803758866183625e-01 2.202803758866183625e-01 2.202803758866183625e-01 2.202803758866183625e-01 2.202803758866183625e-01 2.202803758866183625e-01 2.202803758866183625e-01 2.202803758866183625e-01 2.202803758866183625e-01
4.680000000000000000e+04 2.806071560492328310e+00 2.806071560492328310e+00 2.806071560492328310e+00 2.806071560492328310e+00 2.806071560492328310e+00 2.806071560492328310e+00 2.806071560492328310e+00 2.806071560492328310e+00 2.806071560492328310e+00 2.806071560492328310e+00 2.806071560492328310e+00 2.806071560492328310e+00 2.806071560492328310e+00 2.806071560492328310e+00
5.040000000000000000e+04 2.228172268907563147e+00 2.228172268907563147e+00 2.228172268907563147e+00 2.228172268907563147e+00 2.228172268907563147e+00 2.228172268907563147e+00 2.228172268907563147e+00 2.228172268907563147e+00 2.228172268907563147e+00 2.228172268907563147e+00 2.228172268907563147e+00 2.228172268907563147e+00 2.228172268907563147e+00 2.228172268907563147e+00
5.400000000000000000e+04 2.170679810385693020e+00 2.170679810385693020e+00 2.170679810385693020e+00 2.170679810385693020e+00 2.170679810385693020e+00 2.170679810385693020e+00 2.170679810385693020e+00 2.170679810385693020e+00 2.170679810385693020e+00 2.170679810385693020e+00 2.170679810385693020e+00 2.170679810385693020e+00 2.170679810385693020e+00 2.170679810385693020e+00
5.760000000000000000e+04 2.969692547348609768e+00 2.969692547348609768e+00 2.969692547348609768e+00 2.969692547348609768e+00 2.969692547348609768e+00 2.969692547348609768e+00 2.969692547348609768e+00 2.969692547348609768e+00 2.969692547348609768e+00 2.969692547348609768e+00 2.969692547348609768e+00 2.969692547348609768e+00 2.969692547348609768e+00 2.969692547348609768e+00
6.120000000000000000e+04 3.111507460126907709e-01 3.111507460126907709e-01 3.111507460126907709e-01 3.111507460126907709e-01 3.111507460126907709e-01 3.111507460126907709e-01 3.111507460126907709e-01 3.111507460126907709e-01 3.111507460126907709e-01 3.111507460126907709e-01 3.111507460126907709e-01 3.111507460126907709e-01 3.111507460126907709e-01 3.111507460126907709e-01
6.480000000000000000e+04 2.280798033499113406e-02 2.280798033499113406e-02 2.280798033499113406e-02 2.280798033499113406e-02 2.280798033499113406e-02 2.280798033499113406e-02 2.280798033499113406e-02 2.280798033499113406e-02 2.280798033499113406e-02 2.280798033499113406e-02 2.280798033499113406e-02 2.280798033499113406e-02 2.280798033499113406e-02 2.280798033499113406e-02
6.840000000000000000e+04 1.727219371264989478e+00 1.727219371264989478e+00 1.727219371264989478e+00 1.727219371264989478e+00 1.727219371264989478e+00 1.727219371264989478e+00 1.727219371264989478e+00 1.727219371264989478e+00 1.727219371264989478e+00 1.727219371264989478e+00 1.727219371264989478e+00 1.727219371264989478e+00 1.727219371264989478e+00 1.727219371264989478e+00
7.200000000000000000e+04 3.550166176360654458e+00 3.550166176360654458e+00 3.550166176360654458e+00 3.550166176360654458e+00 3.550166176360654458e+00 3.550166176360654458e+00 3.550166176360654458e+00 3.550166176360654458e+00 3.550166176360654458e+00 3.550166176360654458e+00 3.550166176360654458e+00 3.550166176360654458e+00 3.550166176360654458e+00 3.550166176360654458e+00
7.560000000000000000e+04 5.279956949812891764e+00 5.279956949812891764e+00 5.279956949812891764e+00 5.279956949812891764e+00 5.279956949812891764e+00 5.279956949812891764e+00 5.279956949812891764e+00 5.279956949812891764e+00 5.279956949812891764e+00 5.279956949812891764e+00 5.279956949812891764e+00 5.279956949812891764e+00 5.279956949812891764e+00 5.279956949812891764e+00
7.920000000000000000e+04 7.583506545475332317e+00 7.583506545475332317e+00 7.583506545475332317e+00 7.583506545475332317e+00 7.583506545475332317e+00 7.583506545475332317e+00 7.583506545475332317e+00 7.583506545475332317e+00 7.583506545475332317e+00 7.583506545475332317e+00 7.583506545475332317e+00 7.583506545475332317e+00 7.583506545475332317e+00 7.583506545475332317e+00
8.280000000000000000e+04 1.411250671697250247e+01 1.411250671697250247e+01 1.411250671697250247e+01 1.411250671697250247e+01 1.411250671697250247e+01 1.411250671697250247e+01 1.411250671697250247e+01 1.411250671697250247e+01 1.411250671697250247e+01 1.411250671697250247e+01 1.411250671697250247e+01 1.411250671697250247e+01 1.411250671697250247e+01 1.411250671697250247e+01
