#1
double table(24,15)
0.000000000000000000e+00 5.201986234493797667e+01 5.201986234493797667e+01 5.201986234493797667e+01 5.201986234493797667e+01 5.201986234493797667e+01 4.800000000000000000e+01 5.188235294117647101e+01 5.201986234493797667e+01 5.201986234493797667e+01 5.201986234493797667e+01 5.201986234493797667e+01 5.201986234493797667e+01 4.800000000000000000e+01 5.188235294117647101e+01
3.600000000000000000e+03 4.062224889955982832e+01 4.062224889955982832e+01 4.062224889955982832e+01 4.062224889955982832e+01 4.062224889955982832e+01 4.629411764705882604e+01 4.872549019607843235e+01 4.062224889955982832e+01 4.062224889955982832e+01 4.062224889955982832e+01 4.062224889955982832e+01 4.062224889955982832e+01 4.629411764705882604e+01 4.872549019607843235e+01
7.200000000000000000e+03 3.920821928771508169e+01 3.920821928771508169e+01 3.920821928771508169e+01 3.920821928771508169e+01 3.920821928771508169e+01 4.207843137254901933e+01 3.998039215686274161e+01 3.920821928771508169e+01 3.920821928771508169e+01 3.920821928771508169e+01 3.920821928771508169e+01 3.920821928771508169e+01 4.207843137254901933e+01 3.998039215686274161e+01
1.080000000000000000e+04 3.904131732693077339e+01 3.904131732693077339e+01 3.904131732693077339e+01 3.904131732693077339e+01 3.904131732693077339e+01 3.966666666666666430e+01 3.909803921568627771e+01 3.904131732693077339e+01 3.904131732693077339e+01 3.904131732693077339e+01 3.904131732693077339e+01 3.904131732693077339e+01 3.966666666666666430e+01 3.909803921568627771e+01
1.440000000000000000e+04 3.902556222488995274e+01 3.902556222488995274e+01 3.902556222488995274e+01 3.902556222488995274e+01 3.902556222488995274e+01 3.937254901960784537e+01 3.911764705882352899e+01 3.902556222488995274e+01 3.902556222488995274e+01 3.902556222488995274e+01 3.902556222488995274e+01 3.902556222488995274e+01 3.937254901960784537e+01 3.911764705882352899e+01
1.800000000000000000e+04 3.901740216086434287e+01 3.901740216086434287e+01 3.901740216086434287e+01 3.901740216086434287e+01 3.901740216086434287e+01 3.943137254901960631e+01 3.892156862745098067e+01 3.901740216086434287e+01 3.901740216086434287e+01 3.901740216086434287e+01 3.901740216086434287e+01 3.901740216086434287e+01 3.943137254901960631e+01 3.892156862745098067e+01
2.160000000000000000e+04 3.902589195678270784e+01 3.902589195678270784e+01 3.902589195678270784e+01 3.902589195678270784e+01 3.902589195678270784e+01 3.941176470588235503e+01 3.903921568627450966e+01 3.902589195678270784e+01 3.902589195678270784e+01 3.902589195678270784e+01 3.902589195678270784e+01 3.902589195678270784e+01 3.941176470588235503e+01 3.903921568627450966e+01
2.520000000000000000e+04 3.909462344937975331e+01 3.909462344937975331e+01 3.909462344937975331e+01 3.909462344937975331e+01 3.909462344937975331e+01 3.949019607843137436e+01 3.907843137254901933e+01 3.909462344937975331e+01 3.909462344937975331e+01 3.909462344937975331e+01 3.909462344937975331e+01 3.909462344937975331e+01 3.949019607843137436e+01 3.907843137254901933e+01
2.880000000000000000e+04 3.921696678671468561e+01 3.921696678671468561e+01 3.921696678671468561e+01 3.921696678671468561e+01 3.921696678671468561e+01 4.219607843137254832e+01 3.913725490196078738e+01 3.921696678671468561e+01 3.921696678671468561e+01 3.921696678671468561e+01 3.921696678671468561e+01 3.921696678671468561e+01 4.219607843137254832e+01 3.913725490196078738e+01
3.240000000000000000e+04 4.013179751900760550e+01 4.013179751900760550e+01 4.013179751900760550e+01 4.013179751900760550e+01 4.013179751900760550e+01 4.339215686274509665e+01 3.932692307692308020e+01 4.013179751900760550e+01 4.013179751900760550e+01 4.013179751900760550e+01 4.013179751900760550e+01 4.013179751900760550e+01 4.339215686274509665e+01 3.932692307692308020e+01
3.600000000000000000e+04 4.218019847939175548e+01 4.218019847939175548e+01 4.218019847939175548e+01 4.218019847939175548e+01 4.218019847939175548e+01 3.996078431372549034e+01 4.565384615384615330e+01 4.218019847939175548e+01 4.218019847939175548e+01 4.218019847939175548e+01 4.218019847939175548e+01 4.218019847939175548e+01 3.996078431372549034e+01 4.565384615384615330e+01
3.960000000000000000e+04 4.329313005202080689e+01 4.329313005202080689e+01 4.329313005202080689e+01 4.329313005202080689e+01 4.329313005202080689e+01 4.294117647058823195e+01 8.628846153846153300e+01 4.329313005202080689e+01 4.329313005202080689e+01 4.329313005202080689e+01 4.329313005202080689e+01 4.329313005202080689e+01 4.294117647058823195e+01 8.628846153846153300e+01
4.320000000000000000e+04 5.052413125250100023e+01 5.052413125250100023e+01 5.052413125250100023e+01 5.052413125250100023e+01 5.052413125250100023e+01 5.321568627450980671e+01 9.821153846153846700e+01 5.052413125250100023e+01 5.052413125250100023e+01 5.052413125250100023e+01 5.052413125250100023e+01 5.052413125250100023e+01 5.321568627450980671e+01 9.821153846153846700e+01
4.680000000000000000e+04 6.633390716286513111e+01 6.633390716286513111e+01 6.633390716286513111e+01 6.633390716286513111e+01 6.633390716286513111e+01 6.701960784313725128e+01 1.036346153846153868e+02 6.633390716286513111e+01 6.633390716286513111e+01 6.633390716286513111e+01 6.633390716286513111e+01 6.633390716286513111e+01 6.701960784313725128e+01 1.036346153846153868e+02
5.040000000000000000e+04 8.645707222889154764e+01 8.645707222889154764e+01 8.645707222889154764e+01 8.645707222889154764e+01 8.645707222889154764e+01 9.372549019607842524e+01 1.033076923076923066e+02 8.645707222889154764e+01 8.645707222889154764e+01 8.645707222889154764e+01 8.645707222889154764e+01 8.645707222889154764e+01 9.372549019607842524e+01 1.033076923076923066e+02
5.400000000000000000e+04 1.026650660264105710e+02 1.026650660264105710e+02 1.026650660264105710e+02 1.026650660264105710e+02 1.026650660264105710e+02 1.079607843137254832e+02 1.018461538461538396e+02 1.026650660264105710e+02 1.026650660264105710e+02 1.026650660264105710e+02 1.026650660264105710e+02 1.026650660264105710e+02 1.079607843137254832e+02 1.018461538461538396e+02
5.760000000000000000e+04 1.025344445778311382e+02 1.025344445778311382e+02 1.025344445778311382e+02 1.025344445778311382e+02 1.025344445778311382e+02 1.072941176470588260e+02 8.563461538461538680e+01 1.025344445778311382e+02 1.025344445778311382e+02 1.025344445778311382e+02 1.025344445778311382e+02 1.025344445778311382e+02 1.072941176470588260e+02 8.563461538461538680e+01
6.120000000000000000e+04 9.084342537014806851e+01 9.084342537014806851e+01 9.084342537014806851e+01 9.084342537014806851e+01 9.084342537014806851e+01 1.034705882352941160e+02 6.768627450980392268e+01 9.084342537014806851e+01 9.084342537014806851e+01 9.084342537014806851e+01 9.084342537014806851e+01 9.084342537014806851e+01 1.034705882352941160e+02 6.768627450980392268e+01
6.480000000000000000e+04 6.757364545818327883e+01 6.757364545818327883e+01 6.757364545818327883e+01 6.757364545818327883e+01 6.757364545818327883e+01 8.801960784313725128e+01 4.656862745098039369e+01 6.757364545818327883e+01 6.757364545818327883e+01 6.757364545818327883e+01 6.757364545818327883e+01 6.757364545818327883e+01 8.801960784313725128e+01 4.656862745098039369e+01
6.840000000000000000e+04 4.992057302921168827e+01 4.992057302921168827e+01 4.992057302921168827e+01 4.992057302921168827e+01 4.992057302921168827e+01 6.472549019607842524e+01 5.738461538461538680e+01 4.992057302921168827e+01 4.992057302921168827e+01 4.992057302921168827e+01 4.992057302921168827e+01 4.992057302921168827e+01 6.472549019607842524e+01 5.738461538461538680e+01
7.200000000000000000e+04 4.707093237294917998e+01 4.707093237294917998e+01 4.707093237294917998e+01 4.707093237294917998e+01 4.707093237294917998e+01 4.894117647058823195e+01 5.732692307692308020e+01 4.707093237294917998e+01 4.707093237294917998e+01 4.707093237294917998e+01 4.707093237294917998e+01 4.707093237294917998e+01 4.894117647058823195e+01 5.732692307692308020e+01
7.560000000000000000e+04 5.545684193677470830e+01 5.545684193677470830e+01 5.545684193677470830e+01 5.545684193677470830e+01 5.545684193677470830e+01 4.596078431372549034e+01 6.400000000000000000e+01 5.545684193677470830e+01 5.545684193677470830e+01 5.545684193677470830e+01 5.545684193677470830e+01 5.545684193677470830e+01 4.596078431372549034e+01 6.400000000000000000e+01
7.920000000000000000e+04 6.357744697879152085e+01 6.357744697879152085e+01 6.357744697879152085e+01 6.357744697879152085e+01 6.357744697879152085e+01 5.454901960784313530e+01 7.044230769230769340e+01 6.357744697879152085e+01 6.357744697879152085e+01 6.357744697879152085e+01 6.357744697879152085e+01 6.357744697879152085e+01 5.454901960784313530e+01 7.044230769230769340e+01
8.280000000000000000e+04 6.942187114845938822e+01 6.942187114845938822e+01 6.942187114845938822e+01 6.942187114845938822e+01 6.942187114845938822e+01 5.806000000000000227e+01 7.033333333333332860e+01 6.942187114845938822e+01 6.942187114845938822e+01 6.942187114845938822e+01 6.942187114845938822e+01 6.942187114845938822e+01 5.806000000000000227e+01 7.033333333333332860e+01
