#1
double table1(168,2)   # comment line
      1408924800.0          52
      1408928400.0          51
      1408932000.0          52
      1408935600.0          47
      1408939200.0          55
      1408942800.0          48
      1408946400.0          111
      1408950000.0          84
      1408953600.0          60
      1408957200.0          51
      1408960800.0          54
      1408964400.0          48
      1408968000.0          55
      1408971600.0          47
      1408975200.0          66
      1408978800.0          70
      1408982400.0          70
      1408986000.0          68
      1408989600.0          66
      1408993200.0          70
      1408996800.0          129
      1409000400.0          68
      1409004000.0          62
      1409007600.0          55
      1409011200.0          51
      1409014800.0          46
      1409018400.0          58
      1409022000.0          55
      1409025600.0          48
      1409029200.0          55
      1409032800.0          58
      1409036400.0          50
      1409040000.0          52
      1409043600.0          51
      1409047200.0          96
      1409050800.0          87
      1409054400.0          72
      1409058000.0          63
      1409061600.0          55
      1409065200.0          57
      1409068800.0          52
      1409072400.0          62
      1409076000.0          55
      1409079600.0          54
      1409083200.0          54
      1409086800.0          52
      1409090400.0          50
      1409094000.0          52
      1409097600.0          56
      1409101200.0          131
      1409104800.0          63
      1409108400.0          53
      1409112000.0          52
      1409115600.0          53
      1409119200.0          56
      1409122800.0          53
      1409126400.0          47
      1409130000.0          56
      1409133600.0          56
      1409137200.0          53
      1409140800.0          52
      1409144400.0          49
      1409148000.0          53
      1409151600.0          107
      1409155200.0          81
      1409158800.0          65
      1409162400.0          61
      1409166000.0          60
      1409169600.0          48
      1409173200.0          52
      1409176800.0          50
      1409180400.0          52
      1409184000.0          50
      1409187600.0          51
      1409191200.0          47
      1409194800.0          55
      1409198400.0          47
      1409202000.0          50
      1409205600.0          114
      1409209200.0          75
      1409212800.0          57
      1409216400.0          51
      1409220000.0          55
      1409223600.0          50
      1409227200.0          54
      1409230800.0          51
      1409234400.0          52
      1409238000.0          52
      1409241600.0          47
      1409245200.0          59
      1409248800.0          65
      1409252400.0          64
      1409256000.0          116
      1409259600.0          90
      1409263200.0          65
      1409266800.0          66
      1409270400.0          64
      1409274000.0          63
      1409277600.0          61
      1409281200.0          60
      1409284800.0          57
      1409288400.0          60
      1409292000.0          56
      1409295600.0          56
      1409299200.0          56
      1409302800.0          59
      1409306400.0          131
      1409310000.0          68
      1409313600.0          62
      1409317200.0          57
      1409320800.0          62
      1409324400.0          56
      1409328000.0          60
      1409331600.0          56
      1409335200.0          53
      1409338800.0          57
      1409342400.0          68
      1409346000.0          55
      1409349600.0          57
      1409353200.0          56
      1409356800.0          137
      1409360400.0          62
      1409364000.0          55
      1409367600.0          53
      1409371200.0          52
      1409374800.0          56
      1409378400.0          55
      1409382000.0          56
      1409385600.0          48
      1409389200.0          54
      1409392800.0          57
      1409396400.0          52
      1409400000.0          53
      1409403600.0          58
      1409407200.0          134
      1409410800.0          65
      1409414400.0          62
      1409418000.0          61
      1409421600.0          52
      1409425200.0          61
      1409428800.0          58
      1409432400.0          60
      1409436000.0          56
      1409439600.0          56
      1409443200.0          56
      1409446800.0          51
      1409450400.0          55
      1409454000.0          55
      1409457600.0          138
      1409461200.0          63
      1409464800.0          56
      1409468400.0          58
      1409472000.0          65
      1409475600.0          67
      1409479200.0          55
      1409482800.0          62
      1409486400.0          95
      1409490000.0          96
      1409493600.0          79
      1409497200.0          66
      1409500800.0          68
      1409504400.0          178
      1409508000.0          85
      1409511600.0          90
      1409515200.0          79
      1409518800.0          76
      1409522400.0          71
      1409526000.0          64
