last-generated=2017-11-12
statistics-initialization=
{
  "numerical Jacobians": "0", 
  "nonlinear": "0, 1, 1"
}
statistics-simulation=
{
  "numerical Jacobians": "0", 
  "nonlinear": "1, 0, 0, 0", 
  "number of continuous time states": "24", 
  "linear": "0, 0"
}
TOut.T=[3.031499938964844e+02, 3.031499938964844e+02]
vol.T_start=[2.931499938964844e+02, 2.931499938964844e+02]
vol.T=[2.931499938964844e+02, 2.936397094726562e+02, 2.939967651367188e+02, 2.94301025390625e+02, 2.945603332519531e+02, 2.947813110351562e+02, 2.949696655273438e+02, 2.951301574707031e+02, 2.952669677734375e+02, 2.953835754394531e+02, 2.954829406738281e+02, 2.955676574707031e+02, 2.956398315429688e+02, 2.957013549804688e+02, 2.957538146972656e+02, 2.957984924316406e+02, 2.958365783691406e+02, 2.958690490722656e+02, 2.95896728515625e+02, 2.959203186035156e+02, 2.959404296875e+02, 2.959575500488281e+02, 2.9597216796875e+02, 2.95984619140625e+02, 2.959952087402344e+02, 2.960042419433594e+02, 2.96011962890625e+02, 2.960185241699219e+02, 2.960241394042969e+02, 2.960289001464844e+02, 2.96032958984375e+02, 2.960364379882812e+02, 2.960393981933594e+02, 2.960419006347656e+02, 2.960440673828125e+02, 2.960458679199219e+02, 2.960474243164062e+02, 2.960487670898438e+02, 2.960498962402344e+02, 2.960508728027344e+02, 2.960516967773438e+02, 2.960523986816406e+02, 2.96052978515625e+02, 2.960534973144531e+02, 2.960539245605469e+02, 2.960542907714844e+02, 2.960546264648438e+02, 2.960548706054688e+02, 2.960551147460938e+02, 2.960552978515625e+02, 2.960554809570312e+02, 2.960556335449219e+02, 2.960557250976562e+02, 2.960558471679688e+02, 2.960559387207031e+02, 2.960559997558594e+02, 2.960560607910156e+02, 2.960561218261719e+02, 2.960561828613281e+02, 2.960562133789062e+02, 2.960562438964844e+02, 2.960562744140625e+02, 2.960563049316406e+02, 2.960563354492188e+02, 2.960563354492188e+02, 2.960563659667969e+02, 2.960563659667969e+02, 2.960563659667969e+02, 2.96056396484375e+02, 2.96056396484375e+02, 2.96056396484375e+02, 2.96056396484375e+02, 2.96056396484375e+02, 2.960564270019531e+02, 2.960564270019531e+02, 2.960564270019531e+02, 2.960564270019531e+02, 2.960564270019531e+02, 2.960564270019531e+02, 2.960564270019531e+02, 2.960564270019531e+02, 2.960564270019531e+02, 2.960564270019531e+02, 2.960564270019531e+02, 2.960564270019531e+02, 2.960564270019531e+02, 2.960564270019531e+02, 2.960564270019531e+02, 2.960564270019531e+02, 2.960564270019531e+02, 2.960564270019531e+02, 2.960564575195312e+02, 2.960564575195312e+02, 2.960564575195312e+02, 2.960564575195312e+02, 2.960564575195312e+02, 2.960564575195312e+02, 2.960564575195312e+02, 2.960564575195312e+02, 2.960564575195312e+02, 2.960564575195312e+02]
cooCoi.sta_b2.T=[2.931499938964844e+02, 2.89864501953125e+02, 2.898730773925781e+02, 2.898804321289062e+02, 2.898866882324219e+02, 2.898920288085938e+02, 2.898966064453125e+02, 2.899005126953125e+02, 2.899038391113281e+02, 2.899066772460938e+02, 2.899090881347656e+02, 2.899111633300781e+02, 2.899129028320312e+02, 2.899143981933594e+02, 2.899156799316406e+02, 2.899167785644531e+02, 2.899176940917969e+02, 2.899184875488281e+02, 2.89919189453125e+02, 2.899197387695312e+02, 2.899202575683594e+02, 2.89920654296875e+02, 2.899210205078125e+02, 2.899213256835938e+02, 2.899215698242188e+02, 2.899218139648438e+02, 2.899219970703125e+02, 2.899221496582031e+02, 2.899222717285156e+02, 2.899223937988281e+02, 2.899225158691406e+02, 2.899225769042969e+02, 2.899226684570312e+02, 2.899227294921875e+02, 2.899227600097656e+02, 2.899228210449219e+02, 2.899228515625e+02, 2.899228820800781e+02, 2.899229125976562e+02, 2.899229431152344e+02, 2.899229736328125e+02, 2.899229736328125e+02, 2.899230041503906e+02, 2.899230041503906e+02, 2.899230041503906e+02, 2.899230346679688e+02, 2.899230346679688e+02, 2.899230346679688e+02, 2.899230346679688e+02, 2.899230346679688e+02, 2.899230651855469e+02, 2.899230651855469e+02, 2.899230651855469e+02, 2.899230651855469e+02, 2.899230651855469e+02, 2.899230651855469e+02, 2.899230651855469e+02, 2.899230651855469e+02, 2.899230651855469e+02, 2.899230651855469e+02, 2.899230651855469e+02, 2.899230651855469e+02, 2.899230651855469e+02, 2.899230651855469e+02, 2.899230651855469e+02, 2.899230651855469e+02, 2.899230651855469e+02, 2.899230651855469e+02, 2.899230651855469e+02, 2.899230651855469e+02, 2.899230651855469e+02, 2.899230651855469e+02, 2.899230651855469e+02, 2.899230651855469e+02, 2.899230651855469e+02, 2.899230651855469e+02, 2.899230651855469e+02, 2.899230651855469e+02, 2.899230651855469e+02, 2.899230651855469e+02, 2.899230651855469e+02, 2.899230651855469e+02, 2.899230651855469e+02, 2.899230651855469e+02, 2.899230651855469e+02, 2.899230651855469e+02, 2.899230651855469e+02, 2.899230651855469e+02, 2.899230651855469e+02, 2.899230651855469e+02, 2.899230651855469e+02, 2.899230651855469e+02, 2.899230651855469e+02, 2.899230651855469e+02, 2.899230651855469e+02, 2.899230651855469e+02, 2.899230651855469e+02, 2.899230651855469e+02, 2.899230651855469e+02, 2.899230651855469e+02, 2.899230651855469e+02]
time=[0e+00, 1.08e+04]
