last-generated=2017-11-12
statistics-initialization=
{
  "numerical Jacobians": "0", 
  "nonlinear": "1, 2, 1, 1, 17"
}
statistics-simulation=
{
  "numerical Jacobians": "0", 
  "nonlinear": "1, 0, 2, 1", 
  "number of continuous time states": "35", 
  "linear": "0, 2"
}
wseCon.TWetBul=[2.844858093261719e+02, 2.834715576171875e+02, 2.830081176757812e+02, 2.828131103515625e+02, 2.849400634765625e+02, 2.8767724609375e+02, 2.8843408203125e+02, 2.897018127441406e+02, 2.908985595703125e+02, 2.890965576171875e+02, 2.873750610351562e+02, 2.870310668945312e+02, 2.850565490722656e+02, 2.844025268554688e+02, 2.846215209960938e+02, 2.85584716796875e+02, 2.844925842285156e+02, 2.850927429199219e+02, 2.872787780761719e+02, 2.895964050292969e+02, 2.900821838378906e+02, 2.907142028808594e+02, 2.902919311523438e+02, 2.930731811523438e+02, 2.90821044921875e+02, 2.897002868652344e+02, 2.878292541503906e+02, 2.864308776855469e+02, 2.858257446289062e+02, 2.848772583007812e+02, 2.845028381347656e+02, 2.841003723144531e+02, 2.848956604003906e+02, 2.86788330078125e+02, 2.895969543457031e+02, 2.904920654296875e+02, 2.898047180175781e+02, 2.892393188476562e+02, 2.886691284179688e+02, 2.876924133300781e+02, 2.86109130859375e+02, 2.854310913085938e+02, 2.85067138671875e+02, 2.846211547851562e+02, 2.8425341796875e+02, 2.839706420898438e+02, 2.83714111328125e+02, 2.850740661621094e+02, 2.861065368652344e+02, 2.872113342285156e+02, 2.876419067382812e+02, 2.873104553222656e+02, 2.873970031738281e+02, 2.86239013671875e+02, 2.8519189453125e+02, 2.844321594238281e+02, 2.840808715820312e+02, 2.840713806152344e+02, 2.836410827636719e+02, 2.833737182617188e+02, 2.843021850585938e+02, 2.866591186523438e+02, 2.888963012695312e+02, 2.899041748046875e+02, 2.917620544433594e+02, 2.920389709472656e+02, 2.900023498535156e+02, 2.879818725585938e+02, 2.860729370117188e+02, 2.851282043457031e+02, 2.844984436035156e+02, 2.84646240234375e+02, 2.840837097167969e+02, 2.839063415527344e+02, 2.838663330078125e+02, 2.845386047363281e+02, 2.870115661621094e+02, 2.886986083984375e+02, 2.89677734375e+02, 2.908424682617188e+02, 2.89357666015625e+02, 2.880846862792969e+02, 2.865106201171875e+02, 2.850302429199219e+02, 2.841634216308594e+02, 2.842227783203125e+02, 2.844867553710938e+02, 2.843226013183594e+02, 2.840713806152344e+02, 2.842268371582031e+02, 2.857822875976562e+02, 2.865521240234375e+02, 2.869639282226562e+02, 2.870909118652344e+02, 2.867579345703125e+02, 2.865088195800781e+02, 2.860401611328125e+02, 2.847579345703125e+02, 2.838851928710938e+02, 2.837900695800781e+02, 2.835923156738281e+02]
TAirSup.T=[2.931499938964844e+02, 3.000118408203125e+02, 3.002850952148438e+02, 2.999788208007812e+02, 3.000184631347656e+02, 3.008482055664062e+02, 2.999417114257812e+02, 3.000575866699219e+02, 3.002469787597656e+02, 2.997608032226562e+02, 3.008482055664062e+02, 2.999416198730469e+02, 3.000575866699219e+02, 3.002467041015625e+02, 2.997608337402344e+02, 3.008482055664062e+02, 2.999416198730469e+02, 3.000575866699219e+02, 3.002467041015625e+02, 2.997608032226562e+02, 3.008482971191406e+02, 2.999417114257812e+02, 3.000575866699219e+02, 3.002469787597656e+02, 2.997608032226562e+02, 3.008482971191406e+02, 2.99941650390625e+02, 3.000576171875e+02, 3.002467041015625e+02, 2.997608337402344e+02, 3.008482360839844e+02, 3.002455444335938e+02, 3.001767883300781e+02, 3.002845458984375e+02, 2.998896179199219e+02, 2.99613037109375e+02, 3.006255187988281e+02, 3.001194763183594e+02, 3.002842102050781e+02, 2.998895874023438e+02, 2.996129760742188e+02, 3.006256103515625e+02, 3.001194763183594e+02, 3.002844543457031e+02, 2.998897094726562e+02, 2.999432678222656e+02, 3.001430358886719e+02, 3.002892456054688e+02, 3.000545959472656e+02, 3.006559753417969e+02, 2.99709228515625e+02, 2.998655395507812e+02, 3.004558410644531e+02, 3.000545959472656e+02, 3.006558532714844e+02, 2.997091674804688e+02, 3.002256774902344e+02, 3.002518920898438e+02, 3.002503967285156e+02, 3.001264953613281e+02, 3.001675109863281e+02, 2.998656005859375e+02, 3.004558715820312e+02, 3.000545959472656e+02, 3.006559448242188e+02, 2.997091979980469e+02, 2.998655700683594e+02, 3.004558410644531e+02, 3.000545959472656e+02, 3.006558532714844e+02, 2.997091674804688e+02, 2.998655090332031e+02, 2.992843017578125e+02, 3.00068603515625e+02, 3.003787231445312e+02, 3.002118225097656e+02, 2.999416198730469e+02, 3.000575866699219e+02, 3.002469482421875e+02, 2.997608032226562e+02, 3.008482971191406e+02, 2.999416809082031e+02, 3.000576171875e+02, 3.002467041015625e+02, 2.997608337402344e+02, 3.001391296386719e+02, 3.000281982421875e+02, 3.003760375976562e+02, 3.00104248046875e+02, 3.001494445800781e+02, 2.997094116210938e+02, 2.99865478515625e+02, 3.004558410644531e+02, 3.000545959472656e+02, 3.006559753417969e+02, 2.99709228515625e+02, 2.99865478515625e+02, 3.004558715820312e+02, 3.002991638183594e+02, 2.9991748046875e+02, 3.003031005859375e+02]
time=[1.30464e+07, 1.36512e+07]
wseCon.y1=[0e+00, 1e+00, 1e+00, 1e+00, 1e+00, 1e+00, 1e+00, 1e+00, 1e+00, 1e+00, 1e+00, 1e+00, 1e+00, 1e+00, 1e+00, 1e+00, 1e+00, 1e+00, 1e+00, 1e+00, 1e+00, 1e+00, 1e+00, 1e+00, 1e+00, 1e+00, 1e+00, 1e+00, 1e+00, 1e+00, 1e+00, 1e+00, 1e+00, 1e+00, 1e+00, 1e+00, 1e+00, 1e+00, 1e+00, 1e+00, 1e+00, 1e+00, 1e+00, 1e+00, 1e+00, 1e+00, 1e+00, 1e+00, 1e+00, 1e+00, 1e+00, 1e+00, 1e+00, 1e+00, 1e+00, 1e+00, 1e+00, 1e+00, 1e+00, 1e+00, 1e+00, 1e+00, 1e+00, 1e+00, 1e+00, 1e+00, 1e+00, 1e+00, 1e+00, 1e+00, 1e+00, 1e+00, 1e+00, 1e+00, 1e+00, 1e+00, 1e+00, 1e+00, 1e+00, 1e+00, 1e+00, 1e+00, 1e+00, 1e+00, 1e+00, 1e+00, 1e+00, 1e+00, 1e+00, 1e+00, 1e+00, 1e+00, 1e+00, 1e+00, 1e+00, 1e+00, 1e+00, 1e+00, 1e+00, 1e+00, 1e+00]
chiCon.y=[0e+00, 0e+00, 0e+00, 0e+00, 0e+00, 1e+00, 1e+00, 1e+00, 1e+00, 1e+00, 1e+00, 1e+00, 1e+00, 1e+00, 1e+00, 1e+00, 1e+00, 1e+00, 1e+00, 1e+00, 1e+00, 1e+00, 1e+00, 1e+00, 1e+00, 1e+00, 1e+00, 1e+00, 1e+00, 1e+00, 1e+00, 0e+00, 0e+00, 1e+00, 1e+00, 1e+00, 1e+00, 1e+00, 1e+00, 1e+00, 1e+00, 1e+00, 1e+00, 1e+00, 1e+00, 0e+00, 0e+00, 0e+00, 1e+00, 1e+00, 1e+00, 1e+00, 1e+00, 1e+00, 1e+00, 1e+00, 0e+00, 0e+00, 0e+00, 0e+00, 0e+00, 1e+00, 1e+00, 1e+00, 1e+00, 1e+00, 1e+00, 1e+00, 1e+00, 1e+00, 1e+00, 1e+00, 0e+00, 0e+00, 0e+00, 0e+00, 1e+00, 1e+00, 1e+00, 1e+00, 1e+00, 1e+00, 1e+00, 1e+00, 1e+00, 0e+00, 0e+00, 0e+00, 0e+00, 0e+00, 1e+00, 1e+00, 1e+00, 1e+00, 1e+00, 1e+00, 1e+00, 1e+00, 0e+00, 0e+00, 0e+00]
pumCHW.m_flow=[4.995555400848389e+00, 8.532727241516113e+00, 8.020286560058594e+00, 8.280471801757812e+00, 9.24830150604248e+00, 7.858957767486572e+00, 7.858957767486572e+00, 7.858957767486572e+00, 7.858957767486572e+00, 7.858957767486572e+00, 7.858957767486572e+00, 7.858957767486572e+00, 7.858957767486572e+00, 7.858957767486572e+00, 7.858957767486572e+00, 7.858957767486572e+00, 7.858957767486572e+00, 7.858957767486572e+00, 7.858957767486572e+00, 7.858957767486572e+00, 7.858957767486572e+00, 7.858957767486572e+00, 7.858957767486572e+00, 7.858957767486572e+00, 7.858957767486572e+00, 7.858957767486572e+00, 7.858957767486572e+00, 7.858957767486572e+00, 7.858957767486572e+00, 7.858957767486572e+00, 7.858957767486572e+00, 8.532727241516113e+00, 9.01608943939209e+00, 7.858957767486572e+00, 7.858957767486572e+00, 7.858957767486572e+00, 7.858957767486572e+00, 7.858957767486572e+00, 7.858957767486572e+00, 7.858957767486572e+00, 7.858957767486572e+00, 7.858957767486572e+00, 7.858957767486572e+00, 7.858957767486572e+00, 7.858957767486572e+00, 8.777735710144043e+00, 8.532727241516113e+00, 9.01608943939209e+00, 7.858957767486572e+00, 7.858957767486572e+00, 7.858957767486572e+00, 7.858957767486572e+00, 7.858957767486572e+00, 7.858957767486572e+00, 7.858957767486572e+00, 7.858957767486572e+00, 8.532727241516113e+00, 8.532727241516113e+00, 8.280471801757812e+00, 8.280471801757812e+00, 8.777735710144043e+00, 7.858957767486572e+00, 7.858957767486572e+00, 7.858957767486572e+00, 7.858957767486572e+00, 7.858957767486572e+00, 7.858957767486572e+00, 7.858957767486572e+00, 7.858957767486572e+00, 7.858957767486572e+00, 7.858957767486572e+00, 7.858957767486572e+00, 9.399923324584961e+00, 8.777735710144043e+00, 8.280471801757812e+00, 8.777735710144043e+00, 7.858957767486572e+00, 7.858957767486572e+00, 7.858957767486572e+00, 7.858957767486572e+00, 7.858957767486572e+00, 7.858957767486572e+00, 7.858957767486572e+00, 7.858957767486572e+00, 7.858957767486572e+00, 8.777735710144043e+00, 9.01608943939209e+00, 8.532727241516113e+00, 8.777735710144043e+00, 8.777735710144043e+00, 7.858957767486572e+00, 7.858957767486572e+00, 7.858957767486572e+00, 7.858957767486572e+00, 7.858957767486572e+00, 7.858957767486572e+00, 7.858957767486572e+00, 7.858957767486572e+00, 8.280471801757812e+00, 8.777735710144043e+00, 8.280471801757812e+00]
