last-generated=2017-11-12
statistics-initialization=
{
  "numerical Jacobians": "0", 
  "nonlinear": "15, 2", 
  "linear": "0"
}
statistics-simulation=
{
  "numerical Jacobians": "0", 
  "nonlinear": "1, 3, 12", 
  "number of continuous time states": "69", 
  "linear": "0, 0, 0, 0, 0"
}
weaDat.weaBus.TDryBul=[2.609500122070312e+02, 2.612774658203125e+02, 2.621011047363281e+02, 2.625499877929688e+02, 2.625499877929688e+02, 2.634906005859375e+02, 2.665859985351562e+02, 2.694419860839844e+02, 2.715532531738281e+02, 2.720499877929688e+02, 2.720499877929688e+02, 2.711899108886719e+02, 2.720211181640625e+02, 2.720336303710938e+02, 2.714474182128906e+02, 2.693314514160156e+02, 2.698616027832031e+02, 2.713856811523438e+02, 2.721641845703125e+02, 2.72510986328125e+02, 2.73510009765625e+02, 2.748500061035156e+02, 2.748500061035156e+02, 2.725921325683594e+02, 2.73848876953125e+02, 2.725499877929688e+02, 2.740790100097656e+02, 2.75053955078125e+02, 2.731499938964844e+02, 2.731499938964844e+02, 2.733664245605469e+02, 2.7306201171875e+02, 2.712139892578125e+02, 2.697578430175781e+02, 2.687122497558594e+02, 2.691380004882812e+02, 2.701607055664062e+02, 2.703500061035156e+02, 2.703500061035156e+02, 2.703500061035156e+02, 2.703500061035156e+02, 2.703500061035156e+02, 2.703500061035156e+02, 2.703500061035156e+02, 2.703500061035156e+02, 2.700260009765625e+02, 2.698500061035156e+02, 2.703376159667969e+02, 2.707337341308594e+02, 2.714786071777344e+02, 2.720499877929688e+02, 2.726159973144531e+02, 2.7205712890625e+02, 2.703059997558594e+02, 2.684580078125e+02, 2.684077453613281e+02, 2.6806201171875e+02, 2.662139892578125e+02, 2.661690368652344e+02, 2.658251953125e+02, 2.615640869140625e+02, 2.582152099609375e+02, 2.592766723632812e+02, 2.610854797363281e+02, 2.64716796875e+02, 2.666700134277344e+02, 2.690650634765625e+02, 2.692225952148438e+02, 2.680060119628906e+02, 2.665409545898438e+02, 2.646900024414062e+02, 2.639419860839844e+02, 2.62093994140625e+02, 2.614129638671875e+02, 2.591625671386719e+02, 2.5875e+02, 2.582370910644531e+02, 2.594412841796875e+02, 2.609939880371094e+02, 2.616118469238281e+02, 2.618193054199219e+02, 2.608738708496093e+02, 2.578509826660156e+02, 2.558468933105469e+02, 2.543108673095703e+02, 2.552683868408203e+02, 2.542709197998047e+02, 2.536540069580078e+02, 2.5264599609375e+02, 2.515209808349609e+02, 2.503481140136719e+02, 2.545215454101562e+02, 2.581070861816406e+02, 2.589879760742188e+02, 2.603697204589844e+02, 2.595094604492188e+02, 2.568208923339844e+02, 2.548866882324219e+02, 2.541324615478516e+02, 2.532756500244141e+02, 2.531499938964844e+02]
time=[0e+00, 6.048e+05]
weaDat.weaBus.HDirNor=[9.999999747378752e-05, 9.999999747378752e-05, 9.999999747378752e-05, 9.999999747378752e-05, 4.790056943893433e-01, 3.686282958984375e+02, 6.625081787109375e+02, 4.312069091796866e+02, 5.411502075195312e+01, 5.657868957519531e+01, 9.999999747378752e-05, 9.999999747378752e-05, 9.999999747378752e-05, 9.999999747378752e-05, 9.999999747378752e-05, 9.999999747378752e-05, 9.999999747378752e-05, 9.999999747378752e-05, 9.999999747378752e-05, 1.905120015144348e+00, 9.585999846458435e-01, 1.779999971389771e+00, 1.813752055168152e+00, 9.999999747378752e-05, 9.999999747378752e-05, 9.999999747378752e-05, 9.999999747378752e-05, 9.999999747378752e-05, 9.999999747378752e-05, 9.999999747378752e-05, 9.999999747378752e-05, 9.999999747378752e-05, 9.999999747378752e-05, 9.999999747378752e-05, 3.721466660499488e-01, 2.894999980926514e-01, 1e+00, 1e+00, 7.318080067634583e-01, 9.999999747378752e-05, 9.999999747378752e-05, 9.999999747378752e-05, 9.999999747378752e-05, 9.999999747378752e-05, 9.999999747378752e-05, 9.999999747378752e-05, 9.999999747378752e-05, 9.999999747378752e-05, 5.331199988722801e-02, 1e+00, 5.416666865348816e-01, 8.741199970245361e-01, 9.999999747378752e-05, 9.999999747378752e-05, 9.999999747378752e-05, 9.999999747378752e-05, 9.999999747378752e-05, 9.999999747378752e-05, 9.999999747378752e-05, 9.999999747378752e-05, 9.999999747378752e-05, 9.999999747378752e-05, 2.880619812011719e+02, 7.751649169921875e+02, 8.5933056640625e+02, 7.74879638671875e+02, 4.252257690429688e+02, 5.739785385131836e+01, 9.999999747378752e-05, 9.999999747378752e-05, 9.999999747378752e-05, 9.999999747378752e-05, 9.999999747378752e-05, 9.999999747378752e-05, 9.999999747378752e-05, 9.999999747378752e-05, 8.404290771484375e+01, 6.168316650390625e+02, 2.696745910644531e+02, 7.800930023193359e+01, 9.641504669189453e+01, 6.644139099121031e+01, 9.999999750276434e-05, 9.999999747378752e-05, 9.999999747378752e-05, 9.999999747378752e-05, 9.999999747378752e-05, 9.999999747378752e-05, 9.999999747378752e-05, 9.999999747378752e-05, 1.037647857666016e+02, 7.07604736328125e+02, 8.80940673828125e+02, 9.020025024414062e+02, 8.423399658203125e+02, 5.655880126953125e+02, 8.352803230285645e+00, 9.999999747378752e-05, 9.999999747378752e-05, 9.999999747378752e-05, 9.999999747378752e-05]
weaDat.weaBus.HGloHor=[9.999999747378752e-05, 9.999999747378752e-05, 9.999999747378752e-05, 9.999999747378752e-05, 9.999999747378752e-05, 1.025815353393555e+02, 3.044623718261719e+02, 3.372630615234372e+02, 1.835730590820312e+02, 7.442298889160156e+01, 2.312187433242798e+00, 9.999999747378752e-05, 9.999999747378752e-05, 9.999999747378752e-05, 9.999999747378752e-05, 9.999999747378752e-05, 9.999999747378752e-05, 9.999999747378752e-05, 9.999999747378752e-05, 1.92087574005127e+01, 1.262883834838867e+02, 1.684425354003906e+02, 1.800178680419922e+02, 1.135551300048828e+02, 1.464144802093506e+01, 9.999999747378752e-05, 9.999999747378752e-05, 9.999999747378752e-05, 9.999999747378752e-05, 9.999999747378752e-05, 9.999999747378752e-05, 9.999999747378752e-05, 9.999999747378752e-05, 1.767200088500977e+01, 1.347597351074226e+02, 2.175667419433594e+02, 2.160484008789062e+02, 1.723790588378906e+02, 5.32529296875e+01, 9.999999747378752e-05, 9.999999747378752e-05, 9.999999747378752e-05, 9.999999747378752e-05, 9.999999747378752e-05, 9.999999747378752e-05, 9.999999747378752e-05, 9.999999747378752e-05, 2.804630994796753e+00, 8.430634307861328e+01, 1.744434356689453e+02, 1.952538757324219e+02, 1.509707641601562e+02, 6.984014129638672e+01, 3.095707893371582e+00, 9.999999747378752e-05, 9.999999747378752e-05, 9.999999747378752e-05, 9.999999747378752e-05, 9.999999747378752e-05, 9.999999747378752e-05, 9.999999747378752e-05, 9.999999747378752e-05, 8.068932342529297e+01, 3.121475524902344e+02, 4.365852966308594e+02, 3.753271484375e+02, 1.862212524414062e+02, 1.553165531158447e+01, 9.999999747378752e-05, 9.999999747378752e-05, 9.999999747378752e-05, 9.999999747378752e-05, 9.999999747378752e-05, 9.999999747378752e-05, 9.999999747378752e-05, 9.999999747378752e-05, 3.503750610351562e+01, 2.373762969970703e+02, 2.670227966308594e+02, 2.172436370849609e+02, 1.543636322021484e+02, 4.700918960571176e+01, 9.999999747595245e-05, 9.999999747378752e-05, 9.999999747378752e-05, 9.999999747378752e-05, 9.999999747378752e-05, 9.999999747378752e-05, 9.999999747378752e-05, 9.999999747378752e-05, 1.274240970611572e+01, 1.940768432617188e+02, 3.971203918457031e+02, 4.48487060546875e+02, 3.378170471191406e+02, 1.110259704589844e+02, 1.055006146430969e+00, 9.999999747378752e-05, 9.999999747378752e-05, 9.999999747378752e-05, 9.999999747378752e-05]
buiZon.theZon[1, 1].roo.heaPorAir.T=[2.931499938964844e+02, 2.876717529296875e+02, 2.867628173828125e+02, 2.859963073730469e+02, 2.857723999023438e+02, 2.929259338378906e+02, 2.931681213378906e+02, 2.941017456054688e+02, 2.931456909179688e+02, 2.931385192871094e+02, 2.931481323242188e+02, 2.939462585449219e+02, 2.907550659179688e+02, 2.901364135742188e+02, 2.894266052246094e+02, 2.886053466796875e+02, 2.880801086425781e+02, 2.877058410644531e+02, 2.874205932617188e+02, 2.863257751464844e+02, 2.931739501953125e+02, 2.9316259765625e+02, 2.931844177246094e+02, 2.931347351074219e+02, 2.931449279785156e+02, 2.931513671875e+02, 2.895323791503906e+02, 2.889470825195312e+02, 2.884401245117188e+02, 2.878769226074219e+02, 2.874130859375e+02, 2.870029602050781e+02, 2.863291931152344e+02, 2.856924438476562e+02, 2.931915893554688e+02, 2.9316259765625e+02, 2.931578063964844e+02, 2.93142333984375e+02, 2.931452026367188e+02, 2.931489562988281e+02, 2.890405578613281e+02, 2.879717712402344e+02, 2.872991027832031e+02, 2.867695922851562e+02, 2.862849731445312e+02, 2.857904357910156e+02, 2.881422729492188e+02, 2.856438903808594e+02, 2.937267761230469e+02, 2.931715698242188e+02, 2.931590881347656e+02, 2.931504516601562e+02, 2.9314306640625e+02, 2.93140869140625e+02, 2.892494812011719e+02, 2.871716918945312e+02, 2.864143371582031e+02, 2.885157775878905e+02, 2.86845703125e+02, 2.864337768554688e+02, 2.861477355957031e+02, 2.861475830078125e+02, 2.907440185546875e+02, 2.933634033203125e+02, 2.944172973632812e+02, 2.962113037109375e+02, 2.955110168457031e+02, 2.931440124511719e+02, 2.9440185546875e+02, 2.915377197265625e+02, 2.903049926757812e+02, 2.893442077636719e+02, 2.882716674804688e+02, 2.873732299804688e+02, 2.862572631835938e+02, 2.872639465332031e+02, 2.860675964355469e+02, 2.932132263183594e+02, 2.931282348632812e+02, 2.931314697265625e+02, 2.931859436035156e+02, 2.931346740722656e+02, 2.931399536132812e+02, 2.878951416015625e+02, 2.863674926757812e+02, 2.861418151855469e+02, 2.861485595703125e+02, 2.861483459472656e+02, 2.861468200683594e+02, 2.86145263671875e+02, 2.861576232910156e+02, 2.935129089355469e+02, 2.931574096679688e+02, 2.953192138671875e+02, 2.966348571777344e+02, 2.954852294921875e+02, 2.931319580078125e+02, 2.916956787109375e+02, 2.899476318359375e+02, 2.885706481933594e+02, 2.8751806640625e+02]
buiZon.theZon[1, 1].heaCooPow=[1.195988974522777e-09, 8.279541507363319e-03, 8.851073682308197e-03, 1.934199780225754e-02, 1.862298883497715e-02, 1.602630249023438e+03, -8.830061645507812e+02, -1.372394775390625e+03, -8.260669555664062e+02, -5.846936645507812e+02, -3.280306091308594e+02, 1.674452796578407e-03, 3.689272096380591e-03, 4.079817328602076e-03, 4.527919925749303e-03, 5.046391859650612e-03, 5.377952940762043e-03, 5.61421038582921e-03, 5.794274155050516e-03, -2.627355346679688e+02, 2.462789001464844e+02, -3.149518489837646e+00, -2.347274169921875e+02, -1.093954772949219e+02, 2.135260200500488e+01, 1.124024276733398e+02, 4.699427634477615e-03, 5.068566184490919e-03, 5.388257559388878e-03, 5.743463989347219e-03, 6.035932805389166e-03, 6.294523365795612e-03, 6.719518452882767e-03, 1.781400665640831e-02, 6.866031494140591e+02, 2.565514526367188e+02, 6.722728729248047e+01, -2.147821617126465e+01, 6.965319061279297e+01, 2.290558624267578e+02, 5.013138055801392e-03, 5.687600467354057e-03, 6.11198041588068e-03, 6.44597364589572e-03, 6.751634180545807e-03, 1.774896308779716e-02, 3.728145751953125e+02, 1.863041520118713e-02, 1.318950927734375e+03, 4.001955871582031e+02, 1.791527252197266e+02, 7.126779937744141e+01, 1.411255340576172e+02, 3.341522521972656e+02, 4.881964530795813e-03, 6.193516775965691e-03, 6.671349983662372e-03, 6.157991333011182e+02, 4.515130310058594e+02, 4.362928771972656e+02, 6.481869506835938e+02, 8.9651416015625e+02, 2.247779541015625e+03, -2.252734985351562e+02, -1.4171708984375e+03, -1.675511840820312e+03, -1.57453564453125e+03, -1.020260498046875e+03, 1.395772560499601e-03, 3.204324049875132e-03, 3.982701804488897e-03, 4.589362535625696e-03, 5.26658957824111e-03, 5.833880510181189e-03, 6.538542918860912e-03, 5.02421142578125e+02, 4.558461608886719e+02, -1.310108470916748e+01, -6.541151733398438e+02, -2.828928833007812e+02, -5.351784133911133e+01, 7.425746917725114e+01, 4.995059814453107e+02, 5.583336111158133e-03, 6.547984201461077e-03, 1.31743997335434e-02, 5.223226318359375e+02, 7.149432983398438e+02, 8.950595703125e+02, 1.049996459960938e+03, 1.120420532226562e+03, 7.258436889648438e+02, -1.110369873046875e+03, -1.55128955078125e+03, -1.741753173828125e+03, -1.575534423828125e+03, -6.59819580078125e+02, 3.114550374448299e-03, 4.218545276671648e-03, 5.088164936751127e-03, 5.752907134592533e-03]
