,,Hourly SiteSage  Data, 2016-05-06 13:01:00,Customer: ,Historic Green Village @AMI

Column name is Energy Monitor Channel Number-Circuit Name
Channel Columns contain energy usage(production) in watt hours for hour
Voltage is average voltage for hour

 ,,,,,,,,,,,,,,,,,,,,,,,,,,
,"1","2","3","4","5","6","7","8","9","10","11","12","13","14","15","16","17","18","19","20","21","22","23","24",4624,
Date/Time,"Bldg A2","Bldg A2","Dishwasher","Computer","Solar Hot Water","Range","Range","Lighting","Disposal","WSHP-3","Dryer","Fridge","Receptical","Receptacle","DEH-1","CWP-2","Receptical{1}","Disposal{1}","Receptacle{1}","Receptacle{2}","Receptacle{3}","Range Hood","Lighting{1}","lighting",Voltage,Outdoor Temp
2014-08-25 00:00:00,1370,1138,0,60,895,7,4,172,0,1055,0,73,0,0,0,0,0,0,0,0,0,0,0,0,120.9,81
2014-08-25 01:00:00,617,511,0,59,0,0,0,20,0,739,0,60,0,0,0,0,0,0,0,0,0,0,0,0,120.9,80
2014-08-25 02:00:00,570,482,0,58,0,0,0,20,0,703,0,49,0,0,0,0,0,0,0,0,0,0,0,0,120.9,80
2014-08-25 03:00:00,658,583,0,58,349,2,1,21,0,543,0,52,0,0,0,0,0,0,0,0,0,0,0,0,121.0,79
2014-08-25 04:00:00,473,394,0,58,0,0,0,20,0,528,0,47,0,0,0,0,0,0,0,0,0,0,0,0,121.0,79
2014-08-25 05:00:00,539,468,0,58,0,0,0,21,0,665,0,52,0,0,0,0,0,0,0,0,0,0,0,0,121.0,78
2014-08-25 06:00:00,514,474,0,58,149,1,0,38,0,439,0,47,0,0,0,0,0,0,0,0,0,0,0,0,120.5,78
2014-08-25 07:00:00,1589,1498,0,59,1866,16,9,144,0,718,0,57,0,0,0,0,0,0,0,0,0,0,0,0,121.0,78
2014-08-25 08:00:00,659,646,0,58,150,1,0,74,0,755,0,109,0,0,0,0,0,0,0,0,0,0,0,0,120.1,79
2014-08-25 09:00:00,742,666,0,58,912,7,4,75,0,141,0,63,0,0,0,0,0,0,0,0,0,0,0,0,121.0,82
2014-08-25 10:00:00,259,218,0,57,0,0,0,0,0,200,0,55,0,0,0,0,0,0,0,0,0,0,0,0,122.8,84
2014-08-25 11:00:00,381,338,0,57,0,0,0,0,0,442,0,56,0,0,0,0,0,0,0,0,0,0,0,0,122.1,87
2014-08-25 12:00:00,697,657,0,58,347,2,1,31,0,676,0,65,0,0,0,0,0,0,0,0,0,0,0,0,121.7,90
2014-08-25 13:00:00,641,586,0,58,0,0,0,119,0,739,0,70,0,0,0,0,0,0,0,0,0,0,0,0,121.0,92
2014-08-25 14:00:00,666,613,0,57,0,0,0,112,0,798,0,71,0,0,0,0,0,0,0,0,0,0,0,0,121.0,92
2014-08-25 15:00:00,674,622,0,57,0,0,0,113,0,819,0,70,0,0,0,0,0,0,0,0,0,0,0,0,121.0,92
2014-08-25 16:00:00,1107,1057,0,58,332,2,1,114,0,1350,0,62,0,0,0,0,0,0,0,0,0,0,0,0,121.7,92
2014-08-25 17:00:00,2086,1723,71,250,33,0,0,95,1,2054,552,57,2,1,1,0,0,0,0,0,0,0,0,0,122.0,92
2014-08-25 18:00:00,2253,2675,78,294,1459,173,159,186,0,1726,0,62,0,0,0,0,0,0,0,0,0,0,0,0,122.3,89
2014-08-25 19:00:00,2444,2498,0,425,2,1,0,135,1,2052,906,59,4,3,2,1,0,0,0,0,0,0,0,0,122.3,87
2014-08-25 20:00:00,2020,1645,0,393,344,3,2,137,0,1950,391,64,1,1,0,0,0,0,0,0,0,0,0,0,122.2,86
2014-08-25 21:00:00,2042,1951,0,171,480,522,515,211,0,1752,0,69,0,0,0,0,0,0,0,0,0,0,0,0,123.0,84
2014-08-25 22:00:00,1315,1287,0,60,396,3,2,250,0,1453,0,123,0,0,0,0,0,0,0,0,0,0,0,0,121.6,83
2014-08-25 23:00:00,865,767,0,59,0,0,0,124,0,1114,0,67,0,0,0,0,0,0,0,0,0,0,0,0,120.8,81
2014-08-26 00:00:00,840,732,0,58,340,2,1,8,0,850,0,75,0,0,0,0,0,0,0,0,0,0,0,0,121.3,80
2014-08-26 01:00:00,573,489,0,58,0,0,0,0,0,729,0,64,0,0,0,0,0,0,0,0,0,0,0,0,122.0,78
2014-08-26 02:00:00,559,463,0,57,0,0,0,0,0,700,0,51,0,0,0,0,0,0,0,0,0,0,0,0,122.0,78
2014-08-26 03:00:00,466,388,0,58,0,0,0,0,0,515,0,69,0,0,0,0,0,0,0,0,0,0,0,0,122.1,77
2014-08-26 04:00:00,734,660,0,58,359,2,1,0,0,698,0,69,0,0,0,0,0,0,0,0,0,0,0,0,122.1,77
2014-08-26 05:00:00,459,362,0,58,0,0,0,0,0,500,0,51,0,0,0,0,0,0,0,0,0,0,0,0,122.0,77
2014-08-26 06:00:00,599,543,0,58,107,0,0,13,0,646,0,50,0,0,0,0,0,0,0,0,0,0,0,0,121.2,77
2014-08-26 07:00:00,1451,1342,0,59,1686,14,8,123,0,629,0,56,0,0,0,0,0,0,0,0,0,0,0,0,120.9,76
2014-08-26 08:00:00,747,667,0,58,430,3,2,51,0,663,0,56,0,0,0,0,0,0,0,0,0,0,0,0,120.5,77
2014-08-26 09:00:00,565,516,0,58,614,5,2,10,0,191,0,47,0,0,0,0,0,0,0,0,0,0,0,0,122.7,81
2014-08-26 10:00:00,256,215,0,57,0,0,0,0,0,193,0,55,0,0,0,0,0,0,0,0,0,0,0,0,122.6,85
2014-08-26 11:00:00,366,315,0,57,0,0,0,0,0,414,0,47,0,0,0,0,0,0,0,0,0,0,0,0,121.9,87
2014-08-26 12:00:00,591,608,0,58,365,3,1,13,0,477,0,115,0,0,0,0,0,0,0,0,0,0,0,0,121.9,90
2014-08-26 13:00:00,651,606,0,58,0,0,0,113,0,769,0,75,0,0,0,0,0,0,0,0,0,0,0,0,121.3,92
2014-08-26 14:00:00,676,629,0,58,0,0,0,113,0,821,0,73,0,0,0,0,0,0,0,0,0,0,0,0,121.3,95
2014-08-26 15:00:00,661,611,0,58,0,0,0,113,0,790,0,65,0,0,0,0,0,0,0,0,0,0,0,0,121.3,94
2014-08-26 16:00:00,1101,1057,0,58,371,3,1,99,0,1329,0,61,0,0,0,0,0,0,0,0,0,0,0,0,121.0,91
2014-08-26 17:00:00,1248,1059,0,201,0,0,0,2,0,1875,0,67,0,0,0,0,0,0,0,0,0,0,0,0,121.9,91
2014-08-26 18:00:00,1414,1149,0,293,339,3,1,0,0,1695,0,75,0,0,0,0,0,0,0,0,0,0,0,0,122.2,90
2014-08-26 19:00:00,984,810,0,208,0,0,0,6,0,1348,0,73,0,0,0,0,0,0,0,0,0,0,0,0,122.6,88
2014-08-26 20:00:00,958,887,0,209,0,0,0,178,0,1232,0,73,0,0,0,0,0,0,0,0,0,0,0,0,122.9,86
2014-08-26 21:00:00,970,834,0,156,0,0,0,137,0,1187,0,73,0,0,0,0,0,0,0,0,0,0,0,0,123.0,85
2014-08-26 22:00:00,1068,912,0,59,368,3,1,116,0,1036,0,73,0,0,0,0,0,0,0,0,0,0,0,0,121.5,83
2014-08-26 23:00:00,785,662,0,58,0,0,0,113,0,911,0,72,0,0,0,0,0,0,0,0,0,0,0,0,121.0,82
2014-08-27 00:00:00,677,512,0,58,0,0,0,20,0,784,0,60,0,0,0,0,0,0,0,0,0,0,0,0,122.0,81
2014-08-27 01:00:00,543,493,0,57,0,0,0,0,0,626,0,120,0,0,0,0,0,0,0,0,0,0,0,0,122.1,80
2014-08-27 02:00:00,658,562,0,58,271,2,1,0,0,605,0,62,0,0,0,0,0,0,0,0,0,0,0,0,122.1,79
2014-08-27 03:00:00,657,560,0,58,75,0,0,0,0,812,0,56,0,0,0,0,0,0,0,0,0,0,0,0,122.5,78
2014-08-27 04:00:00,477,379,0,58,0,0,0,0,0,534,0,51,0,0,0,0,0,0,0,0,0,0,0,0,122.0,78
2014-08-27 05:00:00,522,419,0,55,0,0,0,0,0,630,0,43,0,0,0,0,0,0,0,0,0,0,0,0,122.0,77
2014-08-27 06:00:00,556,516,0,52,92,0,0,17,0,590,0,56,0,0,0,0,0,0,0,0,0,0,0,0,121.6,77
2014-08-27 07:00:00,1374,1244,0,58,1593,13,7,109,0,557,0,54,0,0,0,0,0,0,0,0,0,0,0,0,121.0,76
2014-08-27 08:00:00,757,684,0,58,481,4,2,38,0,653,0,52,0,0,0,0,0,0,0,0,0,0,0,0,120.8,77
2014-08-27 09:00:00,961,839,66,57,681,5,3,21,0,765,0,52,0,0,0,0,0,0,0,0,0,0,0,0,121.7,81
2014-08-27 10:00:00,594,502,36,57,0,0,0,0,0,798,0,44,0,0,0,0,0,0,0,0,0,0,0,0,123.0,86
2014-08-27 11:00:00,630,587,0,57,143,1,0,0,0,801,0,54,0,0,0,0,0,0,0,0,0,0,0,0,122.1,90
2014-08-27 12:00:00,1211,1091,11,57,192,1,0,13,0,846,513,58,2,1,1,0,0,0,0,0,0,0,0,0,121.6,91
2014-08-27 13:00:00,1944,1626,81,57,0,0,0,114,1,1501,848,59,3,2,1,1,0,0,0,0,0,0,0,0,121.9,94
2014-08-27 14:00:00,926,851,0,58,0,0,0,113,0,1321,0,53,0,0,0,0,0,0,0,0,0,0,0,0,121.0,91
2014-08-27 15:00:00,1084,1016,0,58,350,3,1,114,0,1294,0,49,0,0,0,0,0,0,0,0,0,0,0,0,121.0,92
2014-08-27 16:00:00,1047,1010,0,57,0,0,0,114,0,1181,192,108,0,0,0,0,0,0,0,0,0,0,0,0,121.9,93
2014-08-27 17:00:00,2333,1931,88,160,215,2,1,115,1,1672,938,80,4,2,2,1,0,0,0,0,0,0,0,0,121.7,92
2014-08-27 18:00:00,3311,2893,43,372,632,6,4,115,5,2077,1344,88,6,4,3,2,0,0,0,0,0,0,0,0,121.2,90
2014-08-27 19:00:00,1942,1523,0,430,552,6,3,122,0,1876,131,75,0,0,0,0,0,0,0,0,0,0,0,0,121.4,87
2014-08-27 20:00:00,1323,1042,0,459,1,1,0,137,0,1545,0,71,0,0,0,0,0,0,0,0,0,0,0,0,121.6,85
2014-08-27 21:00:00,2242,2112,0,278,304,635,624,203,0,1433,288,78,1,0,0,0,0,0,0,0,0,0,0,0,122.0,85
2014-08-27 22:00:00,1250,1207,0,58,36,185,196,213,0,1405,0,72,0,0,0,0,0,0,0,0,0,0,0,0,122.4,84
2014-08-27 23:00:00,955,835,0,58,0,0,0,135,0,1246,0,63,0,0,0,0,0,0,0,0,0,0,0,0,122.3,82
2014-08-28 00:00:00,864,749,0,58,332,2,1,39,0,885,0,56,0,0,0,0,0,0,0,0,0,0,0,0,122.3,80
2014-08-28 01:00:00,492,421,0,58,0,0,0,20,0,565,0,55,0,0,0,0,0,0,0,0,0,0,0,0,123.0,79
2014-08-28 02:00:00,533,459,0,58,0,0,0,20,0,651,0,50,0,0,0,0,0,0,0,0,0,0,0,0,123.0,78
2014-08-28 03:00:00,420,349,0,58,0,0,0,20,0,428,0,51,0,0,0,0,0,0,0,0,0,0,0,0,122.3,77
2014-08-28 04:00:00,411,340,0,58,0,0,0,20,0,411,0,50,0,0,0,0,0,0,0,0,0,0,0,0,122.0,76
2014-08-28 05:00:00,593,589,0,58,360,2,1,20,0,419,0,114,0,0,0,0,0,0,0,0,0,0,0,0,121.7,75
2014-08-28 06:00:00,667,642,0,58,277,2,1,48,0,600,0,63,0,0,0,0,0,0,0,0,0,0,0,0,121.3,75
2014-08-28 07:00:00,1459,1384,0,59,1888,16,9,143,0,454,0,62,0,0,0,0,0,0,0,0,0,0,0,0,121.6,74
2014-08-28 08:00:00,652,574,0,58,336,2,1,92,0,525,0,56,0,0,0,0,0,0,0,0,0,0,0,0,122.0,76
2014-08-28 09:00:00,991,938,0,58,875,7,4,39,0,748,0,53,0,0,0,0,0,0,0,0,0,0,0,0,121.0,81
2014-08-28 10:00:00,543,495,0,57,0,0,0,0,0,770,0,50,0,0,0,0,0,0,0,0,0,0,0,0,120.6,85
2014-08-28 11:00:00,512,462,0,57,0,0,0,0,0,709,0,48,0,0,0,0,0,0,0,0,0,0,0,0,120.0,89
2014-08-28 12:00:00,616,574,0,58,350,2,1,0,0,572,0,51,0,0,0,0,0,0,0,0,0,0,0,0,119.9,93
2014-08-28 13:00:00,676,631,0,58,0,0,0,82,0,880,0,74,0,0,0,0,0,0,0,0,0,0,0,0,119.4,93
2014-08-28 14:00:00,746,685,0,58,0,0,0,111,0,965,0,64,0,0,0,0,0,0,0,0,0,0,0,0,120.0,94
2014-08-28 15:00:00,938,869,0,58,352,2,1,74,0,1070,0,52,0,0,0,0,0,0,0,0,0,0,0,0,119.9,95
2014-08-28 16:00:00,698,620,0,58,3,0,0,28,0,1021,0,48,0,0,0,0,0,0,0,0,0,0,0,0,120.0,93
2014-08-28 17:00:00,826,772,0,146,0,0,0,29,0,1102,0,66,0,0,0,0,0,0,0,0,0,0,0,0,119.9,93
2014-08-28 18:00:00,1421,1260,0,335,690,6,4,21,0,1297,0,76,0,0,0,0,0,0,0,0,0,0,0,0,120.2,88
2014-08-28 19:00:00,1406,1264,0,416,330,4,2,135,0,1455,0,127,0,0,0,0,0,0,0,0,0,0,0,0,120.8,82
2014-08-28 20:00:00,1217,952,0,360,9,0,0,133,0,1339,0,81,0,0,0,0,0,0,0,0,0,0,0,0,120.9,82
2014-08-28 21:00:00,1083,882,0,302,0,0,0,138,0,1192,0,78,0,0,0,0,0,0,0,0,0,0,0,0,120.6,81
2014-08-28 22:00:00,808,700,0,125,0,0,0,88,0,975,0,68,0,0,0,0,0,0,0,0,0,0,0,0,121.0,81
2014-08-28 23:00:00,932,743,0,59,325,2,1,132,0,829,0,75,0,0,0,0,0,0,0,0,0,0,0,0,122.0,80
2014-08-29 00:00:00,585,479,0,58,0,0,0,26,0,643,0,75,0,0,0,0,0,0,0,0,0,0,0,0,121.9,79
2014-08-29 01:00:00,547,484,0,58,0,0,0,20,0,653,0,75,0,0,0,0,0,0,0,0,0,0,0,0,122.1,78
2014-08-29 02:00:00,594,534,0,58,0,0,0,20,0,757,0,74,0,0,0,0,0,0,0,0,0,0,0,0,122.0,78
2014-08-29 03:00:00,681,622,0,57,347,2,1,20,0,597,0,64,0,0,0,0,0,0,0,0,0,0,0,0,122.4,79
2014-08-29 04:00:00,505,443,0,58,0,0,0,20,0,596,0,62,0,0,0,0,0,0,0,0,0,0,0,0,122.2,78
2014-08-29 05:00:00,565,498,0,58,0,0,0,20,0,720,0,56,0,0,0,0,0,0,0,0,0,0,0,0,122.0,77
2014-08-29 06:00:00,596,562,0,58,277,2,1,47,0,457,0,56,0,0,0,0,0,0,0,0,0,0,0,0,121.9,76
2014-08-29 07:00:00,1163,1108,0,67,1017,8,4,91,0,741,0,64,0,0,0,0,0,0,0,0,0,0,0,0,121.2,77
2014-08-29 08:00:00,880,678,0,325,0,0,0,19,0,910,0,116,0,0,0,0,0,0,0,0,0,0,0,0,120.8,79
2014-08-29 09:00:00,817,649,0,206,193,1,1,28,0,815,0,64,0,0,0,0,0,0,0,0,0,0,0,0,120.1,84
2014-08-29 10:00:00,976,748,0,205,491,4,2,68,0,748,0,56,0,0,0,0,0,0,0,0,0,0,0,0,122.1,80
2014-08-29 11:00:00,640,449,0,204,0,0,0,0,0,667,0,56,0,0,0,0,0,0,0,0,0,0,0,0,122.0,85
2014-08-29 12:00:00,651,456,0,205,0,0,0,0,0,690,0,53,0,0,0,0,0,0,0,0,0,0,0,0,121.7,91
2014-08-29 13:00:00,778,587,0,204,0,0,0,39,0,874,0,67,0,0,0,0,0,0,0,0,0,0,0,0,120.8,91
2014-08-29 14:00:00,1274,959,0,326,351,4,2,112,0,1143,0,79,0,0,0,0,0,0,0,0,0,0,0,0,120.0,93
2014-08-29 15:00:00,1045,811,0,222,0,0,0,111,0,1235,0,63,0,0,0,0,0,0,0,0,0,0,0,0,120.0,88
2014-08-29 16:00:00,1263,860,0,396,0,0,0,85,0,1371,0,57,0,0,0,0,0,0,0,0,0,0,0,0,120.0,89
2014-08-29 17:00:00,1201,885,0,330,248,2,1,82,0,1207,0,58,0,0,0,0,0,0,0,0,0,0,0,0,121.1,89
2014-08-29 18:00:00,1500,1357,0,273,785,8,5,279,0,1173,0,76,0,0,0,0,0,0,0,0,0,0,0,0,121.6,87
2014-08-29 19:00:00,1615,1327,0,378,414,5,3,298,0,1547,0,73,0,0,0,0,0,0,0,0,0,0,0,0,121.1,87
2014-08-29 20:00:00,1386,1019,0,341,1,0,0,197,0,1400,0,75,0,0,0,0,0,0,0,0,0,0,0,0,120.9,85
2014-08-29 21:00:00,1358,1320,0,254,746,7,4,164,0,1204,0,117,0,0,0,0,0,0,0,0,0,0,0,0,120.2,81
2014-08-29 22:00:00,1194,931,0,400,2,0,0,241,0,1091,0,68,0,0,0,0,0,0,0,0,0,0,0,0,121.0,79
2014-08-29 23:00:00,1446,1077,0,455,357,6,2,246,0,1128,0,64,0,0,0,0,0,0,0,0,0,0,0,0,122.0,77
2014-08-30 00:00:00,1209,762,0,429,2,0,0,167,0,1043,0,56,0,0,0,0,0,0,0,0,0,0,0,0,122.0,77
2014-08-30 01:00:00,742,618,0,60,0,0,0,137,0,820,0,53,0,0,0,0,0,0,0,0,0,0,0,0,122.0,76
2014-08-30 02:00:00,804,680,0,60,334,2,1,135,0,608,0,51,0,0,0,0,0,0,0,0,0,0,0,0,122.5,76
2014-08-30 03:00:00,564,464,0,59,0,0,0,45,0,631,0,52,0,0,0,0,0,0,0,0,0,0,0,0,122.5,75
2014-08-30 04:00:00,512,424,0,58,0,0,0,20,0,591,0,44,0,0,0,0,0,0,0,0,0,0,0,0,122.9,75
2014-08-30 05:00:00,452,379,0,58,0,0,0,20,0,485,0,52,0,0,0,0,0,0,0,0,0,0,0,0,123.0,74
2014-08-30 06:00:00,439,414,0,58,0,0,0,20,0,461,0,44,0,0,0,0,0,0,0,0,0,0,0,0,122.6,75
2014-08-30 07:00:00,594,537,0,58,342,2,1,20,0,438,0,47,0,0,0,0,0,0,0,0,0,0,0,0,122.1,75
2014-08-30 08:00:00,786,684,0,166,279,2,1,22,0,659,0,49,0,0,0,0,0,0,0,0,0,0,0,0,121.0,77
2014-08-30 09:00:00,1017,577,0,347,70,0,0,78,0,776,0,53,0,0,0,0,0,0,0,0,0,0,0,0,120.3,82
2014-08-30 10:00:00,1252,823,0,346,576,6,4,69,0,821,0,57,0,0,0,0,0,0,0,0,0,0,0,0,120.8,87
2014-08-30 11:00:00,2098,1586,0,454,1876,21,13,41,0,1034,0,61,0,0,0,0,0,0,0,0,0,0,0,0,120.9,89
2014-08-30 12:00:00,2173,1731,0,442,463,715,702,4,1,1215,0,122,0,0,0,0,0,0,0,0,0,0,0,0,120.5,92
2014-08-30 13:00:00,1932,1296,0,605,172,186,178,71,0,1628,0,79,0,0,0,0,0,0,0,0,0,0,0,0,120.1,93
2014-08-30 14:00:00,1455,882,0,485,2,1,0,36,0,1353,0,76,0,0,0,0,0,0,0,0,0,0,0,0,119.9,94
2014-08-30 15:00:00,1745,1213,0,449,339,4,2,112,0,1545,0,76,0,0,0,0,0,0,0,0,0,0,0,0,119.4,95
2014-08-30 16:00:00,2192,1936,0,391,703,390,375,153,0,1595,0,77,0,0,0,0,0,0,0,0,0,0,0,0,119.6,92
2014-08-30 17:00:00,1496,1097,0,429,2,0,0,146,0,1644,0,77,0,0,0,0,0,0,0,0,0,0,0,0,120.2,91
2014-08-30 18:00:00,1366,1128,0,272,345,3,2,162,0,1348,0,75,0,0,0,0,0,0,0,0,0,0,0,0,121.0,79
2014-08-30 19:00:00,1163,1062,0,248,0,0,0,171,0,1526,0,68,0,0,0,0,0,0,0,0,0,0,0,0,121.6,77
2014-08-30 20:00:00,941,896,0,283,0,0,0,152,0,1108,0,80,0,0,0,0,0,0,0,0,0,0,0,0,122.0,76
2014-08-30 21:00:00,1258,1016,0,430,353,4,2,166,0,1089,0,65,0,0,0,0,0,0,0,0,0,0,0,0,121.4,75
2014-08-30 22:00:00,1129,1427,0,300,403,4,2,173,0,961,0,75,0,0,0,0,0,0,0,0,0,0,0,0,120.1,76
2014-08-30 23:00:00,1109,1334,0,276,0,0,0,300,0,1129,0,73,0,0,0,0,0,0,0,0,0,0,0,0,120.7,76
2014-08-31 00:00:00,1256,1174,0,284,350,3,2,265,0,1167,0,127,0,0,0,0,0,0,0,0,0,0,0,0,121.2,76
2014-08-31 01:00:00,861,670,0,246,0,0,0,54,0,965,0,74,0,0,0,0,0,0,0,0,0,0,0,0,122.0,75
2014-08-31 02:00:00,602,520,0,60,0,0,0,22,0,746,0,64,0,0,0,0,0,0,0,0,0,0,0,0,122.2,75
2014-08-31 03:00:00,459,372,0,59,0,0,0,20,0,464,0,56,0,0,0,0,0,0,0,0,0,0,0,0,122.3,75
2014-08-31 04:00:00,714,642,0,58,339,2,1,21,0,660,0,57,0,0,0,0,0,0,0,0,0,0,0,0,122.3,74
2014-08-31 05:00:00,423,352,0,51,0,0,0,20,0,440,0,48,0,0,0,0,0,0,0,0,0,0,0,0,122.3,74
2014-08-31 06:00:00,449,442,0,51,0,0,0,20,0,496,0,56,0,0,0,0,0,0,0,0,0,0,0,0,122.2,74
2014-08-31 07:00:00,402,349,0,51,0,0,0,20,0,405,0,47,0,0,0,0,0,0,0,0,0,0,0,0,122.0,74
2014-08-31 08:00:00,894,804,0,51,728,6,3,55,0,608,0,48,0,0,0,0,0,0,0,0,0,0,0,0,120.8,76
2014-08-31 09:00:00,954,684,0,232,356,3,2,59,0,685,0,47,0,0,0,0,0,0,0,0,0,0,0,0,120.7,81
2014-08-31 10:00:00,1579,1332,0,295,1547,15,9,60,0,747,0,58,0,0,0,0,0,0,0,0,0,0,0,0,121.9,85
2014-08-31 11:00:00,1152,935,0,317,0,0,0,0,0,1463,0,50,0,0,0,0,0,0,0,0,0,0,0,0,121.3,89
2014-08-31 12:00:00,1396,1155,0,260,625,6,3,130,0,1175,0,58,0,0,0,0,0,0,0,0,0,0,0,0,120.7,91
2014-08-31 13:00:00,1970,1675,0,241,1694,17,10,182,0,1103,0,64,0,0,0,0,0,0,0,0,0,0,0,0,120.0,93
2014-08-31 14:00:00,1345,970,0,322,0,0,0,175,0,1423,0,114,0,0,0,0,0,0,0,0,0,0,0,0,120.1,94
2014-08-31 15:00:00,1683,1487,3,280,156,365,358,176,0,1352,0,66,0,0,0,0,0,0,0,0,0,0,0,0,120.5,95
2014-08-31 16:00:00,1714,1374,65,344,564,57,54,43,0,1641,0,64,0,0,0,0,0,0,0,0,0,0,0,0,121.0,92
2014-08-31 17:00:00,1928,1454,80,394,124,424,418,38,0,1634,0,62,0,0,0,0,0,0,0,0,0,0,0,0,121.0,91
2014-08-31 18:00:00,2389,2062,83,389,799,164,156,105,0,1678,393,57,1,1,0,0,0,0,0,0,0,0,0,0,121.5,72
2014-08-31 19:00:00,2796,2194,93,474,1001,12,7,222,0,2087,506,83,1,1,0,0,0,0,0,0,0,0,0,0,120.6,74
2014-08-31 20:00:00,1781,1325,108,450,2,0,0,253,0,1946,0,76,0,0,0,0,0,0,0,0,0,0,0,0,121.1,75
2014-08-31 21:00:00,2936,2238,0,596,384,228,218,255,0,2106,635,72,2,1,0,0,0,0,0,0,0,0,0,0,121.0,75
2014-08-31 22:00:00,2395,1234,652,545,355,3,1,269,0,1459,21,62,0,0,0,0,0,0,0,0,0,0,0,0,121.8,75
