,,Hourly SiteSage  Data, 2016-05-06 12:11:00,Customer: ,Historic Green Village @AMI

Column name is Energy Monitor Channel Number-Circuit Name
Channel Columns contain energy usage(production) in watt hours for hour
Voltage is average voltage for hour

 ,,,,,,,,,,,,,,
,"1","2","3","4","5","6","7","8","9","10","11","12",4669,
Date/Time,"Bldg F2","Bldg F2","A/C","Show Window","Receptacles","Lighting","Receptacles","Show Window","Roof Receptacle","Restroom/Corridor","Closet","No CT",Voltage,Outdoor Temp
2014-08-25 00:00:00,478,544,755,91,0,16,19,14,0,0,0,0,119.8,81
2014-08-25 01:00:00,493,559,788,91,0,16,18,14,0,0,0,0,119.7,80
2014-08-25 02:00:00,470,536,739,91,0,16,19,15,0,0,0,0,119.6,80
2014-08-25 03:00:00,496,562,793,92,0,16,18,14,0,0,0,0,119.9,79
2014-08-25 04:00:00,365,429,522,91,0,17,19,15,0,0,0,0,120.0,79
2014-08-25 05:00:00,438,504,672,91,1,17,20,14,0,0,0,0,120.0,78
2014-08-25 06:00:00,392,455,577,91,0,17,18,15,0,0,0,0,119.5,78
2014-08-25 07:00:00,382,447,557,91,0,17,20,15,0,0,0,0,119.9,78
2014-08-25 08:00:00,459,521,719,91,0,16,15,15,0,0,0,0,119.0,79
2014-08-25 09:00:00,387,435,540,90,0,17,13,15,2,13,0,0,119.5,82
2014-08-25 10:00:00,625,676,1026,92,1,17,11,14,5,14,0,0,121.1,85
2014-08-25 11:00:00,638,622,912,92,0,75,18,15,4,13,10,0,120.4,87
2014-08-25 12:00:00,627,610,887,91,0,62,18,15,3,3,37,0,120.0,90
2014-08-25 13:00:00,614,624,909,91,0,38,18,15,5,20,20,0,119.4,92
2014-08-25 14:00:00,570,625,914,91,0,16,18,15,4,0,17,0,119.2,92
2014-08-25 15:00:00,630,668,1008,92,1,16,17,14,0,14,16,0,119.4,91
2014-08-25 16:00:00,681,720,1112,92,2,16,17,14,0,13,17,0,120.0,92
2014-08-25 17:00:00,679,731,1134,92,2,16,17,14,0,0,17,0,120.7,92
2014-08-25 18:00:00,595,646,964,92,0,17,17,14,0,0,17,0,121.0,89
2014-08-25 19:00:00,548,598,868,92,0,17,18,15,0,0,16,0,121.0,87
2014-08-25 20:00:00,537,583,845,92,0,17,14,15,0,0,16,0,121.2,86
2014-08-25 21:00:00,526,570,821,92,0,18,13,15,0,0,18,0,122.0,84
2014-08-25 22:00:00,454,497,678,91,0,17,13,15,0,0,16,0,120.5,83
2014-08-25 23:00:00,474,524,715,91,0,16,18,15,0,0,17,0,119.7,81
2014-08-26 00:00:00,483,534,736,91,0,17,19,15,0,0,17,0,120.2,80
2014-08-26 01:00:00,437,485,641,90,0,17,18,15,0,0,17,0,120.8,78
2014-08-26 02:00:00,386,434,532,90,0,17,19,15,0,0,17,0,121.0,77
2014-08-26 03:00:00,402,449,563,90,0,17,19,15,0,0,18,0,121.2,77
2014-08-26 04:00:00,296,342,344,89,0,18,20,15,0,0,17,0,121.0,77
2014-08-26 05:00:00,380,427,521,90,0,17,19,15,0,0,17,0,121.0,77
2014-08-26 06:00:00,388,434,538,91,0,17,18,15,0,0,17,0,120.2,77
2014-08-26 07:00:00,379,404,483,90,0,17,15,15,0,17,17,0,119.7,76
2014-08-26 08:00:00,367,407,489,90,0,17,13,15,0,2,17,0,119.0,77
2014-08-26 09:00:00,412,448,558,91,0,18,14,15,6,12,17,0,121.2,81
2014-08-26 10:00:00,507,563,780,91,1,17,17,15,6,0,17,0,120.7,86
2014-08-26 11:00:00,633,635,929,91,0,50,18,15,7,20,18,0,120.0,88
2014-08-26 12:00:00,762,622,912,91,0,180,18,15,6,15,25,0,120.1,90
2014-08-26 13:00:00,656,639,940,91,0,71,18,15,5,12,20,0,119.6,93
2014-08-26 14:00:00,934,746,1165,92,1,174,18,14,4,68,24,0,119.6,95
2014-08-26 15:00:00,761,758,1188,93,2,43,16,14,1,13,30,0,119.8,94
2014-08-26 16:00:00,582,631,936,91,0,16,18,15,0,0,18,0,119.9,91
2014-08-26 17:00:00,600,634,942,92,0,16,17,14,0,16,17,0,120.5,91
2014-08-26 18:00:00,606,656,986,92,0,17,17,14,0,0,17,0,120.9,90
2014-08-26 19:00:00,547,591,865,92,0,17,12,15,0,0,17,0,121.0,88
2014-08-26 20:00:00,538,581,845,92,0,17,13,15,0,0,18,0,121.5,86
2014-08-26 21:00:00,500,545,768,91,0,18,15,15,0,0,17,0,121.9,85
2014-08-26 22:00:00,480,529,728,91,0,17,19,15,0,0,17,0,120.3,83
2014-08-26 23:00:00,382,428,525,90,0,17,18,15,0,0,17,0,119.9,82
2014-08-27 00:00:00,446,492,659,90,0,17,18,15,0,0,17,0,120.8,81
2014-08-27 01:00:00,320,364,397,89,0,18,19,15,0,0,17,0,121.2,80
2014-08-27 02:00:00,316,361,388,89,0,18,19,15,0,0,16,0,121.2,79
2014-08-27 03:00:00,321,367,397,89,0,18,20,15,0,0,17,0,121.4,78
2014-08-27 04:00:00,367,415,493,90,0,17,19,15,0,0,17,0,121.0,78
2014-08-27 05:00:00,360,401,481,90,0,17,13,15,0,0,17,0,120.9,77
2014-08-27 06:00:00,289,330,333,90,0,18,15,15,0,0,17,0,120.7,77
2014-08-27 07:00:00,215,256,182,90,0,18,16,15,0,0,17,0,120.2,76
2014-08-27 08:00:00,403,457,570,91,0,17,19,15,4,0,17,0,119.5,77
2014-08-27 09:00:00,375,434,512,90,0,17,19,15,11,0,17,0,120.5,81
2014-08-27 10:00:00,432,494,625,91,0,17,18,15,13,0,16,0,121.1,86
2014-08-27 11:00:00,709,682,997,92,1,78,17,14,20,34,16,0,120.4,89
2014-08-27 12:00:00,827,614,872,91,0,183,19,15,18,82,38,0,120.0,91
2014-08-27 13:00:00,676,626,902,92,0,78,17,15,13,23,41,0,120.3,94
2014-08-27 14:00:00,850,722,1102,92,1,152,19,15,10,37,24,0,119.8,90
2014-08-27 15:00:00,583,634,932,92,0,16,17,14,4,19,0,0,119.7,93
2014-08-27 16:00:00,558,619,916,92,0,17,14,14,1,1,0,0,120.4,92
2014-08-27 17:00:00,546,606,896,91,0,16,12,15,0,0,0,0,120.4,92
2014-08-27 18:00:00,576,636,958,91,0,16,12,14,0,0,0,0,120.0,90
2014-08-27 19:00:00,515,579,833,91,0,17,17,15,0,0,0,0,120.2,86
2014-08-27 20:00:00,511,575,825,91,0,17,17,15,0,0,0,0,120.2,85
2014-08-27 21:00:00,511,575,824,91,0,17,18,15,0,0,0,0,121.0,85
2014-08-27 22:00:00,372,432,534,90,0,18,18,15,0,0,0,0,121.2,84
2014-08-27 23:00:00,522,585,844,91,1,17,17,15,0,0,0,0,121.1,81
2014-08-28 00:00:00,396,458,586,90,0,18,19,15,0,0,0,0,121.3,80
2014-08-28 01:00:00,364,424,519,90,0,18,18,15,0,0,0,0,121.9,79
2014-08-28 02:00:00,277,335,339,90,0,18,19,15,0,0,0,0,122.0,78
2014-08-28 03:00:00,302,362,389,90,0,18,19,15,0,0,0,0,121.3,77
2014-08-28 04:00:00,274,332,333,90,0,18,16,15,0,0,0,0,120.8,76
2014-08-28 05:00:00,301,357,387,91,0,18,15,15,0,0,0,0,120.6,75
2014-08-28 06:00:00,364,420,520,91,0,17,13,15,0,0,0,0,120.4,75
2014-08-28 07:00:00,285,345,358,90,0,18,18,15,0,0,0,0,120.7,74
2014-08-28 08:00:00,381,395,449,89,0,67,20,15,4,0,0,0,120.8,77
2014-08-28 09:00:00,356,430,503,90,0,17,18,15,9,0,0,0,119.7,81
2014-08-28 10:00:00,462,512,660,91,1,16,18,14,14,28,0,0,119.0,86
2014-08-28 11:00:00,509,528,690,91,1,51,18,15,16,24,0,0,118.5,89
2014-08-28 12:00:00,856,698,1053,93,1,199,19,15,11,39,3,0,118.1,92
2014-08-28 13:00:00,809,638,941,92,0,195,18,15,7,15,41,0,117.8,93
2014-08-28 14:00:00,668,636,942,91,0,61,17,15,3,27,28,0,118.4,94
2014-08-28 15:00:00,624,648,974,92,0,52,15,14,1,0,6,0,118.0,95
2014-08-28 16:00:00,600,632,953,92,0,31,11,14,0,13,0,0,118.2,93
2014-08-28 17:00:00,674,714,1115,92,2,28,11,14,0,10,0,0,118.5,93
2014-08-28 18:00:00,599,668,1011,92,1,15,17,14,0,0,0,0,118.4,88
2014-08-28 19:00:00,517,584,845,90,0,16,17,15,0,0,0,0,119.1,82
2014-08-28 20:00:00,512,579,835,91,0,16,18,15,0,0,0,0,119.3,82
2014-08-28 21:00:00,509,577,829,91,0,16,18,15,0,0,0,0,119.2,81
2014-08-28 22:00:00,361,426,520,90,0,17,19,15,0,0,0,0,119.4,81
2014-08-28 23:00:00,532,598,872,91,1,16,18,14,0,0,0,0,120.2,80
2014-08-29 00:00:00,459,524,723,91,0,17,18,15,0,0,0,0,120.3,79
2014-08-29 01:00:00,319,382,430,89,0,18,19,15,0,0,0,0,120.9,78
2014-08-29 02:00:00,364,427,524,90,0,17,19,15,0,0,0,0,121.0,78
2014-08-29 03:00:00,327,389,446,89,0,18,19,15,0,0,0,0,121.2,78
2014-08-29 04:00:00,318,377,429,90,0,18,15,15,0,0,0,0,121.0,78
2014-08-29 05:00:00,290,350,371,90,0,18,15,15,0,0,0,0,120.8,77
2014-08-29 06:00:00,294,354,379,91,0,18,14,15,0,0,0,0,120.5,76
2014-08-29 07:00:00,348,412,492,91,0,17,17,15,0,0,0,0,120.1,77
2014-08-29 08:00:00,379,447,556,91,0,17,19,15,1,0,0,0,119.5,80
2014-08-29 09:00:00,356,409,479,90,0,16,18,15,1,14,0,0,118.8,84
2014-08-29 10:00:00,259,323,307,89,0,18,19,15,2,0,0,0,120.5,80
2014-08-29 11:00:00,396,479,588,90,1,17,18,15,16,0,0,0,120.5,86
2014-08-29 12:00:00,646,682,1003,92,1,64,17,14,18,0,0,0,120.0,90
2014-08-29 13:00:00,772,615,885,91,0,167,18,15,12,46,30,0,119.0,91
2014-08-29 14:00:00,669,620,902,91,0,90,17,15,9,13,32,0,118.2,93
2014-08-29 15:00:00,756,651,976,91,0,142,18,15,2,13,30,0,118.4,88
2014-08-29 16:00:00,998,871,1423,93,2,152,17,14,0,24,28,0,118.5,89
2014-08-29 17:00:00,592,617,921,92,0,16,12,14,0,15,21,0,119.7,89
2014-08-29 18:00:00,536,582,847,91,0,17,13,15,0,0,16,0,120.1,87
2014-08-29 19:00:00,532,578,840,91,0,16,14,15,0,0,16,0,119.5,87
2014-08-29 20:00:00,371,415,500,90,0,17,18,15,0,0,18,0,119.5,85
2014-08-29 21:00:00,407,454,572,91,1,16,18,15,0,0,18,0,118.9,81
2014-08-29 22:00:00,384,433,529,90,0,17,19,15,0,0,16,0,119.6,78
2014-08-29 23:00:00,342,389,443,89,0,18,19,15,0,0,16,0,120.8,77
2014-08-30 00:00:00,350,397,460,90,0,17,19,15,0,0,16,0,120.8,76
2014-08-30 01:00:00,341,389,443,90,0,18,19,15,0,0,16,0,121.0,76
2014-08-30 02:00:00,322,369,403,90,0,18,19,15,0,0,16,0,121.3,76
2014-08-30 03:00:00,358,406,479,90,0,18,19,15,0,0,16,0,121.2,75
2014-08-30 04:00:00,244,283,229,89,0,18,20,15,0,0,23,0,121.5,74
2014-08-30 05:00:00,269,307,278,90,0,18,19,15,0,0,23,0,121.7,74
2014-08-30 06:00:00,365,405,482,90,0,18,17,15,0,0,21,0,121.5,75
2014-08-30 07:00:00,298,328,340,90,0,18,11,15,0,0,23,0,121.1,75
2014-08-30 08:00:00,335,374,414,91,0,17,14,15,3,0,23,0,119.8,77
2014-08-30 09:00:00,386,427,497,91,0,16,18,15,8,16,18,0,118.8,83
2014-08-30 10:00:00,401,461,565,90,0,16,18,15,10,0,16,0,119.0,87
2014-08-30 11:00:00,601,591,833,91,1,77,18,15,11,0,24,0,119.2,89
2014-08-30 12:00:00,676,654,967,92,0,45,17,14,9,18,49,0,118.8,91
2014-08-30 13:00:00,764,631,934,91,0,148,18,15,6,14,50,0,118.5,93
2014-08-30 14:00:00,798,629,928,91,0,188,19,15,5,14,46,0,118.2,94
2014-08-30 15:00:00,1203,1055,1785,95,4,136,15,13,2,46,47,0,117.9,96
2014-08-30 16:00:00,704,731,1135,92,1,15,17,14,0,11,32,0,118.1,92
2014-08-30 17:00:00,586,619,915,91,0,16,17,14,0,2,31,0,118.6,91
2014-08-30 18:00:00,586,617,920,91,0,16,13,14,0,0,32,0,119.4,78
2014-08-30 19:00:00,508,542,769,91,0,17,14,15,0,0,27,0,120.0,77
2014-08-30 20:00:00,439,471,624,90,0,17,14,15,0,0,27,0,120.4,76
2014-08-30 21:00:00,460,495,667,91,0,17,18,15,0,0,27,0,120.0,75
2014-08-30 22:00:00,394,426,517,91,0,17,19,15,0,0,33,0,119.0,76
2014-08-30 23:00:00,417,454,573,91,0,17,19,15,0,0,29,0,119.3,76
2014-08-31 00:00:00,343,377,418,90,0,17,18,15,0,0,29,0,120.1,76
2014-08-31 01:00:00,349,383,429,90,0,17,19,15,0,0,29,0,120.8,75
2014-08-31 02:00:00,309,343,349,90,0,18,19,15,0,0,29,0,121.1,75
2014-08-31 03:00:00,322,355,374,90,0,18,19,15,0,0,29,0,121.2,75
2014-08-31 04:00:00,400,435,536,91,0,17,19,15,0,0,29,0,121.1,74
2014-08-31 05:00:00,345,380,427,90,0,18,19,15,0,0,29,0,121.2,74
2014-08-31 06:00:00,234,267,200,90,0,18,20,15,0,0,29,0,121.1,74
2014-08-31 07:00:00,302,333,337,90,0,18,17,15,0,0,29,0,121.0,74
2014-08-31 08:00:00,319,343,368,91,0,17,10,15,0,0,30,0,119.6,76
2014-08-31 09:00:00,371,413,475,90,0,17,15,15,8,0,29,0,119.4,82
2014-08-31 10:00:00,470,517,679,91,1,17,19,14,10,0,29,0,120.5,85
2014-08-31 11:00:00,647,634,922,92,0,75,18,14,10,0,27,0,119.7,89
2014-08-31 12:00:00,638,641,940,92,0,57,18,14,8,12,16,0,119.0,91
2014-08-31 13:00:00,782,704,1078,92,0,125,18,14,3,13,21,0,118.2,93
2014-08-31 14:00:00,580,625,918,91,0,16,18,15,2,0,26,0,118.5,94
2014-08-31 15:00:00,576,618,908,92,0,16,18,15,0,0,26,0,119.2,95
2014-08-31 16:00:00,555,616,905,92,0,16,18,15,0,0,7,0,119.8,92
2014-08-31 17:00:00,553,613,901,92,0,16,18,15,0,0,6,0,119.4,92
2014-08-31 18:00:00,569,529,723,91,0,116,27,15,0,0,6,0,119.7,72
2014-08-31 19:00:00,867,728,1099,91,3,180,38,15,0,15,35,0,119.1,74
2014-08-31 20:00:00,696,540,759,90,2,145,20,15,0,34,50,0,119.9,75
2014-08-31 21:00:00,433,510,698,91,0,0,14,15,0,0,3,0,119.7,75
2014-08-31 22:00:00,412,490,661,90,0,0,14,15,0,0,0,0,120.4,75
