#1
double table(48,15)
0.000000000000000000e+00 2.117552447552447603e+01 2.117552447552447603e+01 2.117552447552447603e+01 2.117552447552447603e+01 2.117552447552447603e+01 2.508333333333333215e+01 2.400000000000000000e+01 2.117552447552447603e+01 2.117552447552447603e+01 2.117552447552447603e+01 2.117552447552447603e+01 2.117552447552447603e+01 2.508333333333333215e+01 2.400000000000000000e+01
3.600000000000000000e+03 2.117552447552447603e+01 2.117552447552447603e+01 2.117552447552447603e+01 2.117552447552447603e+01 2.117552447552447603e+01 2.508333333333333215e+01 2.400000000000000000e+01 2.117552447552447603e+01 2.117552447552447603e+01 2.117552447552447603e+01 2.117552447552447603e+01 2.117552447552447603e+01 2.508333333333333215e+01 2.400000000000000000e+01
3.600000000000000000e+03 2.133729603729603497e+01 2.133729603729603497e+01 2.133729603729603497e+01 2.133729603729603497e+01 2.133729603729603497e+01 2.516666666666666785e+01 2.423076923076922995e+01 2.133729603729603497e+01 2.133729603729603497e+01 2.133729603729603497e+01 2.133729603729603497e+01 2.133729603729603497e+01 2.516666666666666785e+01 2.423076923076922995e+01
7.200000000000000000e+03 2.133729603729603497e+01 2.133729603729603497e+01 2.133729603729603497e+01 2.133729603729603497e+01 2.133729603729603497e+01 2.516666666666666785e+01 2.423076923076922995e+01 2.133729603729603497e+01 2.133729603729603497e+01 2.133729603729603497e+01 2.133729603729603497e+01 2.133729603729603497e+01 2.516666666666666785e+01 2.423076923076922995e+01
7.200000000000000000e+03 2.138881118881118937e+01 2.138881118881118937e+01 2.138881118881118937e+01 2.138881118881118937e+01 2.138881118881118937e+01 2.491666666666666785e+01 2.430769230769230660e+01 2.138881118881118937e+01 2.138881118881118937e+01 2.138881118881118937e+01 2.138881118881118937e+01 2.138881118881118937e+01 2.491666666666666785e+01 2.430769230769230660e+01
1.080000000000000000e+04 2.138881118881118937e+01 2.138881118881118937e+01 2.138881118881118937e+01 2.138881118881118937e+01 2.138881118881118937e+01 2.491666666666666785e+01 2.430769230769230660e+01 2.138881118881118937e+01 2.138881118881118937e+01 2.138881118881118937e+01 2.138881118881118937e+01 2.138881118881118937e+01 2.491666666666666785e+01 2.430769230769230660e+01
1.080000000000000000e+04 2.137214452214452010e+01 2.137214452214452010e+01 2.137214452214452010e+01 2.137214452214452010e+01 2.137214452214452010e+01 2.500000000000000000e+01 2.430769230769230660e+01 2.137214452214452010e+01 2.137214452214452010e+01 2.137214452214452010e+01 2.137214452214452010e+01 2.137214452214452010e+01 2.500000000000000000e+01 2.430769230769230660e+01
1.440000000000000000e+04 2.137214452214452010e+01 2.137214452214452010e+01 2.137214452214452010e+01 2.137214452214452010e+01 2.137214452214452010e+01 2.500000000000000000e+01 2.430769230769230660e+01 2.137214452214452010e+01 2.137214452214452010e+01 2.137214452214452010e+01 2.137214452214452010e+01 2.137214452214452010e+01 2.500000000000000000e+01 2.430769230769230660e+01
1.440000000000000000e+04 2.138601398601398529e+01 2.138601398601398529e+01 2.138601398601398529e+01 2.138601398601398529e+01 2.138601398601398529e+01 2.525000000000000000e+01 2.430769230769230660e+01 2.138601398601398529e+01 2.138601398601398529e+01 2.138601398601398529e+01 2.138601398601398529e+01 2.138601398601398529e+01 2.525000000000000000e+01 2.430769230769230660e+01
1.800000000000000000e+04 2.138601398601398529e+01 2.138601398601398529e+01 2.138601398601398529e+01 2.138601398601398529e+01 2.138601398601398529e+01 2.525000000000000000e+01 2.430769230769230660e+01 2.138601398601398529e+01 2.138601398601398529e+01 2.138601398601398529e+01 2.138601398601398529e+01 2.138601398601398529e+01 2.525000000000000000e+01 2.430769230769230660e+01
1.800000000000000000e+04 2.120885780885780747e+01 2.120885780885780747e+01 2.120885780885780747e+01 2.120885780885780747e+01 2.120885780885780747e+01 2.516666666666666785e+01 2.400000000000000000e+01 2.120885780885780747e+01 2.120885780885780747e+01 2.120885780885780747e+01 2.120885780885780747e+01 2.120885780885780747e+01 2.516666666666666785e+01 2.400000000000000000e+01
2.160000000000000000e+04 2.120885780885780747e+01 2.120885780885780747e+01 2.120885780885780747e+01 2.120885780885780747e+01 2.120885780885780747e+01 2.516666666666666785e+01 2.400000000000000000e+01 2.120885780885780747e+01 2.120885780885780747e+01 2.120885780885780747e+01 2.120885780885780747e+01 2.120885780885780747e+01 2.516666666666666785e+01 2.400000000000000000e+01
2.160000000000000000e+04 2.070606060606060694e+01 2.070606060606060694e+01 2.070606060606060694e+01 2.070606060606060694e+01 2.070606060606060694e+01 2.450000000000000000e+01 2.384615384615384670e+01 2.070606060606060694e+01 2.070606060606060694e+01 2.070606060606060694e+01 2.070606060606060694e+01 2.070606060606060694e+01 2.450000000000000000e+01 2.384615384615384670e+01
2.520000000000000000e+04 2.070606060606060694e+01 2.070606060606060694e+01 2.070606060606060694e+01 2.070606060606060694e+01 2.070606060606060694e+01 2.450000000000000000e+01 2.384615384615384670e+01 2.070606060606060694e+01 2.070606060606060694e+01 2.070606060606060694e+01 2.070606060606060694e+01 2.070606060606060694e+01 2.450000000000000000e+01 2.384615384615384670e+01
2.520000000000000000e+04 2.028857808857808820e+01 2.028857808857808820e+01 2.028857808857808820e+01 2.028857808857808820e+01 2.028857808857808820e+01 2.408333333333333215e+01 2.323076923076922995e+01 2.028857808857808820e+01 2.028857808857808820e+01 2.028857808857808820e+01 2.028857808857808820e+01 2.028857808857808820e+01 2.408333333333333215e+01 2.323076923076922995e+01
2.880000000000000000e+04 2.028857808857808820e+01 2.028857808857808820e+01 2.028857808857808820e+01 2.028857808857808820e+01 2.028857808857808820e+01 2.408333333333333215e+01 2.323076923076922995e+01 2.028857808857808820e+01 2.028857808857808820e+01 2.028857808857808820e+01 2.028857808857808820e+01 2.028857808857808820e+01 2.408333333333333215e+01 2.323076923076922995e+01
2.880000000000000000e+04 1.987086247086246971e+01 1.987086247086246971e+01 1.987086247086246971e+01 1.987086247086246971e+01 1.987086247086246971e+01 2.350000000000000000e+01 2.276923076923077005e+01 1.987086247086246971e+01 1.987086247086246971e+01 1.987086247086246971e+01 1.987086247086246971e+01 1.987086247086246971e+01 2.350000000000000000e+01 2.276923076923077005e+01
3.240000000000000000e+04 1.987086247086246971e+01 1.987086247086246971e+01 1.987086247086246971e+01 1.987086247086246971e+01 1.987086247086246971e+01 2.350000000000000000e+01 2.276923076923077005e+01 1.987086247086246971e+01 1.987086247086246971e+01 1.987086247086246971e+01 1.987086247086246971e+01 1.987086247086246971e+01 2.350000000000000000e+01 2.276923076923077005e+01
3.240000000000000000e+04 5.618787878787878753e+01 5.618787878787878753e+01 5.618787878787878753e+01 5.618787878787878753e+01 5.618787878787878753e+01 8.350000000000000000e+01 2.269230769230769340e+01 5.618787878787878753e+01 5.618787878787878753e+01 5.618787878787878753e+01 5.618787878787878753e+01 5.618787878787878753e+01 8.350000000000000000e+01 2.269230769230769340e+01
3.600000000000000000e+04 5.618787878787878753e+01 5.618787878787878753e+01 5.618787878787878753e+01 5.618787878787878753e+01 5.618787878787878753e+01 8.350000000000000000e+01 2.269230769230769340e+01 5.618787878787878753e+01 5.618787878787878753e+01 5.618787878787878753e+01 5.618787878787878753e+01 5.618787878787878753e+01 8.350000000000000000e+01 2.269230769230769340e+01
3.600000000000000000e+04 3.442974358974358893e+02 3.442974358974358893e+02 3.442974358974358893e+02 3.442974358974358893e+02 3.442974358974358893e+02 3.932500000000000000e+02 7.892307692307691980e+01 3.442974358974358893e+02 3.442974358974358893e+02 3.442974358974358893e+02 3.442974358974358893e+02 3.442974358974358893e+02 3.932500000000000000e+02 7.892307692307691980e+01
3.960000000000000000e+04 3.442974358974358893e+02 3.442974358974358893e+02 3.442974358974358893e+02 3.442974358974358893e+02 3.442974358974358893e+02 3.932500000000000000e+02 7.892307692307691980e+01 3.442974358974358893e+02 3.442974358974358893e+02 3.442974358974358893e+02 3.442974358974358893e+02 3.442974358974358893e+02 3.932500000000000000e+02 7.892307692307691980e+01
3.960000000000000000e+04 3.471067599067599758e+02 3.471067599067599758e+02 3.471067599067599758e+02 3.471067599067599758e+02 3.471067599067599758e+02 3.986666666666666856e+02 8.461538461538461320e+01 3.471067599067599758e+02 3.471067599067599758e+02 3.471067599067599758e+02 3.471067599067599758e+02 3.471067599067599758e+02 3.986666666666666856e+02 8.461538461538461320e+01
4.320000000000000000e+04 3.471067599067599758e+02 3.471067599067599758e+02 3.471067599067599758e+02 3.471067599067599758e+02 3.471067599067599758e+02 3.986666666666666856e+02 8.461538461538461320e+01 3.471067599067599758e+02 3.471067599067599758e+02 3.471067599067599758e+02 3.471067599067599758e+02 3.471067599067599758e+02 3.986666666666666856e+02 8.461538461538461320e+01
4.320000000000000000e+04 3.474622377622378053e+02 3.474622377622378053e+02 3.474622377622378053e+02 3.474622377622378053e+02 3.474622377622378053e+02 3.980833333333333144e+02 8.461538461538461320e+01 3.474622377622378053e+02 3.474622377622378053e+02 3.474622377622378053e+02 3.474622377622378053e+02 3.474622377622378053e+02 3.980833333333333144e+02 8.461538461538461320e+01
4.680000000000000000e+04 3.474622377622378053e+02 3.474622377622378053e+02 3.474622377622378053e+02 3.474622377622378053e+02 3.474622377622378053e+02 3.980833333333333144e+02 8.461538461538461320e+01 3.474622377622378053e+02 3.474622377622378053e+02 3.474622377622378053e+02 3.474622377622378053e+02 3.474622377622378053e+02 3.980833333333333144e+02 8.461538461538461320e+01
4.680000000000000000e+04 3.480244755244755197e+02 3.480244755244755197e+02 3.480244755244755197e+02 3.480244755244755197e+02 3.480244755244755197e+02 3.980000000000000000e+02 8.415384615384616041e+01 3.480244755244755197e+02 3.480244755244755197e+02 3.480244755244755197e+02 3.480244755244755197e+02 3.480244755244755197e+02 3.980000000000000000e+02 8.415384615384616041e+01
5.040000000000000000e+04 3.480244755244755197e+02 3.480244755244755197e+02 3.480244755244755197e+02 3.480244755244755197e+02 3.480244755244755197e+02 3.980000000000000000e+02 8.415384615384616041e+01 3.480244755244755197e+02 3.480244755244755197e+02 3.480244755244755197e+02 3.480244755244755197e+02 3.480244755244755197e+02 3.980000000000000000e+02 8.415384615384616041e+01
5.040000000000000000e+04 3.478776223776223446e+02 3.478776223776223446e+02 3.478776223776223446e+02 3.478776223776223446e+02 3.478776223776223446e+02 3.976666666666666856e+02 3.900000000000000000e+01 3.478776223776223446e+02 3.478776223776223446e+02 3.478776223776223446e+02 3.478776223776223446e+02 3.478776223776223446e+02 3.976666666666666856e+02 3.900000000000000000e+01
5.400000000000000000e+04 3.478776223776223446e+02 3.478776223776223446e+02 3.478776223776223446e+02 3.478776223776223446e+02 3.478776223776223446e+02 3.976666666666666856e+02 3.900000000000000000e+01 3.478776223776223446e+02 3.478776223776223446e+02 3.478776223776223446e+02 3.478776223776223446e+02 3.478776223776223446e+02 3.976666666666666856e+02 3.900000000000000000e+01
5.400000000000000000e+04 3.523865967365967435e+02 3.523865967365967435e+02 3.523865967365967435e+02 3.523865967365967435e+02 3.523865967365967435e+02 3.966666666666666856e+02 1.984615384615384670e+01 3.523865967365967435e+02 3.523865967365967435e+02 3.523865967365967435e+02 3.523865967365967435e+02 3.523865967365967435e+02 3.966666666666666856e+02 1.984615384615384670e+01
5.760000000000000000e+04 3.523865967365967435e+02 3.523865967365967435e+02 3.523865967365967435e+02 3.523865967365967435e+02 3.523865967365967435e+02 3.966666666666666856e+02 1.984615384615384670e+01 3.523865967365967435e+02 3.523865967365967435e+02 3.523865967365967435e+02 3.523865967365967435e+02 3.523865967365967435e+02 3.966666666666666856e+02 1.984615384615384670e+01
5.760000000000000000e+04 3.398996503496503578e+02 3.398996503496503578e+02 3.398996503496503578e+02 3.398996503496503578e+02 3.398996503496503578e+02 3.368333333333333144e+02 2.007692307692307665e+01 3.398996503496503578e+02 3.398996503496503578e+02 3.398996503496503578e+02 3.398996503496503578e+02 3.398996503496503578e+02 3.368333333333333144e+02 2.007692307692307665e+01
6.120000000000000000e+04 3.398996503496503578e+02 3.398996503496503578e+02 3.398996503496503578e+02 3.398996503496503578e+02 3.398996503496503578e+02 3.368333333333333144e+02 2.007692307692307665e+01 3.398996503496503578e+02 3.398996503496503578e+02 3.398996503496503578e+02 3.398996503496503578e+02 3.398996503496503578e+02 3.368333333333333144e+02 2.007692307692307665e+01
6.120000000000000000e+04 6.419382284382284354e+01 6.419382284382284354e+01 6.419382284382284354e+01 6.419382284382284354e+01 6.419382284382284354e+01 8.658333333333332860e+01 1.992307692307692335e+01 6.419382284382284354e+01 6.419382284382284354e+01 6.419382284382284354e+01 6.419382284382284354e+01 6.419382284382284354e+01 8.658333333333332860e+01 1.992307692307692335e+01
6.480000000000000000e+04 6.419382284382284354e+01 6.419382284382284354e+01 6.419382284382284354e+01 6.419382284382284354e+01 6.419382284382284354e+01 8.658333333333332860e+01 1.992307692307692335e+01 6.419382284382284354e+01 6.419382284382284354e+01 6.419382284382284354e+01 6.419382284382284354e+01 6.419382284382284354e+01 8.658333333333332860e+01 1.992307692307692335e+01
6.480000000000000000e+04 3.470780885780885683e+01 3.470780885780885683e+01 3.470780885780885683e+01 3.470780885780885683e+01 3.470780885780885683e+01 3.350000000000000000e+01 1.976923076923077005e+01 3.470780885780885683e+01 3.470780885780885683e+01 3.470780885780885683e+01 3.470780885780885683e+01 3.470780885780885683e+01 3.350000000000000000e+01 1.976923076923077005e+01
6.840000000000000000e+04 3.470780885780885683e+01 3.470780885780885683e+01 3.470780885780885683e+01 3.470780885780885683e+01 3.470780885780885683e+01 3.350000000000000000e+01 1.976923076923077005e+01 3.470780885780885683e+01 3.470780885780885683e+01 3.470780885780885683e+01 3.470780885780885683e+01 3.470780885780885683e+01 3.350000000000000000e+01 1.976923076923077005e+01
6.840000000000000000e+04 3.394184149184148680e+01 3.394184149184148680e+01 3.394184149184148680e+01 3.394184149184148680e+01 3.394184149184148680e+01 2.525000000000000000e+01 4.157142857142856940e+01 3.394184149184148680e+01 3.394184149184148680e+01 3.394184149184148680e+01 3.394184149184148680e+01 3.394184149184148680e+01 2.525000000000000000e+01 4.157142857142856940e+01
7.200000000000000000e+04 3.394184149184148680e+01 3.394184149184148680e+01 3.394184149184148680e+01 3.394184149184148680e+01 3.394184149184148680e+01 2.525000000000000000e+01 4.157142857142856940e+01 3.394184149184148680e+01 3.394184149184148680e+01 3.394184149184148680e+01 3.394184149184148680e+01 3.394184149184148680e+01 2.525000000000000000e+01 4.157142857142856940e+01
7.200000000000000000e+04 2.279055944055943783e+01 2.279055944055943783e+01 2.279055944055943783e+01 2.279055944055943783e+01 2.279055944055943783e+01 2.550000000000000000e+01 2.035714285714285765e+01 2.279055944055943783e+01 2.279055944055943783e+01 2.279055944055943783e+01 2.279055944055943783e+01 2.279055944055943783e+01 2.550000000000000000e+01 2.035714285714285765e+01
7.560000000000000000e+04 2.279055944055943783e+01 2.279055944055943783e+01 2.279055944055943783e+01 2.279055944055943783e+01 2.279055944055943783e+01 2.550000000000000000e+01 2.035714285714285765e+01 2.279055944055943783e+01 2.279055944055943783e+01 2.279055944055943783e+01 2.279055944055943783e+01 2.279055944055943783e+01 2.550000000000000000e+01 2.035714285714285765e+01
7.560000000000000000e+04 2.149102564102564017e+01 2.149102564102564017e+01 2.149102564102564017e+01 2.149102564102564017e+01 2.149102564102564017e+01 2.558333333333333215e+01 2.042857142857142705e+01 2.149102564102564017e+01 2.149102564102564017e+01 2.149102564102564017e+01 2.149102564102564017e+01 2.149102564102564017e+01 2.558333333333333215e+01 2.042857142857142705e+01
7.920000000000000000e+04 2.149102564102564017e+01 2.149102564102564017e+01 2.149102564102564017e+01 2.149102564102564017e+01 2.149102564102564017e+01 2.558333333333333215e+01 2.042857142857142705e+01 2.149102564102564017e+01 2.149102564102564017e+01 2.149102564102564017e+01 2.149102564102564017e+01 2.149102564102564017e+01 2.558333333333333215e+01 2.042857142857142705e+01
7.920000000000000000e+04 2.170536130536130415e+01 2.170536130536130415e+01 2.170536130536130415e+01 2.170536130536130415e+01 2.170536130536130415e+01 2.575000000000000000e+01 2.071428571428571530e+01 2.170536130536130415e+01 2.170536130536130415e+01 2.170536130536130415e+01 2.170536130536130415e+01 2.170536130536130415e+01 2.575000000000000000e+01 2.071428571428571530e+01
8.280000000000000000e+04 2.170536130536130415e+01 2.170536130536130415e+01 2.170536130536130415e+01 2.170536130536130415e+01 2.170536130536130415e+01 2.575000000000000000e+01 2.071428571428571530e+01 2.170536130536130415e+01 2.170536130536130415e+01 2.170536130536130415e+01 2.170536130536130415e+01 2.170536130536130415e+01 2.575000000000000000e+01 2.071428571428571530e+01
8.280000000000000000e+04 2.189219114219114104e+01 2.189219114219114104e+01 2.189219114219114104e+01 2.189219114219114104e+01 2.189219114219114104e+01 2.608333333333333215e+01 2.078571428571428470e+01 2.189219114219114104e+01 2.189219114219114104e+01 2.189219114219114104e+01 2.189219114219114104e+01 2.189219114219114104e+01 2.608333333333333215e+01 2.078571428571428470e+01
8.640000000000000000e+04 2.189219114219114104e+01 2.189219114219114104e+01 2.189219114219114104e+01 2.189219114219114104e+01 2.189219114219114104e+01 2.608333333333333215e+01 2.078571428571428470e+01 2.189219114219114104e+01 2.189219114219114104e+01 2.189219114219114104e+01 2.189219114219114104e+01 2.189219114219114104e+01 2.608333333333333215e+01 2.078571428571428470e+01
