#1
double table(24,15)
0.000000000000000000e+00 5.906000000000000227e+01 6.356993464052288800e+01 6.356993464052288800e+01 5.906000000000000227e+01 6.356993464052288800e+01 6.350980392156863275e+01 6.350980392156863275e+01 5.906000000000000227e+01 6.356993464052288800e+01 6.356993464052288800e+01 5.906000000000000227e+01 6.356993464052288800e+01 6.350980392156863275e+01 6.350980392156863275e+01
3.600000000000000000e+03 6.295000000000000284e+01 5.556758169934639824e+01 5.556758169934639824e+01 6.295000000000000284e+01 5.556758169934639824e+01 6.194117647058823195e+01 6.194117647058823195e+01 6.295000000000000284e+01 5.556758169934639824e+01 5.556758169934639824e+01 6.295000000000000284e+01 5.556758169934639824e+01 6.194117647058823195e+01 6.194117647058823195e+01
7.200000000000000000e+03 5.523000000000000398e+01 5.771111111111110858e+01 5.771111111111110858e+01 5.523000000000000398e+01 5.771111111111110858e+01 6.116666666666666430e+01 6.116666666666666430e+01 5.523000000000000398e+01 5.771111111111110858e+01 5.771111111111110858e+01 5.523000000000000398e+01 5.771111111111110858e+01 6.116666666666666430e+01 6.116666666666666430e+01
1.080000000000000000e+04 5.881000000000000227e+01 6.023372549019607192e+01 6.023372549019607192e+01 5.881000000000000227e+01 6.023372549019607192e+01 5.526470588235294201e+01 5.526470588235294201e+01 5.881000000000000227e+01 6.023372549019607192e+01 6.023372549019607192e+01 5.881000000000000227e+01 6.023372549019607192e+01 5.526470588235294201e+01 5.526470588235294201e+01
1.440000000000000000e+04 6.135000000000000142e+01 6.218888888888888999e+01 6.218888888888888999e+01 6.135000000000000142e+01 6.218888888888888999e+01 5.428431372549019329e+01 5.428431372549019329e+01 6.135000000000000142e+01 6.218888888888888999e+01 6.218888888888888999e+01 6.135000000000000142e+01 6.218888888888888999e+01 5.428431372549019329e+01 5.428431372549019329e+01
1.800000000000000000e+04 5.612999999999999545e+01 6.220745098039216003e+01 6.220745098039216003e+01 5.612999999999999545e+01 6.220745098039216003e+01 6.812745098039215463e+01 6.812745098039215463e+01 5.612999999999999545e+01 6.220745098039216003e+01 6.220745098039216003e+01 5.612999999999999545e+01 6.220745098039216003e+01 6.812745098039215463e+01 6.812745098039215463e+01
2.160000000000000000e+04 5.425999999999999801e+01 6.300152594371081705e+01 6.300152594371081705e+01 5.425999999999999801e+01 6.300152594371081705e+01 8.116666666666665719e+01 8.116666666666665719e+01 5.425999999999999801e+01 6.300152594371081705e+01 6.300152594371081705e+01 5.425999999999999801e+01 6.300152594371081705e+01 8.116666666666665719e+01 8.116666666666665719e+01
2.520000000000000000e+04 8.959999999999999432e+01 1.217194931305855761e+02 1.217194931305855761e+02 8.959999999999999432e+01 1.217194931305855761e+02 1.137450980392156907e+02 1.137450980392156907e+02 8.959999999999999432e+01 1.217194931305855761e+02 1.217194931305855761e+02 8.959999999999999432e+01 1.217194931305855761e+02 1.137450980392156907e+02 1.137450980392156907e+02
2.880000000000000000e+04 1.750600000000000023e+02 2.431734213685474231e+02 2.431734213685474231e+02 1.750600000000000023e+02 2.431734213685474231e+02 1.253529411764705799e+02 1.253529411764705799e+02 1.750600000000000023e+02 2.431734213685474231e+02 2.431734213685474231e+02 1.750600000000000023e+02 2.431734213685474231e+02 1.253529411764705799e+02 1.253529411764705799e+02
3.240000000000000000e+04 1.929699999999999989e+02 1.742500490196078715e+02 1.742500490196078715e+02 1.929699999999999989e+02 1.742500490196078715e+02 1.416016214177979009e+02 1.416016214177979009e+02 1.929699999999999989e+02 1.742500490196078715e+02 1.742500490196078715e+02 1.929699999999999989e+02 1.742500490196078715e+02 1.416016214177979009e+02 1.416016214177979009e+02
3.600000000000000000e+04 2.296100000000000136e+02 1.537154381752701227e+02 1.537154381752701227e+02 2.296100000000000136e+02 1.537154381752701227e+02 1.545552413273001662e+02 1.545552413273001662e+02 2.296100000000000136e+02 1.537154381752701227e+02 1.537154381752701227e+02 2.296100000000000136e+02 1.537154381752701227e+02 1.545552413273001662e+02 1.545552413273001662e+02
3.960000000000000000e+04 2.493330612244897964e+02 1.504953688141923465e+02 1.504953688141923465e+02 2.493330612244897964e+02 1.504953688141923465e+02 1.391875942684766301e+02 1.391875942684766301e+02 2.493330612244897964e+02 1.504953688141923465e+02 1.504953688141923465e+02 2.493330612244897964e+02 1.504953688141923465e+02 1.391875942684766301e+02 1.391875942684766301e+02
4.320000000000000000e+04 2.469591836734693970e+02 1.519513432039482268e+02 1.519513432039482268e+02 2.469591836734693970e+02 1.519513432039482268e+02 1.399243966817496130e+02 1.399243966817496130e+02 2.469591836734693970e+02 1.519513432039482268e+02 1.519513432039482268e+02 2.469591836734693970e+02 1.519513432039482268e+02 1.399243966817496130e+02 1.399243966817496130e+02
4.680000000000000000e+04 2.314285714285714164e+02 1.525488382019474329e+02 1.525488382019474329e+02 2.314285714285714164e+02 1.525488382019474329e+02 1.458627450980392268e+02 1.458627450980392268e+02 2.314285714285714164e+02 1.525488382019474329e+02 1.525488382019474329e+02 2.314285714285714164e+02 1.525488382019474329e+02 1.458627450980392268e+02 1.458627450980392268e+02
5.040000000000000000e+04 2.266428571428571388e+02 1.392178044551153846e+02 1.392178044551153846e+02 2.266428571428571388e+02 1.392178044551153846e+02 1.315980392156862706e+02 1.315980392156862706e+02 2.266428571428571388e+02 1.392178044551153846e+02 1.392178044551153846e+02 2.266428571428571388e+02 1.392178044551153846e+02 1.315980392156862706e+02 1.315980392156862706e+02
5.400000000000000000e+04 1.990102040816326507e+02 1.412252901160464091e+02 1.412252901160464091e+02 1.990102040816326507e+02 1.412252901160464091e+02 1.381764705882353041e+02 1.381764705882353041e+02 1.990102040816326507e+02 1.412252901160464091e+02 1.412252901160464091e+02 1.990102040816326507e+02 1.412252901160464091e+02 1.381764705882353041e+02 1.381764705882353041e+02
5.760000000000000000e+04 1.953793877551020444e+02 1.371080432172869052e+02 1.371080432172869052e+02 1.953793877551020444e+02 1.371080432172869052e+02 1.168627450980392126e+02 1.168627450980392126e+02 1.953793877551020444e+02 1.371080432172869052e+02 1.371080432172869052e+02 1.953793877551020444e+02 1.371080432172869052e+02 1.168627450980392126e+02 1.168627450980392126e+02
6.120000000000000000e+04 1.718600000000000136e+02 1.145308790182739784e+02 1.145308790182739784e+02 1.718600000000000136e+02 1.145308790182739784e+02 9.769156862745097669e+01 9.769156862745097669e+01 1.718600000000000136e+02 1.145308790182739784e+02 1.145308790182739784e+02 1.718600000000000136e+02 1.145308790182739784e+02 9.769156862745097669e+01 9.769156862745097669e+01
6.480000000000000000e+04 1.258700000000000045e+02 9.142488462051487375e+01 9.142488462051487375e+01 1.258700000000000045e+02 9.142488462051487375e+01 8.967647058823528994e+01 8.967647058823528994e+01 1.258700000000000045e+02 9.142488462051487375e+01 9.142488462051487375e+01 1.258700000000000045e+02 9.142488462051487375e+01 8.967647058823528994e+01 8.967647058823528994e+01
6.840000000000000000e+04 8.620745098039215293e+01 7.600771241830065605e+01 7.600771241830065605e+01 8.620745098039215293e+01 7.600771241830065605e+01 6.647680995475113264e+01 6.647680995475113264e+01 8.620745098039215293e+01 7.600771241830065605e+01 7.600771241830065605e+01 8.620745098039215293e+01 7.600771241830065605e+01 6.647680995475113264e+01 6.647680995475113264e+01
7.200000000000000000e+04 6.887607843137254804e+01 7.715830065359476464e+01 7.715830065359476464e+01 6.887607843137254804e+01 7.715830065359476464e+01 5.605222473604825950e+01 5.605222473604825950e+01 6.887607843137254804e+01 7.715830065359476464e+01 7.715830065359476464e+01 6.887607843137254804e+01 7.715830065359476464e+01 5.605222473604825950e+01 5.605222473604825950e+01
7.560000000000000000e+04 7.179274509803920523e+01 7.402104575163399147e+01 7.402104575163399147e+01 7.179274509803920523e+01 7.402104575163399147e+01 5.451451734539969607e+01 5.451451734539969607e+01 7.179274509803920523e+01 7.402104575163399147e+01 7.402104575163399147e+01 7.179274509803920523e+01 7.402104575163399147e+01 5.451451734539969607e+01 5.451451734539969607e+01
7.920000000000000000e+04 6.685588235294117965e+01 6.539986928104575270e+01 6.539986928104575270e+01 6.685588235294117965e+01 6.539986928104575270e+01 5.912518853695324594e+01 5.912518853695324594e+01 6.685588235294117965e+01 6.539986928104575270e+01 6.539986928104575270e+01 6.685588235294117965e+01 6.539986928104575270e+01 5.912518853695324594e+01 5.912518853695324594e+01
8.280000000000000000e+04 6.298372549019607902e+01 6.559372549019607845e+01 6.559372549019607845e+01 6.298372549019607902e+01 6.559372549019607845e+01 5.999705882352941444e+01 5.999705882352941444e+01 6.298372549019607902e+01 6.559372549019607845e+01 6.559372549019607845e+01 6.298372549019607902e+01 6.559372549019607845e+01 5.999705882352941444e+01 5.999705882352941444e+01
