#1
double table(24,15)
0.000000000000000000e+00 5.942267450980391459e+02 5.942267450980391459e+02 5.942267450980391459e+02 5.942267450980391459e+02 5.942267450980391459e+02 5.973431372549018761e+02 5.973431372549018761e+02 5.942267450980391459e+02 5.942267450980391459e+02 5.942267450980391459e+02 5.942267450980391459e+02 5.942267450980391459e+02 5.973431372549018761e+02 5.973431372549018761e+02
3.600000000000000000e+03 5.973742745098039677e+02 5.973742745098039677e+02 5.973742745098039677e+02 5.973742745098039677e+02 5.973742745098039677e+02 6.004019607843137010e+02 6.004019607843137010e+02 5.973742745098039677e+02 5.973742745098039677e+02 5.973742745098039677e+02 5.973742745098039677e+02 5.973742745098039677e+02 6.004019607843137010e+02 6.004019607843137010e+02
7.200000000000000000e+03 5.952824313725490128e+02 5.952824313725490128e+02 5.952824313725490128e+02 5.952824313725490128e+02 5.952824313725490128e+02 5.916078431372548039e+02 5.916078431372548039e+02 5.952824313725490128e+02 5.952824313725490128e+02 5.952824313725490128e+02 5.952824313725490128e+02 5.952824313725490128e+02 5.916078431372548039e+02 5.916078431372548039e+02
1.080000000000000000e+04 5.998399999999999181e+02 5.998399999999999181e+02 5.998399999999999181e+02 5.998399999999999181e+02 5.998399999999999181e+02 5.973823529411765776e+02 5.973823529411765776e+02 5.998399999999999181e+02 5.998399999999999181e+02 5.998399999999999181e+02 5.998399999999999181e+02 5.998399999999999181e+02 5.973823529411765776e+02 5.973823529411765776e+02
1.440000000000000000e+04 6.110692549019606759e+02 6.110692549019606759e+02 6.110692549019606759e+02 6.110692549019606759e+02 6.110692549019606759e+02 5.883725490196078454e+02 5.883725490196078454e+02 6.110692549019606759e+02 6.110692549019606759e+02 6.110692549019606759e+02 6.110692549019606759e+02 6.110692549019606759e+02 5.883725490196078454e+02 5.883725490196078454e+02
1.800000000000000000e+04 5.972094901960784910e+02 5.972094901960784910e+02 5.972094901960784910e+02 5.972094901960784910e+02 5.972094901960784910e+02 5.829607843137255259e+02 5.829607843137255259e+02 5.972094901960784910e+02 5.972094901960784910e+02 5.972094901960784910e+02 5.972094901960784910e+02 5.972094901960784910e+02 5.829607843137255259e+02 5.829607843137255259e+02
2.160000000000000000e+04 5.822133093237295043e+02 5.822133093237295043e+02 5.822133093237295043e+02 5.822133093237295043e+02 5.822133093237295043e+02 6.045686274509803297e+02 6.045686274509803297e+02 5.822133093237295043e+02 5.822133093237295043e+02 5.822133093237295043e+02 5.822133093237295043e+02 5.822133093237295043e+02 6.045686274509803297e+02 6.045686274509803297e+02
2.520000000000000000e+04 5.878359439775910005e+02 5.878359439775910005e+02 5.878359439775910005e+02 5.878359439775910005e+02 5.878359439775910005e+02 6.177745098039215463e+02 6.177745098039215463e+02 5.878359439775910005e+02 5.878359439775910005e+02 5.878359439775910005e+02 5.878359439775910005e+02 5.878359439775910005e+02 6.177745098039215463e+02 6.177745098039215463e+02
2.880000000000000000e+04 6.002019399759903990e+02 6.002019399759903990e+02 6.002019399759903990e+02 6.002019399759903990e+02 6.002019399759903990e+02 5.925294117647058556e+02 5.925294117647058556e+02 6.002019399759903990e+02 6.002019399759903990e+02 6.002019399759903990e+02 6.002019399759903990e+02 6.002019399759903990e+02 5.925294117647058556e+02 5.925294117647058556e+02
3.240000000000000000e+04 6.634581078431372134e+02 6.634581078431372134e+02 6.634581078431372134e+02 6.634581078431372134e+02 6.634581078431372134e+02 5.793103318250376788e+02 5.793103318250376788e+02 6.634581078431372134e+02 6.634581078431372134e+02 6.634581078431372134e+02 6.634581078431372134e+02 6.634581078431372134e+02 5.793103318250376788e+02 5.793103318250376788e+02
3.600000000000000000e+04 6.881372981192478164e+02 6.881372981192478164e+02 6.881372981192478164e+02 6.881372981192478164e+02 6.881372981192478164e+02 5.751851432880844186e+02 5.751851432880844186e+02 6.881372981192478164e+02 6.881372981192478164e+02 6.881372981192478164e+02 6.881372981192478164e+02 6.881372981192478164e+02 5.751851432880844186e+02 5.751851432880844186e+02
3.960000000000000000e+04 7.042639247699080443e+02 7.042639247699080443e+02 7.042639247699080443e+02 7.042639247699080443e+02 7.042639247699080443e+02 5.747498114630467398e+02 5.747498114630467398e+02 7.042639247699080443e+02 7.042639247699080443e+02 7.042639247699080443e+02 7.042639247699080443e+02 7.042639247699080443e+02 5.747498114630467398e+02 5.747498114630467398e+02
4.320000000000000000e+04 7.272224457783113394e+02 7.272224457783113394e+02 7.272224457783113394e+02 7.272224457783113394e+02 7.272224457783113394e+02 5.739383484162896139e+02 5.739383484162896139e+02 7.272224457783113394e+02 7.272224457783113394e+02 7.272224457783113394e+02 7.272224457783113394e+02 7.272224457783113394e+02 5.739383484162896139e+02 5.739383484162896139e+02
4.680000000000000000e+04 7.311002993197278101e+02 7.311002993197278101e+02 7.311002993197278101e+02 7.311002993197278101e+02 7.311002993197278101e+02 6.004215686274509380e+02 6.004215686274509380e+02 7.311002993197278101e+02 7.311002993197278101e+02 7.311002993197278101e+02 7.311002993197278101e+02 7.311002993197278101e+02 6.004215686274509380e+02 6.004215686274509380e+02
5.040000000000000000e+04 7.405552268907563302e+02 7.405552268907563302e+02 7.405552268907563302e+02 7.405552268907563302e+02 7.405552268907563302e+02 5.976568627450980102e+02 5.976568627450980102e+02 7.405552268907563302e+02 7.405552268907563302e+02 7.405552268907563302e+02 7.405552268907563302e+02 7.405552268907563302e+02 5.976568627450980102e+02 5.976568627450980102e+02
5.400000000000000000e+04 7.448176070428171442e+02 7.448176070428171442e+02 7.448176070428171442e+02 7.448176070428171442e+02 7.448176070428171442e+02 6.036078431372549176e+02 6.036078431372549176e+02 7.448176070428171442e+02 7.448176070428171442e+02 7.448176070428171442e+02 7.448176070428171442e+02 7.448176070428171442e+02 6.036078431372549176e+02 6.036078431372549176e+02
5.760000000000000000e+04 6.948059607843136973e+02 6.948059607843136973e+02 6.948059607843136973e+02 6.948059607843136973e+02 6.948059607843136973e+02 6.086666666666667425e+02 6.086666666666667425e+02 6.948059607843136973e+02 6.948059607843136973e+02 6.948059607843136973e+02 6.948059607843136973e+02 6.948059607843136973e+02 6.086666666666667425e+02 6.086666666666667425e+02
6.120000000000000000e+04 6.740131700680271933e+02 6.740131700680271933e+02 6.740131700680271933e+02 6.740131700680271933e+02 6.740131700680271933e+02 5.956886274509804480e+02 5.956886274509804480e+02 6.740131700680271933e+02 6.740131700680271933e+02 6.740131700680271933e+02 6.740131700680271933e+02 6.740131700680271933e+02 5.956886274509804480e+02 5.956886274509804480e+02
6.480000000000000000e+04 6.550634445778310919e+02 6.550634445778310919e+02 6.550634445778310919e+02 6.550634445778310919e+02 6.550634445778310919e+02 5.973431372549019898e+02 5.973431372549019898e+02 6.550634445778310919e+02 6.550634445778310919e+02 6.550634445778310919e+02 6.550634445778310919e+02 6.550634445778310919e+02 5.973431372549019898e+02 5.973431372549019898e+02
6.840000000000000000e+04 6.499185098039215518e+02 6.499185098039215518e+02 6.499185098039215518e+02 6.499185098039215518e+02 6.499185098039215518e+02 6.114513574660634276e+02 6.114513574660634276e+02 6.499185098039215518e+02 6.499185098039215518e+02 6.499185098039215518e+02 6.499185098039215518e+02 6.499185098039215518e+02 6.114513574660634276e+02 6.114513574660634276e+02
7.200000000000000000e+04 6.324798431372548748e+02 6.324798431372548748e+02 6.324798431372548748e+02 6.324798431372548748e+02 6.324798431372548748e+02 5.892328431372549176e+02 5.892328431372549176e+02 6.324798431372548748e+02 6.324798431372548748e+02 6.324798431372548748e+02 6.324798431372548748e+02 6.324798431372548748e+02 5.892328431372549176e+02 5.892328431372549176e+02
7.560000000000000000e+04 6.182039215686274929e+02 6.182039215686274929e+02 6.182039215686274929e+02 6.182039215686274929e+02 6.182039215686274929e+02 5.867432126696833166e+02 5.867432126696833166e+02 6.182039215686274929e+02 6.182039215686274929e+02 6.182039215686274929e+02 6.182039215686274929e+02 6.182039215686274929e+02 5.867432126696833166e+02 5.867432126696833166e+02
7.920000000000000000e+04 6.083970196078431627e+02 6.083970196078431627e+02 6.083970196078431627e+02 6.083970196078431627e+02 6.083970196078431627e+02 5.832055052790346963e+02 5.832055052790346963e+02 6.083970196078431627e+02 6.083970196078431627e+02 6.083970196078431627e+02 6.083970196078431627e+02 6.083970196078431627e+02 5.832055052790346963e+02 5.832055052790346963e+02
8.280000000000000000e+04 6.033520784313725471e+02 6.033520784313725471e+02 6.033520784313725471e+02 6.033520784313725471e+02 6.033520784313725471e+02 5.793356862745097260e+02 5.793356862745097260e+02 6.033520784313725471e+02 6.033520784313725471e+02 6.033520784313725471e+02 6.033520784313725471e+02 6.033520784313725471e+02 5.793356862745097260e+02 5.793356862745097260e+02
