#1
double table(24,15)
0.000000000000000000e+00 0.000000000000000000e+00 0.000000000000000000e+00 0.000000000000000000e+00 0.000000000000000000e+00 0.000000000000000000e+00 0.000000000000000000e+00 0.000000000000000000e+00 0.000000000000000000e+00 0.000000000000000000e+00 0.000000000000000000e+00 0.000000000000000000e+00 0.000000000000000000e+00 0.000000000000000000e+00 0.000000000000000000e+00
3.600000000000000000e+03 1.142857142857142856e-02 1.142857142857142856e-02 1.142857142857142856e-02 1.142857142857142856e-02 1.142857142857142856e-02 1.142857142857142856e-02 1.142857142857142856e-02 1.142857142857142856e-02 1.142857142857142856e-02 1.142857142857142856e-02 1.142857142857142856e-02 1.142857142857142856e-02 1.142857142857142856e-02 1.142857142857142856e-02
7.200000000000000000e+03 0.000000000000000000e+00 0.000000000000000000e+00 0.000000000000000000e+00 0.000000000000000000e+00 0.000000000000000000e+00 0.000000000000000000e+00 0.000000000000000000e+00 0.000000000000000000e+00 0.000000000000000000e+00 0.000000000000000000e+00 0.000000000000000000e+00 0.000000000000000000e+00 0.000000000000000000e+00 0.000000000000000000e+00
1.080000000000000000e+04 0.000000000000000000e+00 0.000000000000000000e+00 0.000000000000000000e+00 0.000000000000000000e+00 0.000000000000000000e+00 0.000000000000000000e+00 0.000000000000000000e+00 0.000000000000000000e+00 0.000000000000000000e+00 0.000000000000000000e+00 0.000000000000000000e+00 0.000000000000000000e+00 0.000000000000000000e+00 0.000000000000000000e+00
1.440000000000000000e+04 5.602240896358543464e-03 5.602240896358543464e-03 5.602240896358543464e-03 5.602240896358543464e-03 5.602240896358543464e-03 5.602240896358543464e-03 5.602240896358543464e-03 5.602240896358543464e-03 5.602240896358543464e-03 5.602240896358543464e-03 5.602240896358543464e-03 5.602240896358543464e-03 5.602240896358543464e-03 5.602240896358543464e-03
1.800000000000000000e+04 3.529411764705882582e-01 3.529411764705882582e-01 3.529411764705882582e-01 3.529411764705882582e-01 3.529411764705882582e-01 3.529411764705882582e-01 3.529411764705882582e-01 3.529411764705882582e-01 3.529411764705882582e-01 3.529411764705882582e-01 3.529411764705882582e-01 3.529411764705882582e-01 3.529411764705882582e-01 3.529411764705882582e-01
2.160000000000000000e+04 1.685188361058709505e+00 1.685188361058709505e+00 1.685188361058709505e+00 1.685188361058709505e+00 1.685188361058709505e+00 1.685188361058709505e+00 1.685188361058709505e+00 1.685188361058709505e+00 1.685188361058709505e+00 1.685188361058709505e+00 1.685188361058709505e+00 1.685188361058709505e+00 1.685188361058709505e+00 1.685188361058709505e+00
2.520000000000000000e+04 1.095287029097353226e+01 1.095287029097353226e+01 1.095287029097353226e+01 1.095287029097353226e+01 1.095287029097353226e+01 1.095287029097353226e+01 1.095287029097353226e+01 1.095287029097353226e+01 1.095287029097353226e+01 1.095287029097353226e+01 1.095287029097353226e+01 1.095287029097353226e+01 1.095287029097353226e+01 1.095287029097353226e+01
2.880000000000000000e+04 2.098731035271251244e+01 2.098731035271251244e+01 2.098731035271251244e+01 2.098731035271251244e+01 2.098731035271251244e+01 2.098731035271251244e+01 2.098731035271251244e+01 2.098731035271251244e+01 2.098731035271251244e+01 2.098731035271251244e+01 2.098731035271251244e+01 2.098731035271251244e+01 2.098731035271251244e+01 2.098731035271251244e+01
3.240000000000000000e+04 2.437288192199956782e+01 2.437288192199956782e+01 2.437288192199956782e+01 2.437288192199956782e+01 2.437288192199956782e+01 2.437288192199956782e+01 2.437288192199956782e+01 2.437288192199956782e+01 2.437288192199956782e+01 2.437288192199956782e+01 2.437288192199956782e+01 2.437288192199956782e+01 2.437288192199956782e+01 2.437288192199956782e+01
3.600000000000000000e+04 2.858928468090532959e+01 2.858928468090532959e+01 2.858928468090532959e+01 2.858928468090532959e+01 2.858928468090532959e+01 2.858928468090532959e+01 2.858928468090532959e+01 2.858928468090532959e+01 2.858928468090532959e+01 2.858928468090532959e+01 2.858928468090532959e+01 2.858928468090532959e+01 2.858928468090532959e+01 2.858928468090532959e+01
3.960000000000000000e+04 3.271967556253270715e+01 3.271967556253270715e+01 3.271967556253270715e+01 3.271967556253270715e+01 3.271967556253270715e+01 3.271967556253270715e+01 3.271967556253270715e+01 3.271967556253270715e+01 3.271967556253270715e+01 3.271967556253270715e+01 3.271967556253270715e+01 3.271967556253270715e+01 3.271967556253270715e+01 3.271967556253270715e+01
4.320000000000000000e+04 3.214973501488507424e+01 3.214973501488507424e+01 3.214973501488507424e+01 3.214973501488507424e+01 3.214973501488507424e+01 3.214973501488507424e+01 3.214973501488507424e+01 3.214973501488507424e+01 3.214973501488507424e+01 3.214973501488507424e+01 3.214973501488507424e+01 3.214973501488507424e+01 3.214973501488507424e+01 3.214973501488507424e+01
4.680000000000000000e+04 3.334230263533985550e+01 3.334230263533985550e+01 3.334230263533985550e+01 3.334230263533985550e+01 3.334230263533985550e+01 3.334230263533985550e+01 3.334230263533985550e+01 3.334230263533985550e+01 3.334230263533985550e+01 3.334230263533985550e+01 3.334230263533985550e+01 3.334230263533985550e+01 3.334230263533985550e+01 3.334230263533985550e+01
5.040000000000000000e+04 3.359461956211055877e+01 3.359461956211055877e+01 3.359461956211055877e+01 3.359461956211055877e+01 3.359461956211055877e+01 3.359461956211055877e+01 3.359461956211055877e+01 3.359461956211055877e+01 3.359461956211055877e+01 3.359461956211055877e+01 3.359461956211055877e+01 3.359461956211055877e+01 3.359461956211055877e+01 3.359461956211055877e+01
5.400000000000000000e+04 3.312965186074429624e+01 3.312965186074429624e+01 3.312965186074429624e+01 3.312965186074429624e+01 3.312965186074429624e+01 3.312965186074429624e+01 3.312965186074429624e+01 3.312965186074429624e+01 3.312965186074429624e+01 3.312965186074429624e+01 3.312965186074429624e+01 3.312965186074429624e+01 3.312965186074429624e+01 3.312965186074429624e+01
5.760000000000000000e+04 2.423875264391470452e+01 2.423875264391470452e+01 2.423875264391470452e+01 2.423875264391470452e+01 2.423875264391470452e+01 2.423875264391470452e+01 2.423875264391470452e+01 2.423875264391470452e+01 2.423875264391470452e+01 2.423875264391470452e+01 2.423875264391470452e+01 2.423875264391470452e+01 2.423875264391470452e+01 2.423875264391470452e+01
6.120000000000000000e+04 1.637544846510032670e+01 1.637544846510032670e+01 1.637544846510032670e+01 1.637544846510032670e+01 1.637544846510032670e+01 1.637544846510032670e+01 1.637544846510032670e+01 1.637544846510032670e+01 1.637544846510032670e+01 1.637544846510032670e+01 1.637544846510032670e+01 1.637544846510032670e+01 1.637544846510032670e+01 1.637544846510032670e+01
6.480000000000000000e+04 1.325546218487394867e+01 1.325546218487394867e+01 1.325546218487394867e+01 1.325546218487394867e+01 1.325546218487394867e+01 1.325546218487394867e+01 1.325546218487394867e+01 1.325546218487394867e+01 1.325546218487394867e+01 1.325546218487394867e+01 1.325546218487394867e+01 1.325546218487394867e+01 1.325546218487394867e+01 1.325546218487394867e+01
6.840000000000000000e+04 5.305317819435466653e+00 5.305317819435466653e+00 5.305317819435466653e+00 5.305317819435466653e+00 5.305317819435466653e+00 5.305317819435466653e+00 5.305317819435466653e+00 5.305317819435466653e+00 5.305317819435466653e+00 5.305317819435466653e+00 5.305317819435466653e+00 5.305317819435466653e+00 5.305317819435466653e+00 5.305317819435466653e+00
7.200000000000000000e+04 2.036610644257703218e+00 2.036610644257703218e+00 2.036610644257703218e+00 2.036610644257703218e+00 2.036610644257703218e+00 2.036610644257703218e+00 2.036610644257703218e+00 2.036610644257703218e+00 2.036610644257703218e+00 2.036610644257703218e+00 2.036610644257703218e+00 2.036610644257703218e+00 2.036610644257703218e+00 2.036610644257703218e+00
7.560000000000000000e+04 1.671092436974790152e+00 1.671092436974790152e+00 1.671092436974790152e+00 1.671092436974790152e+00 1.671092436974790152e+00 1.671092436974790152e+00 1.671092436974790152e+00 1.671092436974790152e+00 1.671092436974790152e+00 1.671092436974790152e+00 1.671092436974790152e+00 1.671092436974790152e+00 1.671092436974790152e+00 1.671092436974790152e+00
7.920000000000000000e+04 1.057142857142857190e-01 1.057142857142857190e-01 1.057142857142857190e-01 1.057142857142857190e-01 1.057142857142857190e-01 1.057142857142857190e-01 1.057142857142857190e-01 1.057142857142857190e-01 1.057142857142857190e-01 1.057142857142857190e-01 1.057142857142857190e-01 1.057142857142857190e-01 1.057142857142857190e-01 1.057142857142857190e-01
8.280000000000000000e+04 9.871708683473389145e-01 9.871708683473389145e-01 9.871708683473389145e-01 9.871708683473389145e-01 9.871708683473389145e-01 9.871708683473389145e-01 9.871708683473389145e-01 9.871708683473389145e-01 9.871708683473389145e-01 9.871708683473389145e-01 9.871708683473389145e-01 9.871708683473389145e-01 9.871708683473389145e-01 9.871708683473389145e-01
