#1
double table(24,15)
0.000000000000000000e+00 8.146615384615384983e+02 8.146615384615384983e+02 8.146615384615384983e+02 8.146615384615384983e+02 8.146615384615384983e+02 8.145000000000000000e+02 8.888461538461538112e+02 3.480607396870554453e+02 3.480607396870554453e+02 3.480607396870554453e+02 3.480607396870554453e+02 3.480607396870554453e+02 3.435945945945945823e+02 3.186153846153846416e+02
3.600000000000000000e+03 8.278153846153845734e+02 8.278153846153845734e+02 8.278153846153845734e+02 8.278153846153845734e+02 8.278153846153845734e+02 7.750833333333333712e+02 8.800000000000000000e+02 3.542100995732574802e+02 3.542100995732574802e+02 3.542100995732574802e+02 3.542100995732574802e+02 3.542100995732574802e+02 3.514324324324324493e+02 3.073076923076923208e+02
7.200000000000000000e+03 8.248615384615384301e+02 8.248615384615384301e+02 8.248615384615384301e+02 8.248615384615384301e+02 8.248615384615384301e+02 8.082500000000000000e+02 8.930769230769230944e+02 3.627335704125177926e+02 3.627335704125177926e+02 3.627335704125177926e+02 3.627335704125177926e+02 3.627335704125177926e+02 3.304594594594594810e+02 3.286923076923076792e+02
1.080000000000000000e+04 8.212461538461539021e+02 8.212461538461539021e+02 8.212461538461539021e+02 8.212461538461539021e+02 8.212461538461539021e+02 8.939166666666666288e+02 9.043076923076922640e+02 3.401930298719772168e+02 3.401930298719772168e+02 3.401930298719772168e+02 3.401930298719772168e+02 3.401930298719772168e+02 3.390000000000000000e+02 2.994871794871795032e+02
1.440000000000000000e+04 8.230000000000000000e+02 8.230000000000000000e+02 8.230000000000000000e+02 8.230000000000000000e+02 8.230000000000000000e+02 8.676666666666666288e+02 8.836153846153846416e+02 3.402803698435277511e+02 3.402803698435277511e+02 3.402803698435277511e+02 3.402803698435277511e+02 3.402803698435277511e+02 3.071891891891891646e+02 3.491282051282051384e+02
1.800000000000000000e+04 8.128923076923076678e+02 8.128923076923076678e+02 8.128923076923076678e+02 8.128923076923076678e+02 8.128923076923076678e+02 8.735833333333333712e+02 8.860769230769230944e+02 3.547463726884778907e+02 3.547463726884778907e+02 3.547463726884778907e+02 3.547463726884778907e+02 3.547463726884778907e+02 3.054864864864865126e+02 3.247435897435897232e+02
2.160000000000000000e+04 7.883230769230769965e+02 7.883230769230769965e+02 7.883230769230769965e+02 7.883230769230769965e+02 7.883230769230769965e+02 8.693333333333333712e+02 8.725384615384615472e+02 3.387648964754227450e+02 3.387648964754227450e+02 3.387648964754227450e+02 3.387648964754227450e+02 3.387648964754227450e+02 3.380000000000000000e+02 3.275128205128204968e+02
2.520000000000000000e+04 7.875076923076924231e+02 7.875076923076924231e+02 7.875076923076924231e+02 7.875076923076924231e+02 7.875076923076924231e+02 8.560833333333333712e+02 8.941538461538461888e+02 3.437675675675675961e+02 3.437675675675675961e+02 3.437675675675675961e+02 3.437675675675675961e+02 3.437675675675675961e+02 2.923513513513513544e+02 3.382051282051282328e+02
2.880000000000000000e+04 7.605538461538460524e+02 7.605538461538460524e+02 7.605538461538460524e+02 7.605538461538460524e+02 7.605538461538460524e+02 8.455000000000000000e+02 7.523076923076922640e+02 3.457626284178915625e+02 3.457626284178915625e+02 3.457626284178915625e+02 3.457626284178915625e+02 3.457626284178915625e+02 3.667567567567567721e+02 3.320256410256410504e+02
3.240000000000000000e+04 8.004153846153847098e+02 8.004153846153847098e+02 8.004153846153847098e+02 8.004153846153847098e+02 8.004153846153847098e+02 8.855000000000000000e+02 7.484615384615384528e+02 4.024467346119977265e+02 4.024467346119977265e+02 4.024467346119977265e+02 4.024467346119977265e+02 4.024467346119977265e+02 4.079459459459459367e+02 3.980256410256410504e+02
3.600000000000000000e+04 8.972461538461539021e+02 8.972461538461539021e+02 8.972461538461539021e+02 8.972461538461539021e+02 8.972461538461539021e+02 9.570000000000000000e+02 8.543076923076922640e+02 5.354110612636928863e+02 5.354110612636928863e+02 5.354110612636928863e+02 5.354110612636928863e+02 5.354110612636928863e+02 5.806756756756756204e+02 5.950512820512821008e+02
3.960000000000000000e+04 9.120615384615384755e+02 9.120615384615384755e+02 9.120615384615384755e+02 9.120615384615384755e+02 9.120615384615384755e+02 9.746666666666666288e+02 8.754615384615384528e+02 5.078519665414402198e+02 5.078519665414402198e+02 5.078519665414402198e+02 5.078519665414402198e+02 5.078519665414402198e+02 5.586756756756756204e+02 5.252307692307692832e+02
4.320000000000000000e+04 9.149076923076924004e+02 9.149076923076924004e+02 9.149076923076924004e+02 9.149076923076924004e+02 9.149076923076924004e+02 9.504166666666666288e+02 8.560769230769230944e+02 4.899503063792537318e+02 4.899503063792537318e+02 4.899503063792537318e+02 4.899503063792537318e+02 4.899503063792537318e+02 5.513243243243243796e+02 5.253589743589743648e+02
4.680000000000000000e+04 9.119230769230769056e+02 9.119230769230769056e+02 9.119230769230769056e+02 9.119230769230769056e+02 9.119230769230769056e+02 9.612500000000000000e+02 8.891666666666666288e+02 5.036802744039585491e+02 5.036802744039585491e+02 5.036802744039585491e+02 5.036802744039585491e+02 5.036802744039585491e+02 5.265405405405405190e+02 5.397692307692307168e+02
5.040000000000000000e+04 9.354461538461539476e+02 9.354461538461539476e+02 9.354461538461539476e+02 9.354461538461539476e+02 9.354461538461539476e+02 9.620000000000000000e+02 8.414166666666666288e+02 5.001527890238415921e+02 5.001527890238415921e+02 5.001527890238415921e+02 5.001527890238415921e+02 5.001527890238415921e+02 5.081351351351351582e+02 5.252564102564102768e+02
5.400000000000000000e+04 9.231076923076923322e+02 9.231076923076923322e+02 9.231076923076923322e+02 9.231076923076923322e+02 9.231076923076923322e+02 9.483333333333333712e+02 8.170000000000000000e+02 5.148683760683760511e+02 5.148683760683760511e+02 5.148683760683760511e+02 5.148683760683760511e+02 5.148683760683760511e+02 5.369736842105263577e+02 5.626923076923077360e+02
5.760000000000000000e+04 9.270153846153846189e+02 9.270153846153846189e+02 9.270153846153846189e+02 9.270153846153846189e+02 9.270153846153846189e+02 9.381666666666666288e+02 7.926666666666666288e+02 5.079540929593560463e+02 5.079540929593560463e+02 5.079540929593560463e+02 5.079540929593560463e+02 5.079540929593560463e+02 5.205263157894736423e+02 4.827435897435897232e+02
6.120000000000000000e+04 8.443076923076923777e+02 8.443076923076923777e+02 8.443076923076923777e+02 8.443076923076923777e+02 8.443076923076923777e+02 8.929166666666666288e+02 8.048333333333333712e+02 3.952248854117275414e+02 3.952248854117275414e+02 3.952248854117275414e+02 3.952248854117275414e+02 3.952248854117275414e+02 4.035263157894736992e+02 3.899230769230769056e+02
6.480000000000000000e+04 8.033384615384615017e+02 8.033384615384615017e+02 8.033384615384615017e+02 8.033384615384615017e+02 8.033384615384615017e+02 8.655833333333333712e+02 8.214615384615384528e+02 3.437206970128023045e+02 3.437206970128023045e+02 3.437206970128023045e+02 3.437206970128023045e+02 3.437206970128023045e+02 3.241315789473684390e+02 3.224102564102564088e+02
6.840000000000000000e+04 8.009384615384616382e+02 8.009384615384616382e+02 8.009384615384616382e+02 8.009384615384616382e+02 8.009384615384616382e+02 8.601666666666666288e+02 8.006153846153846416e+02 3.428080351606666909e+02 3.428080351606666909e+02 3.428080351606666909e+02 3.428080351606666909e+02 3.428080351606666909e+02 3.078684210526315610e+02 3.069743589743589496e+02
7.200000000000000000e+04 7.937538461538462116e+02 7.937538461538462116e+02 7.937538461538462116e+02 7.937538461538462116e+02 7.937538461538462116e+02 8.659166666666666288e+02 8.148461538461538112e+02 3.439815625341941541e+02 3.439815625341941541e+02 3.439815625341941541e+02 3.439815625341941541e+02 3.439815625341941541e+02 3.411052631578947398e+02 3.192051282051282328e+02
7.560000000000000000e+04 8.020461538461538566e+02 8.020461538461538566e+02 8.020461538461538566e+02 8.020461538461538566e+02 8.020461538461538566e+02 8.695000000000000000e+02 8.272307692307692832e+02 3.367010030273188477e+02 3.367010030273188477e+02 3.367010030273188477e+02 3.367010030273188477e+02 3.367010030273188477e+02 3.132368421052631788e+02 3.303589743589743648e+02
7.920000000000000000e+04 8.038153846153845734e+02 8.038153846153845734e+02 8.038153846153845734e+02 8.038153846153845734e+02 8.038153846153845734e+02 9.010000000000000000e+02 8.400769230769230944e+02 3.379971404602983398e+02 3.379971404602983398e+02 3.379971404602983398e+02 3.379971404602983398e+02 3.379971404602983398e+02 3.344736842105263008e+02 3.393846153846153584e+02
8.280000000000000000e+04 8.049692307692308759e+02 8.049692307692308759e+02 8.049692307692308759e+02 8.049692307692308759e+02 8.049692307692308759e+02 8.739166666666666288e+02 8.521538461538461888e+02 3.490223328591749805e+02 3.490223328591749805e+02 3.490223328591749805e+02 3.490223328591749805e+02 3.490223328591749805e+02 3.351578947368420813e+02 3.273947368421052602e+02
