#1
double table(24,15)
0.000000000000000000e+00 0.000000000000000000e+00 0.000000000000000000e+00 0.000000000000000000e+00 0.000000000000000000e+00 0.000000000000000000e+00 0.000000000000000000e+00 0.000000000000000000e+00 0.000000000000000000e+00 0.000000000000000000e+00 0.000000000000000000e+00 0.000000000000000000e+00 0.000000000000000000e+00 0.000000000000000000e+00 0.000000000000000000e+00
3.600000000000000000e+03 1.200000000000000025e-02 1.200000000000000025e-02 1.200000000000000025e-02 1.200000000000000025e-02 1.200000000000000025e-02 0.000000000000000000e+00 0.000000000000000000e+00 1.200000000000000025e-02 1.200000000000000025e-02 1.200000000000000025e-02 1.200000000000000025e-02 1.200000000000000025e-02 0.000000000000000000e+00 0.000000000000000000e+00
7.200000000000000000e+03 0.000000000000000000e+00 0.000000000000000000e+00 0.000000000000000000e+00 0.000000000000000000e+00 0.000000000000000000e+00 0.000000000000000000e+00 0.000000000000000000e+00 0.000000000000000000e+00 0.000000000000000000e+00 0.000000000000000000e+00 0.000000000000000000e+00 0.000000000000000000e+00 0.000000000000000000e+00 0.000000000000000000e+00
1.080000000000000000e+04 8.000000000000000167e-03 8.000000000000000167e-03 8.000000000000000167e-03 8.000000000000000167e-03 8.000000000000000167e-03 0.000000000000000000e+00 0.000000000000000000e+00 8.000000000000000167e-03 8.000000000000000167e-03 8.000000000000000167e-03 8.000000000000000167e-03 8.000000000000000167e-03 0.000000000000000000e+00 0.000000000000000000e+00
1.440000000000000000e+04 0.000000000000000000e+00 0.000000000000000000e+00 0.000000000000000000e+00 0.000000000000000000e+00 0.000000000000000000e+00 0.000000000000000000e+00 7.843137254901960675e-02 0.000000000000000000e+00 0.000000000000000000e+00 0.000000000000000000e+00 0.000000000000000000e+00 0.000000000000000000e+00 0.000000000000000000e+00 7.843137254901960675e-02
1.800000000000000000e+04 0.000000000000000000e+00 0.000000000000000000e+00 0.000000000000000000e+00 0.000000000000000000e+00 0.000000000000000000e+00 0.000000000000000000e+00 0.000000000000000000e+00 0.000000000000000000e+00 0.000000000000000000e+00 0.000000000000000000e+00 0.000000000000000000e+00 0.000000000000000000e+00 0.000000000000000000e+00 0.000000000000000000e+00
2.160000000000000000e+04 2.000000000000000111e-01 2.000000000000000111e-01 2.000000000000000111e-01 2.000000000000000111e-01 2.000000000000000111e-01 2.915686274509803866e+01 7.215686274509804043e+00 2.000000000000000111e-01 2.000000000000000111e-01 2.000000000000000111e-01 2.000000000000000111e-01 2.000000000000000111e-01 2.915686274509803866e+01 7.215686274509804043e+00
2.520000000000000000e+04 5.482070748299319973e+01 5.482070748299319973e+01 5.482070748299319973e+01 5.482070748299319973e+01 5.482070748299319973e+01 1.823529411764705799e+02 8.431372549019608087e+00 5.482070748299319973e+01 5.482070748299319973e+01 5.482070748299319973e+01 5.482070748299319973e+01 5.482070748299319973e+01 1.823529411764705799e+02 8.431372549019608087e+00
2.880000000000000000e+04 2.971322064825930056e+02 2.971322064825930056e+02 2.971322064825930056e+02 2.971322064825930056e+02 2.971322064825930056e+02 2.277647058823529278e+02 1.419607843137254974e+02 2.971322064825930056e+02 2.971322064825930056e+02 2.971322064825930056e+02 2.971322064825930056e+02 2.971322064825930056e+02 2.277647058823529278e+02 1.419607843137254974e+02
3.240000000000000000e+04 1.785358039215686290e+02 1.785358039215686290e+02 1.785358039215686290e+02 1.785358039215686290e+02 1.785358039215686290e+02 1.565490196078431495e+02 5.363461538461538680e+01 1.785358039215686290e+02 1.785358039215686290e+02 1.785358039215686290e+02 1.785358039215686290e+02 1.785358039215686290e+02 1.565490196078431495e+02 5.363461538461538680e+01
3.600000000000000000e+04 1.024429979991996760e+02 1.024429979991996760e+02 1.024429979991996760e+02 1.024429979991996760e+02 1.024429979991996760e+02 9.533333333333332860e+01 3.728846153846154010e+01 1.024429979991996760e+02 1.024429979991996760e+02 1.024429979991996760e+02 1.024429979991996760e+02 1.024429979991996760e+02 9.533333333333332860e+01 3.728846153846154010e+01
3.960000000000000000e+04 9.453693317326931833e+01 9.453693317326931833e+01 9.453693317326931833e+01 9.453693317326931833e+01 9.453693317326931833e+01 9.521568627450980671e+01 3.601923076923076650e+01 9.453693317326931833e+01 9.453693317326931833e+01 9.453693317326931833e+01 9.453693317326931833e+01 9.453693317326931833e+01 9.521568627450980671e+01 3.601923076923076650e+01
4.320000000000000000e+04 9.420114445778311563e+01 9.420114445778311563e+01 9.420114445778311563e+01 9.420114445778311563e+01 9.420114445778311563e+01 9.519607843137255543e+01 3.584615384615384670e+01 9.420114445778311563e+01 9.420114445778311563e+01 9.420114445778311563e+01 9.420114445778311563e+01 9.420114445778311563e+01 9.519607843137255543e+01 3.584615384615384670e+01
4.680000000000000000e+04 9.409799279711884878e+01 9.409799279711884878e+01 9.409799279711884878e+01 9.409799279711884878e+01 9.409799279711884878e+01 9.403921568627451677e+01 3.241176470588235503e+01 9.409799279711884878e+01 9.409799279711884878e+01 9.409799279711884878e+01 9.409799279711884878e+01 9.409799279711884878e+01 9.403921568627451677e+01 3.241176470588235503e+01
5.040000000000000000e+04 9.397410004001599759e+01 9.397410004001599759e+01 9.397410004001599759e+01 9.397410004001599759e+01 9.397410004001599759e+01 9.343137254901961342e+01 1.507843137254901933e+01 9.397410004001599759e+01 9.397410004001599759e+01 9.397410004001599759e+01 9.397410004001599759e+01 9.397410004001599759e+01 9.343137254901961342e+01 1.507843137254901933e+01
5.400000000000000000e+04 9.329931972789115946e+01 9.329931972789115946e+01 9.329931972789115946e+01 9.329931972789115946e+01 9.329931972789115946e+01 8.509803921568627061e+01 2.431372549019607643e+00 9.329931972789115946e+01 9.329931972789115946e+01 9.329931972789115946e+01 9.329931972789115946e+01 9.329931972789115946e+01 8.509803921568627061e+01 2.431372549019607643e+00
5.760000000000000000e+04 8.950801120448178949e+01 8.950801120448178949e+01 8.950801120448178949e+01 8.950801120448178949e+01 8.950801120448178949e+01 8.043137254901961342e+01 1.941176470588235281e+00 8.950801120448178949e+01 8.950801120448178949e+01 8.950801120448178949e+01 8.950801120448178949e+01 8.950801120448178949e+01 8.043137254901961342e+01 1.941176470588235281e+00
6.120000000000000000e+04 2.622198159263705364e+01 2.622198159263705364e+01 2.622198159263705364e+01 2.622198159263705364e+01 2.622198159263705364e+01 1.668627450980392268e+01 4.799999999999999822e-01 2.622198159263705364e+01 2.622198159263705364e+01 2.622198159263705364e+01 2.622198159263705364e+01 2.622198159263705364e+01 1.668627450980392268e+01 4.799999999999999822e-01
6.480000000000000000e+04 2.829635854341736589e+00 2.829635854341736589e+00 2.829635854341736589e+00 2.829635854341736589e+00 2.829635854341736589e+00 9.803921568627450844e-02 0.000000000000000000e+00 2.829635854341736589e+00 2.829635854341736589e+00 2.829635854341736589e+00 2.829635854341736589e+00 2.829635854341736589e+00 9.803921568627450844e-02 0.000000000000000000e+00
6.840000000000000000e+04 2.925176470588235045e+00 2.925176470588235045e+00 2.925176470588235045e+00 2.925176470588235045e+00 2.925176470588235045e+00 0.000000000000000000e+00 0.000000000000000000e+00 2.925176470588235045e+00 2.925176470588235045e+00 2.925176470588235045e+00 2.925176470588235045e+00 2.925176470588235045e+00 0.000000000000000000e+00 0.000000000000000000e+00
7.200000000000000000e+04 1.921568627450980504e-01 1.921568627450980504e-01 1.921568627450980504e-01 1.921568627450980504e-01 1.921568627450980504e-01 0.000000000000000000e+00 0.000000000000000000e+00 1.921568627450980504e-01 1.921568627450980504e-01 1.921568627450980504e-01 1.921568627450980504e-01 1.921568627450980504e-01 0.000000000000000000e+00 0.000000000000000000e+00
7.560000000000000000e+04 0.000000000000000000e+00 0.000000000000000000e+00 0.000000000000000000e+00 0.000000000000000000e+00 0.000000000000000000e+00 0.000000000000000000e+00 0.000000000000000000e+00 0.000000000000000000e+00 0.000000000000000000e+00 0.000000000000000000e+00 0.000000000000000000e+00 0.000000000000000000e+00 0.000000000000000000e+00 0.000000000000000000e+00
7.920000000000000000e+04 0.000000000000000000e+00 0.000000000000000000e+00 0.000000000000000000e+00 0.000000000000000000e+00 0.000000000000000000e+00 0.000000000000000000e+00 0.000000000000000000e+00 0.000000000000000000e+00 0.000000000000000000e+00 0.000000000000000000e+00 0.000000000000000000e+00 0.000000000000000000e+00 0.000000000000000000e+00 0.000000000000000000e+00
8.280000000000000000e+04 0.000000000000000000e+00 0.000000000000000000e+00 0.000000000000000000e+00 0.000000000000000000e+00 0.000000000000000000e+00 0.000000000000000000e+00 0.000000000000000000e+00 0.000000000000000000e+00 0.000000000000000000e+00 0.000000000000000000e+00 0.000000000000000000e+00 0.000000000000000000e+00 0.000000000000000000e+00 0.000000000000000000e+00
