#1
double table(24,15)
0.000000000000000000e+00 1.071058823529411841e+00 1.071058823529411841e+00 1.071058823529411841e+00 1.071058823529411841e+00 1.071058823529411841e+00 2.333333333333333481e+00 8.823529411764705621e-01 1.071058823529411841e+00 1.071058823529411841e+00 1.071058823529411841e+00 1.071058823529411841e+00 1.071058823529411841e+00 2.333333333333333481e+00 8.823529411764705621e-01
3.600000000000000000e+03 7.199999999999999734e-01 7.199999999999999734e-01 7.199999999999999734e-01 7.199999999999999734e-01 7.199999999999999734e-01 1.745098039215686292e+00 9.019607843137255054e-01 7.199999999999999734e-01 7.199999999999999734e-01 7.199999999999999734e-01 7.199999999999999734e-01 7.199999999999999734e-01 1.745098039215686292e+00 9.019607843137255054e-01
7.200000000000000000e+03 7.199999999999999734e-01 7.199999999999999734e-01 7.199999999999999734e-01 7.199999999999999734e-01 7.199999999999999734e-01 1.725490196078431460e+00 9.019607843137255054e-01 7.199999999999999734e-01 7.199999999999999734e-01 7.199999999999999734e-01 7.199999999999999734e-01 7.199999999999999734e-01 1.725490196078431460e+00 9.019607843137255054e-01
1.080000000000000000e+04 7.239999999999999769e-01 7.239999999999999769e-01 7.239999999999999769e-01 7.239999999999999769e-01 7.239999999999999769e-01 1.745098039215686292e+00 9.019607843137255054e-01 7.239999999999999769e-01 7.239999999999999769e-01 7.239999999999999769e-01 7.239999999999999769e-01 7.239999999999999769e-01 1.745098039215686292e+00 9.019607843137255054e-01
1.440000000000000000e+04 7.199999999999999734e-01 7.199999999999999734e-01 7.199999999999999734e-01 7.199999999999999734e-01 7.199999999999999734e-01 1.745098039215686292e+00 9.215686274509803377e-01 7.199999999999999734e-01 7.199999999999999734e-01 7.199999999999999734e-01 7.199999999999999734e-01 7.199999999999999734e-01 1.745098039215686292e+00 9.215686274509803377e-01
1.800000000000000000e+04 1.215999999999999970e+00 1.215999999999999970e+00 1.215999999999999970e+00 1.215999999999999970e+00 1.215999999999999970e+00 2.372549019607843146e+00 8.823529411764705621e-01 1.215999999999999970e+00 1.215999999999999970e+00 1.215999999999999970e+00 1.215999999999999970e+00 1.215999999999999970e+00 2.372549019607843146e+00 8.823529411764705621e-01
2.160000000000000000e+04 2.099010804321728596e+00 2.099010804321728596e+00 2.099010804321728596e+00 2.099010804321728596e+00 2.099010804321728596e+00 6.745098039215686292e+00 8.823529411764705621e-01 2.099010804321728596e+00 2.099010804321728596e+00 2.099010804321728596e+00 2.099010804321728596e+00 2.099010804321728596e+00 6.745098039215686292e+00 8.823529411764705621e-01
2.520000000000000000e+04 6.695201280512205422e+00 6.695201280512205422e+00 6.695201280512205422e+00 6.695201280512205422e+00 6.695201280512205422e+00 1.623529411764705799e+01 1.215686274509803821e+00 6.695201280512205422e+00 6.695201280512205422e+00 6.695201280512205422e+00 6.695201280512205422e+00 6.695201280512205422e+00 1.623529411764705799e+01 1.215686274509803821e+00
2.880000000000000000e+04 2.960533813525410096e+01 2.960533813525410096e+01 2.960533813525410096e+01 2.960533813525410096e+01 2.960533813525410096e+01 2.666666666666666785e+01 5.294117647058823373e+00 2.960533813525410096e+01 2.960533813525410096e+01 2.960533813525410096e+01 2.960533813525410096e+01 2.960533813525410096e+01 2.666666666666666785e+01 5.294117647058823373e+00
3.240000000000000000e+04 5.368097058823529721e+01 5.368097058823529721e+01 5.368097058823529721e+01 5.368097058823529721e+01 5.368097058823529721e+01 4.254901960784313530e+01 9.730769230769229949e+00 5.368097058823529721e+01 5.368097058823529721e+01 5.368097058823529721e+01 5.368097058823529721e+01 5.368097058823529721e+01 4.254901960784313530e+01 9.730769230769229949e+00
3.600000000000000000e+04 6.152153501400560032e+01 6.152153501400560032e+01 6.152153501400560032e+01 6.152153501400560032e+01 6.152153501400560032e+01 4.960784313725490335e+01 1.573076923076922995e+01 6.152153501400560032e+01 6.152153501400560032e+01 6.152153501400560032e+01 6.152153501400560032e+01 6.152153501400560032e+01 4.960784313725490335e+01 1.573076923076922995e+01
3.960000000000000000e+04 6.407695718287314435e+01 6.407695718287314435e+01 6.407695718287314435e+01 6.407695718287314435e+01 6.407695718287314435e+01 5.280392156862745168e+01 1.946153846153845990e+01 6.407695718287314435e+01 6.407695718287314435e+01 6.407695718287314435e+01 6.407695718287314435e+01 6.407695718287314435e+01 5.280392156862745168e+01 1.946153846153845990e+01
4.320000000000000000e+04 6.607162705082032517e+01 6.607162705082032517e+01 6.607162705082032517e+01 6.607162705082032517e+01 6.607162705082032517e+01 5.282352941176470296e+01 2.094230769230769340e+01 6.607162705082032517e+01 6.607162705082032517e+01 6.607162705082032517e+01 6.607162705082032517e+01 6.607162705082032517e+01 5.282352941176470296e+01 2.094230769230769340e+01
4.680000000000000000e+04 6.691875950380151039e+01 6.691875950380151039e+01 6.691875950380151039e+01 6.691875950380151039e+01 6.691875950380151039e+01 5.327450980392156765e+01 2.111764705882352899e+01 6.691875950380151039e+01 6.691875950380151039e+01 6.691875950380151039e+01 6.691875950380151039e+01 6.691875950380151039e+01 5.327450980392156765e+01 2.111764705882352899e+01
5.040000000000000000e+04 6.675971028411365182e+01 6.675971028411365182e+01 6.675971028411365182e+01 6.675971028411365182e+01 6.675971028411365182e+01 5.335294117647058698e+01 2.109803921568627416e+01 6.675971028411365182e+01 6.675971028411365182e+01 6.675971028411365182e+01 6.675971028411365182e+01 6.675971028411365182e+01 5.335294117647058698e+01 2.109803921568627416e+01
5.400000000000000000e+04 6.603489395758302294e+01 6.603489395758302294e+01 6.603489395758302294e+01 6.603489395758302294e+01 6.603489395758302294e+01 5.050980392156862564e+01 1.992156862745098067e+01 6.603489395758302294e+01 6.603489395758302294e+01 6.603489395758302294e+01 6.603489395758302294e+01 6.603489395758302294e+01 5.050980392156862564e+01 1.992156862745098067e+01
5.760000000000000000e+04 6.106753261304521629e+01 6.106753261304521629e+01 6.106753261304521629e+01 6.106753261304521629e+01 6.106753261304521629e+01 4.386274509803921262e+01 1.692156862745098067e+01 6.106753261304521629e+01 6.106753261304521629e+01 6.106753261304521629e+01 6.106753261304521629e+01 6.106753261304521629e+01 4.386274509803921262e+01 1.692156862745098067e+01
6.120000000000000000e+04 4.762847859143657558e+01 4.762847859143657558e+01 4.762847859143657558e+01 4.762847859143657558e+01 4.762847859143657558e+01 3.458823529411764497e+01 1.191999999999999993e+01 4.762847859143657558e+01 4.762847859143657558e+01 4.762847859143657558e+01 4.762847859143657558e+01 4.762847859143657558e+01 3.458823529411764497e+01 1.191999999999999993e+01
6.480000000000000000e+04 3.003774949979991860e+01 3.003774949979991860e+01 3.003774949979991860e+01 3.003774949979991860e+01 3.003774949979991860e+01 1.868627450980392268e+01 6.568627450980391913e+00 3.003774949979991860e+01 3.003774949979991860e+01 3.003774949979991860e+01 3.003774949979991860e+01 3.003774949979991860e+01 1.868627450980392268e+01 6.568627450980391913e+00
6.840000000000000000e+04 1.639984313725490139e+01 1.639984313725490139e+01 1.639984313725490139e+01 1.639984313725490139e+01 1.639984313725490139e+01 7.529411764705882248e+00 4.230769230769230838e+00 1.639984313725490139e+01 1.639984313725490139e+01 1.639984313725490139e+01 1.639984313725490139e+01 1.639984313725490139e+01 7.529411764705882248e+00 4.230769230769230838e+00
7.200000000000000000e+04 9.337333333333333485e+00 9.337333333333333485e+00 9.337333333333333485e+00 9.337333333333333485e+00 9.337333333333333485e+00 4.000000000000000000e+00 2.038461538461538325e+00 9.337333333333333485e+00 9.337333333333333485e+00 9.337333333333333485e+00 9.337333333333333485e+00 9.337333333333333485e+00 4.000000000000000000e+00 2.038461538461538325e+00
7.560000000000000000e+04 6.636313725490195381e+00 6.636313725490195381e+00 6.636313725490195381e+00 6.636313725490195381e+00 6.636313725490195381e+00 1.745098039215686292e+00 9.423076923076922906e-01 6.636313725490195381e+00 6.636313725490195381e+00 6.636313725490195381e+00 6.636313725490195381e+00 6.636313725490195381e+00 1.745098039215686292e+00 9.423076923076922906e-01
7.920000000000000000e+04 3.265098039215686754e+00 3.265098039215686754e+00 3.265098039215686754e+00 3.265098039215686754e+00 3.265098039215686754e+00 1.745098039215686292e+00 8.461538461538461453e-01 3.265098039215686754e+00 3.265098039215686754e+00 3.265098039215686754e+00 3.265098039215686754e+00 3.265098039215686754e+00 1.745098039215686292e+00 8.461538461538461453e-01
8.280000000000000000e+04 2.086666666666666892e+00 2.086666666666666892e+00 2.086666666666666892e+00 2.086666666666666892e+00 2.086666666666666892e+00 9.000000000000000222e-01 8.627450980392157298e-01 2.086666666666666892e+00 2.086666666666666892e+00 2.086666666666666892e+00 2.086666666666666892e+00 2.086666666666666892e+00 9.000000000000000222e-01 8.627450980392157298e-01
