#1
double table1(168,2)   # comment line
      1408924800.0          907
      1408928400.0          275
      1408932000.0          907
      1408935600.0          232
      1408939200.0          885
      1408942800.0          291
      1408946400.0          881
      1408950000.0          307
      1408953600.0          698
      1408957200.0          563
      1408960800.0          419
      1408964400.0          334
      1408968000.0          521
      1408971600.0          630
      1408975200.0          445
      1408978800.0          486
      1408982400.0          608
      1408986000.0          684
      1408989600.0          350
      1408993200.0          651
      1408996800.0          657
      1409000400.0          354
      1409004000.0          682
      1409007600.0          582
      1409011200.0          328
      1409014800.0          749
      1409018400.0          530
      1409022000.0          343
      1409025600.0          753
      1409029200.0          528
      1409032800.0          328
      1409036400.0          753
      1409040000.0          474
      1409043600.0          391
      1409047200.0          450
      1409050800.0          593
      1409054400.0          606
      1409058000.0          461
      1409061600.0          433
      1409065200.0          936
      1409068800.0          310
      1409072400.0          729
      1409076000.0          575
      1409079600.0          411
      1409083200.0          865
      1409086800.0          362
      1409090400.0          588
      1409094000.0          671
      1409097600.0          327
      1409101200.0          760
      1409104800.0          531
      1409108400.0          442
      1409112000.0          814
      1409115600.0          365
      1409119200.0          553
      1409122800.0          701
      1409126400.0          359
      1409130000.0          595
      1409133600.0          675
      1409137200.0          384
      1409140800.0          413
      1409144400.0          666
      1409148000.0          903
      1409151600.0          362
      1409155200.0          480
      1409158800.0          684
      1409162400.0          565
      1409166000.0          372
      1409169600.0          738
      1409173200.0          591
      1409176800.0          358
      1409180400.0          859
      1409184000.0          489
      1409187600.0          492
      1409191200.0          853
      1409194800.0          405
      1409198400.0          540
      1409202000.0          794
      1409205600.0          377
      1409209200.0          611
      1409212800.0          733
      1409216400.0          321
      1409220000.0          754
      1409223600.0          506
      1409227200.0          399
      1409230800.0          942
      1409234400.0          599
      1409238000.0          676
      1409241600.0          388
      1409245200.0          855
      1409248800.0          311
      1409252400.0          775
      1409256000.0          468
      1409259600.0          521
      1409263200.0          731
      1409266800.0          321
      1409270400.0          868
      1409274000.0          418
      1409277600.0          613
      1409281200.0          687
      1409284800.0          354
      1409288400.0          928
      1409292000.0          292
      1409295600.0          806
      1409299200.0          465
      1409302800.0          558
      1409306400.0          712
      1409310000.0          418
      1409313600.0          722
      1409317200.0          715
      1409320800.0          327
      1409324400.0          944
      1409328000.0          341
      1409331600.0          713
      1409335200.0          590
      1409338800.0          529
      1409342400.0          715
      1409346000.0          297
      1409349600.0          839
      1409353200.0          454
      1409356800.0          545
      1409360400.0          747
      1409364000.0          309
      1409367600.0          900
      1409371200.0          427
      1409374800.0          586
      1409378400.0          719
      1409382000.0          352
      1409385600.0          685
      1409389200.0          581
      1409392800.0          607
      1409396400.0          956
      1409400000.0          751
      1409403600.0          588
      1409407200.0          442
      1409410800.0          942
      1409414400.0          397
      1409418000.0          807
      1409421600.0          303
      1409425200.0          828
      1409428800.0          452
      1409432400.0          561
      1409436000.0          691
      1409439600.0          304
      1409443200.0          844
      1409446800.0          445
      1409450400.0          556
      1409454000.0          740
      1409457600.0          303
      1409461200.0          891
      1409464800.0          396
      1409468400.0          545
      1409472000.0          701
      1409475600.0          319
      1409479200.0          708
      1409482800.0          531
      1409486400.0          484
      1409490000.0          696
      1409493600.0          297
      1409497200.0          833
      1409500800.0          382
      1409504400.0          610
      1409508000.0          552
      1409511600.0          343
      1409515200.0          858
      1409518800.0          294
      1409522400.0          674
      1409526000.0          565
