#1
double table1(168,2)   # comment line
      1408924800.0          0
      1408928400.0          0
      1408932000.0          0
      1408935600.0          0
      1408939200.0          0
      1408942800.0          0
      1408946400.0          0
      1408950000.0          0
      1408953600.0          15
      1408957200.0          45
      1408960800.0          133
      1408964400.0          133
      1408968000.0          133
      1408971600.0          131
      1408975200.0          130
      1408978800.0          130
      1408982400.0          131
      1408986000.0          24
      1408989600.0          0
      1408993200.0          0
      1408996800.0          0
      1409000400.0          0
      1409004000.0          0
      1409007600.0          0
      1409011200.0          0
      1409014800.0          0
      1409018400.0          0
      1409022000.0          0
      1409025600.0          0
      1409029200.0          0
      1409032800.0          0
      1409036400.0          12
      1409040000.0          45
      1409043600.0          123
      1409047200.0          133
      1409050800.0          129
      1409054400.0          130
      1409058000.0          129
      1409061600.0          129
      1409065200.0          131
      1409068800.0          132
      1409072400.0          38
      1409076000.0          0
      1409079600.0          0
      1409083200.0          0
      1409086800.0          0
      1409090400.0          0
      1409094000.0          0
      1409097600.0          0
      1409101200.0          0
      1409104800.0          0
      1409108400.0          0
      1409112000.0          0
      1409115600.0          0
      1409119200.0          0
      1409122800.0          0
      1409126400.0          0
      1409130000.0          0
      1409133600.0          53
      1409137200.0          125
      1409140800.0          112
      1409144400.0          81
      1409148000.0          82
      1409151600.0          84
      1409155200.0          84
      1409158800.0          21
      1409162400.0          0
      1409166000.0          0
      1409169600.0          0
      1409173200.0          0
      1409176800.0          0
      1409180400.0          0
      1409184000.0          0
      1409187600.0          0
      1409191200.0          0
      1409194800.0          0
      1409198400.0          0
      1409202000.0          0
      1409205600.0          0
      1409209200.0          0
      1409212800.0          0
      1409216400.0          0
      1409220000.0          106
      1409223600.0          122
      1409227200.0          122
      1409230800.0          121
      1409234400.0          123
      1409238000.0          123
      1409241600.0          124
      1409245200.0          59
      1409248800.0          44
      1409252400.0          45
      1409256000.0          46
      1409259600.0          45
      1409263200.0          46
      1409266800.0          47
      1409270400.0          47
      1409274000.0          47
      1409277600.0          47
      1409281200.0          47
      1409284800.0          47
      1409288400.0          47
      1409292000.0          47
      1409295600.0          47
      1409299200.0          46
      1409302800.0          44
      1409306400.0          123
      1409310000.0          128
      1409313600.0          128
      1409317200.0          125
      1409320800.0          124
      1409324400.0          124
      1409328000.0          127
      1409331600.0          23
      1409335200.0          0
      1409338800.0          0
      1409342400.0          0
      1409346000.0          0
      1409349600.0          0
      1409353200.0          0
      1409356800.0          0
      1409360400.0          0
      1409364000.0          0
      1409367600.0          0
      1409371200.0          0
      1409374800.0          0
      1409378400.0          0
      1409382000.0          0
      1409385600.0          28
      1409389200.0          44
      1409392800.0          118
      1409396400.0          123
      1409400000.0          122
      1409403600.0          122
      1409407200.0          122
      1409410800.0          121
      1409414400.0          125
      1409418000.0          0
      1409421600.0          0
      1409425200.0          0
      1409428800.0          0
      1409432400.0          0
      1409436000.0          0
      1409439600.0          0
      1409443200.0          0
      1409446800.0          0
      1409450400.0          0
      1409454000.0          0
      1409457600.0          0
      1409461200.0          0
      1409464800.0          0
      1409468400.0          0
      1409472000.0          0
      1409475600.0          0
      1409479200.0          0
      1409482800.0          0
      1409486400.0          0
      1409490000.0          0
      1409493600.0          0
      1409497200.0          0
      1409500800.0          0
      1409504400.0          0
      1409508000.0          1
      1409511600.0          0
      1409515200.0          0
      1409518800.0          0
      1409522400.0          0
      1409526000.0          0
