#1
double table(24,15)
0.000000000000000000e+00 9.487179487179485671e-01 1.076923076923076872e+00 9.487179487179485671e-01 1.076923076923076872e+00 9.487179487179485671e-01 1.083333333333333259e+00 6.923076923076922906e-01 9.487179487179485671e-01 1.076923076923076872e+00 9.487179487179485671e-01 1.076923076923076872e+00 9.487179487179485671e-01 1.083333333333333259e+00 6.923076923076922906e-01
3.600000000000000000e+03 8.995726495726495964e-01 1.076923076923076872e+00 8.995726495726495964e-01 1.076923076923076872e+00 8.995726495726495964e-01 9.166666666666666297e-01 8.461538461538461453e-01 8.995726495726495964e-01 1.076923076923076872e+00 8.995726495726495964e-01 1.076923076923076872e+00 8.995726495726495964e-01 9.166666666666666297e-01 8.461538461538461453e-01
7.200000000000000000e+03 9.487179487179487891e-01 7.027972027972028135e-01 9.487179487179487891e-01 7.027972027972028135e-01 9.487179487179487891e-01 7.500000000000000000e-01 8.461538461538461453e-01 9.487179487179487891e-01 7.027972027972028135e-01 9.487179487179487891e-01 7.027972027972028135e-01 9.487179487179487891e-01 7.500000000000000000e-01 8.461538461538461453e-01
1.080000000000000000e+04 9.508547008547009183e-01 1.000000000000000000e+00 9.508547008547009183e-01 1.000000000000000000e+00 9.508547008547009183e-01 1.333333333333333259e+00 6.153846153846154188e-01 9.508547008547009183e-01 1.000000000000000000e+00 9.508547008547009183e-01 1.000000000000000000e+00 9.508547008547009183e-01 1.333333333333333259e+00 6.153846153846154188e-01
1.440000000000000000e+04 7.585470085470085166e-01 7.342657342657342712e-01 7.585470085470085166e-01 7.342657342657342712e-01 7.585470085470085166e-01 8.333333333333333703e-01 6.923076923076922906e-01 7.585470085470085166e-01 7.342657342657342712e-01 7.585470085470085166e-01 7.342657342657342712e-01 7.585470085470085166e-01 8.333333333333333703e-01 6.923076923076922906e-01
1.800000000000000000e+04 7.927350427350426942e-01 7.272727272727272929e-01 7.927350427350426942e-01 7.272727272727272929e-01 7.927350427350426942e-01 4.166666666666666852e-01 1.000000000000000000e+00 7.927350427350426942e-01 7.272727272727272929e-01 7.927350427350426942e-01 7.272727272727272929e-01 7.927350427350426942e-01 4.166666666666666852e-01 1.000000000000000000e+00
2.160000000000000000e+04 6.619230769230769340e+01 9.827622377622378735e+01 6.619230769230769340e+01 9.827622377622378735e+01 6.619230769230769340e+01 9.100000000000000000e+01 3.076923076923077094e-01 6.619230769230769340e+01 9.827622377622378735e+01 6.619230769230769340e+01 9.827622377622378735e+01 6.619230769230769340e+01 9.100000000000000000e+01 3.076923076923077094e-01
2.520000000000000000e+04 3.038073038073038674e+02 4.688916083916083721e+02 3.038073038073038674e+02 4.688916083916083721e+02 3.038073038073038674e+02 3.152500000000000000e+02 9.584615384615383959e+01 3.038073038073038674e+02 4.688916083916083721e+02 3.038073038073038674e+02 4.688916083916083721e+02 3.038073038073038674e+02 3.152500000000000000e+02 9.584615384615383959e+01
2.880000000000000000e+04 2.827278554778554849e+02 4.383076923076923208e+02 2.827278554778554849e+02 4.383076923076923208e+02 2.827278554778554849e+02 3.151666666666666856e+02 3.120000000000000000e+02 2.827278554778554849e+02 4.383076923076923208e+02 2.827278554778554849e+02 4.383076923076923208e+02 2.827278554778554849e+02 3.151666666666666856e+02 3.120000000000000000e+02
3.240000000000000000e+04 3.119965034965035215e+02 4.254230769230769056e+02 3.119965034965035215e+02 4.254230769230769056e+02 3.119965034965035215e+02 3.315833333333333144e+02 3.166923076923076792e+02 3.119965034965035215e+02 4.254230769230769056e+02 3.119965034965035215e+02 4.254230769230769056e+02 3.119965034965035215e+02 3.315833333333333144e+02 3.166923076923076792e+02
3.600000000000000000e+04 3.291482128982129325e+02 4.461818181818181870e+02 3.291482128982129325e+02 4.461818181818181870e+02 3.291482128982129325e+02 3.617500000000000000e+02 3.515384615384615472e+02 3.291482128982129325e+02 4.461818181818181870e+02 3.291482128982129325e+02 4.461818181818181870e+02 3.291482128982129325e+02 3.617500000000000000e+02 3.515384615384615472e+02
3.960000000000000000e+04 3.685205905205905310e+02 4.763391608391608543e+02 3.685205905205905310e+02 4.763391608391608543e+02 3.685205905205905310e+02 3.631666666666666856e+02 3.620000000000000000e+02 3.685205905205905310e+02 4.763391608391608543e+02 3.685205905205905310e+02 4.763391608391608543e+02 3.685205905205905310e+02 3.631666666666666856e+02 3.620000000000000000e+02
4.320000000000000000e+04 4.053201243201243074e+02 4.631748251748251732e+02 4.053201243201243074e+02 4.631748251748251732e+02 4.053201243201243074e+02 3.587500000000000000e+02 3.683846153846153584e+02 4.053201243201243074e+02 4.631748251748251732e+02 4.053201243201243074e+02 4.631748251748251732e+02 4.053201243201243074e+02 3.587500000000000000e+02 3.683846153846153584e+02
4.680000000000000000e+04 3.993547008547008659e+02 4.603636363636363740e+02 3.993547008547008659e+02 4.603636363636363740e+02 3.993547008547008659e+02 3.668333333333333144e+02 3.565384615384615472e+02 3.993547008547008659e+02 4.603636363636363740e+02 3.993547008547008659e+02 4.603636363636363740e+02 3.993547008547008659e+02 3.668333333333333144e+02 3.565384615384615472e+02
5.040000000000000000e+04 8.776107226107227177e+01 2.692587412587412246e+02 8.776107226107227177e+01 2.692587412587412246e+02 8.776107226107227177e+01 9.808333333333332860e+01 8.430769230769230660e+01 8.776107226107227177e+01 2.692587412587412246e+02 8.776107226107227177e+01 2.692587412587412246e+02 8.776107226107227177e+01 9.808333333333332860e+01 8.430769230769230660e+01
5.400000000000000000e+04 7.743589743589744501e+01 2.298671328671328524e+02 7.743589743589744501e+01 2.298671328671328524e+02 7.743589743589744501e+01 1.575000000000000000e+01 3.800000000000000000e+01 7.743589743589744501e+01 2.298671328671328524e+02 7.743589743589744501e+01 2.298671328671328524e+02 7.743589743589744501e+01 1.575000000000000000e+01 3.800000000000000000e+01
5.760000000000000000e+04 1.121338383838383805e+02 1.838006993006993071e+02 1.121338383838383805e+02 1.838006993006993071e+02 1.121338383838383805e+02 5.450000000000000000e+01 7.461538461538461675e+00 1.121338383838383805e+02 1.838006993006993071e+02 1.121338383838383805e+02 1.838006993006993071e+02 1.121338383838383805e+02 5.450000000000000000e+01 7.461538461538461675e+00
6.120000000000000000e+04 8.711208236208237565e+01 1.637596153846153868e+02 8.711208236208237565e+01 1.637596153846153868e+02 8.711208236208237565e+01 4.000000000000000000e+01 9.923076923076923350e+00 8.711208236208237565e+01 1.637596153846153868e+02 8.711208236208237565e+01 1.637596153846153868e+02 8.711208236208237565e+01 4.000000000000000000e+01 9.923076923076923350e+00
6.480000000000000000e+04 7.163228438228438222e+01 1.755833333333333428e+02 7.163228438228438222e+01 1.755833333333333428e+02 7.163228438228438222e+01 4.350000000000000000e+01 3.615384615384615419e+00 7.163228438228438222e+01 1.755833333333333428e+02 7.163228438228438222e+01 1.755833333333333428e+02 7.163228438228438222e+01 4.350000000000000000e+01 3.615384615384615419e+00
6.840000000000000000e+04 5.625233100233100458e+01 1.445833333333333428e+02 5.625233100233100458e+01 1.445833333333333428e+02 5.625233100233100458e+01 6.175000000000000000e+01 2.307692307692307487e+00 5.625233100233100458e+01 1.445833333333333428e+02 5.625233100233100458e+01 1.445833333333333428e+02 5.625233100233100458e+01 6.175000000000000000e+01 2.307692307692307487e+00
7.200000000000000000e+04 3.018473193473193206e+01 5.162500000000000000e+01 3.018473193473193206e+01 5.162500000000000000e+01 3.018473193473193206e+01 2.000000000000000000e+01 1.642857142857142794e+00 3.018473193473193206e+01 5.162500000000000000e+01 3.018473193473193206e+01 5.162500000000000000e+01 3.018473193473193206e+01 2.000000000000000000e+01 1.642857142857142794e+00
7.560000000000000000e+04 7.231740481740480675e+00 2.291666666666666963e+00 7.231740481740480675e+00 2.291666666666666963e+00 7.231740481740480675e+00 4.750000000000000000e+00 1.428571428571428603e+00 7.231740481740480675e+00 2.291666666666666963e+00 7.231740481740480675e+00 2.291666666666666963e+00 7.231740481740480675e+00 4.750000000000000000e+00 1.428571428571428603e+00
7.920000000000000000e+04 1.622766122766122754e+00 1.416666666666666519e+00 1.622766122766122754e+00 1.416666666666666519e+00 1.622766122766122754e+00 1.916666666666666741e+00 1.071428571428571397e+00 1.622766122766122754e+00 1.416666666666666519e+00 1.622766122766122754e+00 1.416666666666666519e+00 1.622766122766122754e+00 1.916666666666666741e+00 1.071428571428571397e+00
8.280000000000000000e+04 1.287296037296037143e+00 1.166666666666666741e+00 1.287296037296037143e+00 1.166666666666666741e+00 1.287296037296037143e+00 1.583333333333333259e+00 6.428571428571429047e-01 1.287296037296037143e+00 1.166666666666666741e+00 1.287296037296037143e+00 1.166666666666666741e+00 1.287296037296037143e+00 1.583333333333333259e+00 6.428571428571429047e-01
