#1
double table(48,15)
0.000000000000000000e+00 9.975609756097561842e+00 9.629041406693136906e+00 9.629041406693136906e+00 1.093327796234773075e+01 1.093327796234773075e+01 1.155813953488372015e+01 9.976744186046511587e+00 9.975609756097561842e+00 9.629041406693136906e+00 9.629041406693136906e+00 1.093327796234773075e+01 1.093327796234773075e+01 1.155813953488372015e+01 9.976744186046511587e+00
3.600000000000000000e+03 9.975609756097561842e+00 9.629041406693136906e+00 9.629041406693136906e+00 1.093327796234773075e+01 1.093327796234773075e+01 1.155813953488372015e+01 9.976744186046511587e+00 9.975609756097561842e+00 9.629041406693136906e+00 9.629041406693136906e+00 1.093327796234773075e+01 1.093327796234773075e+01 1.155813953488372015e+01 9.976744186046511587e+00
3.600000000000000000e+03 9.951219512195121908e+00 9.761486103233124823e+00 9.761486103233124823e+00 1.117829457364341117e+01 1.117829457364341117e+01 1.153488372093023173e+01 1.009302325581395365e+01 9.951219512195121908e+00 9.761486103233124823e+00 9.761486103233124823e+00 1.117829457364341117e+01 1.117829457364341117e+01 1.153488372093023173e+01 1.009302325581395365e+01
7.200000000000000000e+03 9.951219512195121908e+00 9.761486103233124823e+00 9.761486103233124823e+00 1.117829457364341117e+01 1.117829457364341117e+01 1.153488372093023173e+01 1.009302325581395365e+01 9.951219512195121908e+00 9.761486103233124823e+00 9.761486103233124823e+00 1.117829457364341117e+01 1.117829457364341117e+01 1.153488372093023173e+01 1.009302325581395365e+01
7.200000000000000000e+03 1.000000000000000000e+01 9.723766307430516065e+00 9.723766307430516065e+00 1.119019933554817214e+01 1.119019933554817214e+01 1.158139534883720856e+01 1.020930232558139572e+01 1.000000000000000000e+01 9.723766307430516065e+00 9.723766307430516065e+00 1.119019933554817214e+01 1.119019933554817214e+01 1.158139534883720856e+01 1.020930232558139572e+01
1.080000000000000000e+04 1.000000000000000000e+01 9.723766307430516065e+00 9.723766307430516065e+00 1.119019933554817214e+01 1.119019933554817214e+01 1.158139534883720856e+01 1.020930232558139572e+01 1.000000000000000000e+01 9.723766307430516065e+00 9.723766307430516065e+00 1.119019933554817214e+01 1.119019933554817214e+01 1.158139534883720856e+01 1.020930232558139572e+01
1.080000000000000000e+04 1.014634146341463428e+01 9.703346568349404677e+00 9.703346568349404677e+00 1.119019933554817214e+01 1.119019933554817214e+01 1.155813953488372015e+01 1.004651162790697683e+01 1.014634146341463428e+01 9.703346568349404677e+00 9.703346568349404677e+00 1.119019933554817214e+01 1.119019933554817214e+01 1.155813953488372015e+01 1.004651162790697683e+01
1.440000000000000000e+04 1.014634146341463428e+01 9.703346568349404677e+00 9.703346568349404677e+00 1.119019933554817214e+01 1.119019933554817214e+01 1.155813953488372015e+01 1.004651162790697683e+01 1.014634146341463428e+01 9.703346568349404677e+00 9.703346568349404677e+00 1.119019933554817214e+01 1.119019933554817214e+01 1.155813953488372015e+01 1.004651162790697683e+01
1.440000000000000000e+04 1.036585365853658480e+01 1.011826432217810634e+01 1.011826432217810634e+01 1.154318936877076496e+01 1.154318936877076496e+01 1.181395348837209269e+01 1.053488372093023173e+01 1.036585365853658480e+01 1.011826432217810634e+01 1.011826432217810634e+01 1.154318936877076496e+01 1.154318936877076496e+01 1.181395348837209269e+01 1.053488372093023173e+01
1.800000000000000000e+04 1.036585365853658480e+01 1.011826432217810634e+01 1.011826432217810634e+01 1.154318936877076496e+01 1.154318936877076496e+01 1.181395348837209269e+01 1.053488372093023173e+01 1.036585365853658480e+01 1.011826432217810634e+01 1.011826432217810634e+01 1.154318936877076496e+01 1.154318936877076496e+01 1.181395348837209269e+01 1.053488372093023173e+01
1.800000000000000000e+04 9.975609756097561842e+00 9.676687464549065254e+00 9.676687464549065254e+00 1.114341085271317766e+01 1.114341085271317766e+01 1.148837209302325668e+01 1.002325581395348841e+01 9.975609756097561842e+00 9.676687464549065254e+00 9.676687464549065254e+00 1.114341085271317766e+01 1.114341085271317766e+01 1.148837209302325668e+01 1.002325581395348841e+01
2.160000000000000000e+04 9.975609756097561842e+00 9.676687464549065254e+00 9.676687464549065254e+00 1.114341085271317766e+01 1.114341085271317766e+01 1.148837209302325668e+01 1.002325581395348841e+01 9.975609756097561842e+00 9.676687464549065254e+00 9.676687464549065254e+00 1.114341085271317766e+01 1.114341085271317766e+01 1.148837209302325668e+01 1.002325581395348841e+01
2.160000000000000000e+04 9.975609756097561842e+00 9.617413499716391811e+00 9.617413499716391811e+00 1.096788482834994483e+01 1.096788482834994483e+01 1.134883720930232620e+01 1.004651162790697683e+01 9.975609756097561842e+00 9.617413499716391811e+00 9.617413499716391811e+00 1.096788482834994483e+01 1.096788482834994483e+01 1.134883720930232620e+01 1.004651162790697683e+01
2.520000000000000000e+04 9.975609756097561842e+00 9.617413499716391811e+00 9.617413499716391811e+00 1.096788482834994483e+01 1.096788482834994483e+01 1.134883720930232620e+01 1.004651162790697683e+01 9.975609756097561842e+00 9.617413499716391811e+00 9.617413499716391811e+00 1.096788482834994483e+01 1.096788482834994483e+01 1.134883720930232620e+01 1.004651162790697683e+01
2.520000000000000000e+04 1.007317073170731625e+01 9.736528644356210904e+00 9.736528644356210904e+00 1.095542635658914676e+01 1.095542635658914676e+01 1.139534883720930303e+01 1.009302325581395365e+01 1.007317073170731625e+01 9.736528644356210904e+00 9.736528644356210904e+00 1.095542635658914676e+01 1.095542635658914676e+01 1.139534883720930303e+01 1.009302325581395365e+01
2.880000000000000000e+04 1.007317073170731625e+01 9.736528644356210904e+00 9.736528644356210904e+00 1.095542635658914676e+01 1.095542635658914676e+01 1.139534883720930303e+01 1.009302325581395365e+01 1.007317073170731625e+01 9.736528644356210904e+00 9.736528644356210904e+00 1.095542635658914676e+01 1.095542635658914676e+01 1.139534883720930303e+01 1.009302325581395365e+01
2.880000000000000000e+04 1.002439024390243816e+01 9.675553034600113733e+00 9.675553034600113733e+00 1.097923588039867049e+01 1.097923588039867049e+01 1.139534883720930303e+01 1.002325581395348841e+01 1.002439024390243816e+01 9.675553034600113733e+00 9.675553034600113733e+00 1.097923588039867049e+01 1.097923588039867049e+01 1.139534883720930303e+01 1.002325581395348841e+01
3.240000000000000000e+04 1.002439024390243816e+01 9.675553034600113733e+00 9.675553034600113733e+00 1.097923588039867049e+01 1.097923588039867049e+01 1.139534883720930303e+01 1.002325581395348841e+01 1.002439024390243816e+01 9.675553034600113733e+00 9.675553034600113733e+00 1.097923588039867049e+01 1.097923588039867049e+01 1.139534883720930303e+01 1.002325581395348841e+01
3.240000000000000000e+04 9.926829268292683750e+00 9.943604651162790020e+00 9.943604651162790020e+00 1.106007751937984551e+01 1.106007751937984551e+01 1.227906976744186096e+01 9.977272727272726627e+00 9.926829268292683750e+00 9.943604651162790020e+00 9.943604651162790020e+00 1.106007751937984551e+01 1.106007751937984551e+01 1.227906976744186096e+01 9.977272727272726627e+00
3.600000000000000000e+04 9.926829268292683750e+00 9.943604651162790020e+00 9.943604651162790020e+00 1.106007751937984551e+01 1.106007751937984551e+01 1.227906976744186096e+01 9.977272727272726627e+00 9.926829268292683750e+00 9.943604651162790020e+00 9.943604651162790020e+00 1.106007751937984551e+01 1.106007751937984551e+01 1.227906976744186096e+01 9.977272727272726627e+00
3.600000000000000000e+04 1.004878048780487809e+01 1.147220646625070906e+01 1.147220646625070906e+01 1.799944629014396469e+01 1.799944629014396469e+01 2.386046511627906952e+01 9.909090909090908283e+00 1.004878048780487809e+01 1.147220646625070906e+01 1.147220646625070906e+01 1.799944629014396469e+01 1.799944629014396469e+01 2.386046511627906952e+01 9.909090909090908283e+00
3.960000000000000000e+04 1.004878048780487809e+01 1.147220646625070906e+01 1.147220646625070906e+01 1.799944629014396469e+01 1.799944629014396469e+01 2.386046511627906952e+01 9.909090909090908283e+00 1.004878048780487809e+01 1.147220646625070906e+01 1.147220646625070906e+01 1.799944629014396469e+01 1.799944629014396469e+01 2.386046511627906952e+01 9.909090909090908283e+00
3.960000000000000000e+04 9.875000000000000000e+00 2.106040839478162141e+01 2.106040839478162141e+01 2.852297895902546898e+01 2.852297895902546898e+01 3.444186046511627808e+01 1.056818181818181834e+01 9.875000000000000000e+00 2.106040839478162141e+01 2.106040839478162141e+01 2.852297895902546898e+01 2.852297895902546898e+01 3.444186046511627808e+01 1.056818181818181834e+01
4.320000000000000000e+04 9.875000000000000000e+00 2.106040839478162141e+01 2.106040839478162141e+01 2.852297895902546898e+01 2.852297895902546898e+01 3.444186046511627808e+01 1.056818181818181834e+01 9.875000000000000000e+00 2.106040839478162141e+01 2.106040839478162141e+01 2.852297895902546898e+01 2.852297895902546898e+01 3.444186046511627808e+01 1.056818181818181834e+01
4.320000000000000000e+04 9.707317073170731447e+00 2.154934770277935385e+01 2.154934770277935385e+01 3.169850498338870182e+01 3.169850498338870182e+01 3.423255813953488058e+01 1.068181818181818166e+01 9.707317073170731447e+00 2.154934770277935385e+01 2.154934770277935385e+01 3.169850498338870182e+01 3.169850498338870182e+01 3.423255813953488058e+01 1.068181818181818166e+01
4.680000000000000000e+04 9.707317073170731447e+00 2.154934770277935385e+01 2.154934770277935385e+01 3.169850498338870182e+01 3.169850498338870182e+01 3.423255813953488058e+01 1.068181818181818166e+01 9.707317073170731447e+00 2.154934770277935385e+01 2.154934770277935385e+01 3.169850498338870182e+01 3.169850498338870182e+01 3.423255813953488058e+01 1.068181818181818166e+01
4.680000000000000000e+04 9.390243902439024737e+00 2.085989790130459554e+01 2.085989790130459554e+01 3.235714285714285410e+01 3.235714285714285410e+01 3.623255813953488058e+01 1.041860465116279144e+01 9.390243902439024737e+00 2.085989790130459554e+01 2.085989790130459554e+01 3.235714285714285410e+01 3.235714285714285410e+01 3.623255813953488058e+01 1.041860465116279144e+01
5.040000000000000000e+04 9.390243902439024737e+00 2.085989790130459554e+01 2.085989790130459554e+01 3.235714285714285410e+01 3.235714285714285410e+01 3.623255813953488058e+01 1.041860465116279144e+01 9.390243902439024737e+00 2.085989790130459554e+01 2.085989790130459554e+01 3.235714285714285410e+01 3.235714285714285410e+01 3.623255813953488058e+01 1.041860465116279144e+01
5.040000000000000000e+04 9.512195121951219079e+00 2.140310077519379917e+01 2.140310077519379917e+01 3.273809523809524080e+01 3.273809523809524080e+01 3.525581395348837077e+01 1.093023255813953476e+01 9.512195121951219079e+00 2.140310077519379917e+01 2.140310077519379917e+01 3.273809523809524080e+01 3.273809523809524080e+01 3.525581395348837077e+01 1.093023255813953476e+01
5.400000000000000000e+04 9.512195121951219079e+00 2.140310077519379917e+01 2.140310077519379917e+01 3.273809523809524080e+01 3.273809523809524080e+01 3.525581395348837077e+01 1.093023255813953476e+01 9.512195121951219079e+00 2.140310077519379917e+01 2.140310077519379917e+01 3.273809523809524080e+01 3.273809523809524080e+01 3.525581395348837077e+01 1.093023255813953476e+01
5.400000000000000000e+04 9.024390243902438158e+00 2.046428571428571530e+01 2.046428571428571530e+01 3.285160575858250809e+01 3.285160575858250809e+01 3.544186046511627808e+01 1.011627906976744207e+01 9.024390243902438158e+00 2.046428571428571530e+01 2.046428571428571530e+01 3.285160575858250809e+01 3.285160575858250809e+01 3.544186046511627808e+01 1.011627906976744207e+01
5.760000000000000000e+04 9.024390243902438158e+00 2.046428571428571530e+01 2.046428571428571530e+01 3.285160575858250809e+01 3.285160575858250809e+01 3.544186046511627808e+01 1.011627906976744207e+01 9.024390243902438158e+00 2.046428571428571530e+01 2.046428571428571530e+01 3.285160575858250809e+01 3.285160575858250809e+01 3.544186046511627808e+01 1.011627906976744207e+01
5.760000000000000000e+04 8.904761904761905100e+00 1.501190476190476275e+01 1.501190476190476275e+01 2.661517165005537322e+01 2.661517165005537322e+01 1.962790697674418539e+01 1.018604651162790731e+01 8.904761904761905100e+00 1.501190476190476275e+01 1.501190476190476275e+01 2.661517165005537322e+01 2.661517165005537322e+01 1.962790697674418539e+01 1.018604651162790731e+01
6.120000000000000000e+04 8.904761904761905100e+00 1.501190476190476275e+01 1.501190476190476275e+01 2.661517165005537322e+01 2.661517165005537322e+01 1.962790697674418539e+01 1.018604651162790731e+01 8.904761904761905100e+00 1.501190476190476275e+01 1.501190476190476275e+01 2.661517165005537322e+01 2.661517165005537322e+01 1.962790697674418539e+01 1.018604651162790731e+01
6.120000000000000000e+04 8.857142857142857650e+00 1.120238095238095255e+01 1.120238095238095255e+01 1.314562569213731891e+01 1.314562569213731891e+01 1.172093023255813904e+01 1.038095238095238138e+01 8.857142857142857650e+00 1.120238095238095255e+01 1.120238095238095255e+01 1.314562569213731891e+01 1.314562569213731891e+01 1.172093023255813904e+01 1.038095238095238138e+01
6.480000000000000000e+04 8.857142857142857650e+00 1.120238095238095255e+01 1.120238095238095255e+01 1.314562569213731891e+01 1.314562569213731891e+01 1.172093023255813904e+01 1.038095238095238138e+01 8.857142857142857650e+00 1.120238095238095255e+01 1.120238095238095255e+01 1.314562569213731891e+01 1.314562569213731891e+01 1.172093023255813904e+01 1.038095238095238138e+01
6.480000000000000000e+04 9.000000000000000000e+00 1.072619047619047628e+01 1.072619047619047628e+01 1.086434108527131848e+01 1.086434108527131848e+01 9.674418604651162212e+00 9.761904761904762751e+00 9.000000000000000000e+00 1.072619047619047628e+01 1.072619047619047628e+01 1.086434108527131848e+01 1.086434108527131848e+01 9.674418604651162212e+00 9.761904761904762751e+00
6.840000000000000000e+04 9.000000000000000000e+00 1.072619047619047628e+01 1.072619047619047628e+01 1.086434108527131848e+01 1.086434108527131848e+01 9.674418604651162212e+00 9.761904761904762751e+00 9.000000000000000000e+00 1.072619047619047628e+01 1.072619047619047628e+01 1.086434108527131848e+01 1.086434108527131848e+01 9.674418604651162212e+00 9.761904761904762751e+00
6.840000000000000000e+04 9.395348837209303028e+00 1.065974529346622290e+01 1.065974529346622290e+01 1.080398671096345531e+01 1.080398671096345531e+01 9.883720930232557933e+00 9.952380952380952550e+00 9.395348837209303028e+00 1.065974529346622290e+01 1.065974529346622290e+01 1.080398671096345531e+01 1.080398671096345531e+01 9.883720930232557933e+00 9.952380952380952550e+00
7.200000000000000000e+04 9.395348837209303028e+00 1.065974529346622290e+01 1.065974529346622290e+01 1.080398671096345531e+01 1.080398671096345531e+01 9.883720930232557933e+00 9.952380952380952550e+00 9.395348837209303028e+00 1.065974529346622290e+01 1.065974529346622290e+01 1.080398671096345531e+01 1.080398671096345531e+01 9.883720930232557933e+00 9.952380952380952550e+00
7.200000000000000000e+04 9.186046511627907307e+00 1.052021040974529242e+01 1.052021040974529242e+01 1.079346622369878261e+01 1.079346622369878261e+01 9.906976744186046346e+00 9.952380952380952550e+00 9.186046511627907307e+00 1.052021040974529242e+01 1.052021040974529242e+01 1.079346622369878261e+01 1.079346622369878261e+01 9.906976744186046346e+00 9.952380952380952550e+00
7.560000000000000000e+04 9.186046511627907307e+00 1.052021040974529242e+01 1.052021040974529242e+01 1.079346622369878261e+01 1.079346622369878261e+01 9.906976744186046346e+00 9.952380952380952550e+00 9.186046511627907307e+00 1.052021040974529242e+01 1.052021040974529242e+01 1.079346622369878261e+01 1.079346622369878261e+01 9.906976744186046346e+00 9.952380952380952550e+00
7.560000000000000000e+04 9.162790697674418894e+00 1.059080841638981241e+01 1.059080841638981241e+01 1.079291251384274730e+01 1.079291251384274730e+01 9.906976744186046346e+00 9.928571428571428825e+00 9.162790697674418894e+00 1.059080841638981241e+01 1.059080841638981241e+01 1.079291251384274730e+01 1.079291251384274730e+01 9.906976744186046346e+00 9.928571428571428825e+00
7.920000000000000000e+04 9.162790697674418894e+00 1.059080841638981241e+01 1.059080841638981241e+01 1.079291251384274730e+01 1.079291251384274730e+01 9.906976744186046346e+00 9.928571428571428825e+00 9.162790697674418894e+00 1.059080841638981241e+01 1.059080841638981241e+01 1.079291251384274730e+01 1.079291251384274730e+01 9.906976744186046346e+00 9.928571428571428825e+00
7.920000000000000000e+04 9.186046511627907307e+00 1.056699889258028868e+01 1.056699889258028868e+01 1.089839424141749724e+01 1.089839424141749724e+01 9.906976744186046346e+00 9.928571428571428825e+00 9.186046511627907307e+00 1.056699889258028868e+01 1.056699889258028868e+01 1.089839424141749724e+01 1.089839424141749724e+01 9.906976744186046346e+00 9.928571428571428825e+00
8.280000000000000000e+04 9.186046511627907307e+00 1.056699889258028868e+01 1.056699889258028868e+01 1.089839424141749724e+01 1.089839424141749724e+01 9.906976744186046346e+00 9.928571428571428825e+00 9.186046511627907307e+00 1.056699889258028868e+01 1.056699889258028868e+01 1.089839424141749724e+01 1.089839424141749724e+01 9.906976744186046346e+00 9.928571428571428825e+00
8.280000000000000000e+04 9.186046511627907307e+00 1.061406423034330082e+01 1.061406423034330082e+01 1.086323366555924608e+01 1.086323366555924608e+01 9.928571428571428825e+00 9.975609756097561842e+00 9.186046511627907307e+00 1.061406423034330082e+01 1.061406423034330082e+01 1.086323366555924608e+01 1.086323366555924608e+01 9.928571428571428825e+00 9.975609756097561842e+00
8.640000000000000000e+04 9.186046511627907307e+00 1.061406423034330082e+01 1.061406423034330082e+01 1.086323366555924608e+01 1.086323366555924608e+01 9.928571428571428825e+00 9.975609756097561842e+00 9.186046511627907307e+00 1.061406423034330082e+01 1.061406423034330082e+01 1.086323366555924608e+01 1.086323366555924608e+01 9.928571428571428825e+00 9.975609756097561842e+00
