#1
double table1(168,2)   # comment line
      1408924800.0          682
      1408928400.0          719
      1408932000.0          729
      1408935600.0          823
      1408939200.0          690
      1408942800.0          674
      1408946400.0          771
      1408950000.0          802
      1408953600.0          960
      1408957200.0          1237
      1408960800.0          1028
      1408964400.0          891
      1408968000.0          1026
      1408971600.0          1252
      1408975200.0          1140
      1408978800.0          1168
      1408982400.0          1214
      1408986000.0          1083
      1408989600.0          968
      1408993200.0          826
      1408996800.0          668
      1409000400.0          629
      1409004000.0          756
      1409007600.0          681
      1409011200.0          662
      1409014800.0          737
      1409018400.0          687
      1409022000.0          671
      1409025600.0          674
      1409029200.0          737
      1409032800.0          670
      1409036400.0          674
      1409040000.0          897
      1409043600.0          762
      1409047200.0          691
      1409050800.0          973
      1409054400.0          1074
      1409058000.0          1117
      1409061600.0          1188
      1409065200.0          1213
      1409068800.0          1304
      1409072400.0          1344
      1409076000.0          1032
      1409079600.0          712
      1409083200.0          614
      1409086800.0          642
      1409090400.0          604
      1409094000.0          646
      1409097600.0          641
      1409101200.0          748
      1409104800.0          651
      1409108400.0          636
      1409112000.0          735
      1409115600.0          599
      1409119200.0          565
      1409122800.0          807
      1409126400.0          812
      1409130000.0          812
      1409133600.0          789
      1409137200.0          999
      1409140800.0          1061
      1409144400.0          1071
      1409148000.0          1240
      1409151600.0          1213
      1409155200.0          1188
      1409158800.0          1324
      1409162400.0          1254
      1409166000.0          860
      1409169600.0          880
      1409173200.0          647
      1409176800.0          634
      1409180400.0          647
      1409184000.0          777
      1409187600.0          690
      1409191200.0          650
      1409194800.0          707
      1409198400.0          612
      1409202000.0          632
      1409205600.0          634
      1409209200.0          733
      1409212800.0          820
      1409216400.0          1153
      1409220000.0          963
      1409223600.0          823
      1409227200.0          963
      1409230800.0          1226
      1409234400.0          820
      1409238000.0          1163
      1409241600.0          1331
      1409245200.0          1090
      1409248800.0          1070
      1409252400.0          676
      1409256000.0          881
      1409259600.0          756
      1409263200.0          711
      1409266800.0          808
      1409270400.0          729
      1409274000.0          725
      1409277600.0          766
      1409281200.0          647
      1409284800.0          682
      1409288400.0          725
      1409292000.0          804
      1409295600.0          684
      1409299200.0          875
      1409302800.0          1082
      1409306400.0          1042
      1409310000.0          1189
      1409313600.0          1058
      1409317200.0          1005
      1409320800.0          1129
      1409324400.0          1183
      1409328000.0          1182
      1409331600.0          873
      1409335200.0          934
      1409338800.0          781
      1409342400.0          726
      1409346000.0          869
      1409349600.0          748
      1409353200.0          657
      1409356800.0          746
      1409360400.0          656
      1409364000.0          672
      1409367600.0          645
      1409371200.0          792
      1409374800.0          673
      1409378400.0          671
      1409382000.0          766
      1409385600.0          664
      1409389200.0          656
      1409392800.0          827
      1409396400.0          810
      1409400000.0          756
      1409403600.0          945
      1409407200.0          809
      1409410800.0          856
      1409414400.0          894
      1409418000.0          972
      1409421600.0          812
      1409425200.0          963
      1409428800.0          836
      1409432400.0          620
      1409436000.0          599
      1409439600.0          746
      1409443200.0          659
      1409446800.0          655
      1409450400.0          726
      1409454000.0          633
      1409457600.0          662
      1409461200.0          645
      1409464800.0          786
      1409468400.0          658
      1409472000.0          642
      1409475600.0          785
      1409479200.0          737
      1409482800.0          1049
      1409486400.0          1216
      1409490000.0          1097
      1409493600.0          1078
      1409497200.0          1113
      1409500800.0          1044
      1409504400.0          903
      1409508000.0          861
      1409511600.0          946
      1409515200.0          656
      1409518800.0          608
      1409522400.0          671
      1409526000.0          575
