#1
double table(48,15)
0.000000000000000000e+00 1.403448218448218370e+02 1.403448218448218370e+02 1.403448218448218370e+02 1.403448218448218370e+02 1.403448218448218370e+02 1.403448218448218370e+02 1.403448218448218370e+02 1.403448218448218370e+02 1.403448218448218370e+02 1.403448218448218370e+02 1.403448218448218370e+02 1.403448218448218370e+02 1.403448218448218370e+02 1.403448218448218370e+02
3.600000000000000000e+03 1.403448218448218370e+02 1.403448218448218370e+02 1.403448218448218370e+02 1.403448218448218370e+02 1.403448218448218370e+02 1.403448218448218370e+02 1.403448218448218370e+02 1.403448218448218370e+02 1.403448218448218370e+02 1.403448218448218370e+02 1.403448218448218370e+02 1.403448218448218370e+02 1.403448218448218370e+02 1.403448218448218370e+02
3.600000000000000000e+03 1.402938727938727936e+02 1.402938727938727936e+02 1.402938727938727936e+02 1.402938727938727936e+02 1.402938727938727936e+02 1.402938727938727936e+02 1.402938727938727936e+02 1.402938727938727936e+02 1.402938727938727936e+02 1.402938727938727936e+02 1.402938727938727936e+02 1.402938727938727936e+02 1.402938727938727936e+02 1.402938727938727936e+02
7.200000000000000000e+03 1.402938727938727936e+02 1.402938727938727936e+02 1.402938727938727936e+02 1.402938727938727936e+02 1.402938727938727936e+02 1.402938727938727936e+02 1.402938727938727936e+02 1.402938727938727936e+02 1.402938727938727936e+02 1.402938727938727936e+02 1.402938727938727936e+02 1.402938727938727936e+02 1.402938727938727936e+02 1.402938727938727936e+02
7.200000000000000000e+03 1.418243423243423535e+02 1.418243423243423535e+02 1.418243423243423535e+02 1.418243423243423535e+02 1.418243423243423535e+02 1.418243423243423535e+02 1.418243423243423535e+02 1.418243423243423535e+02 1.418243423243423535e+02 1.418243423243423535e+02 1.418243423243423535e+02 1.418243423243423535e+02 1.418243423243423535e+02 1.418243423243423535e+02
1.080000000000000000e+04 1.418243423243423535e+02 1.418243423243423535e+02 1.418243423243423535e+02 1.418243423243423535e+02 1.418243423243423535e+02 1.418243423243423535e+02 1.418243423243423535e+02 1.418243423243423535e+02 1.418243423243423535e+02 1.418243423243423535e+02 1.418243423243423535e+02 1.418243423243423535e+02 1.418243423243423535e+02 1.418243423243423535e+02
1.080000000000000000e+04 1.400618548118548290e+02 1.400618548118548290e+02 1.400618548118548290e+02 1.400618548118548290e+02 1.400618548118548290e+02 1.400618548118548290e+02 1.400618548118548290e+02 1.400618548118548290e+02 1.400618548118548290e+02 1.400618548118548290e+02 1.400618548118548290e+02 1.400618548118548290e+02 1.400618548118548290e+02 1.400618548118548290e+02
1.440000000000000000e+04 1.400618548118548290e+02 1.400618548118548290e+02 1.400618548118548290e+02 1.400618548118548290e+02 1.400618548118548290e+02 1.400618548118548290e+02 1.400618548118548290e+02 1.400618548118548290e+02 1.400618548118548290e+02 1.400618548118548290e+02 1.400618548118548290e+02 1.400618548118548290e+02 1.400618548118548290e+02 1.400618548118548290e+02
1.440000000000000000e+04 1.411570929070929026e+02 1.411570929070929026e+02 1.411570929070929026e+02 1.411570929070929026e+02 1.411570929070929026e+02 1.411570929070929026e+02 1.411570929070929026e+02 1.411570929070929026e+02 1.411570929070929026e+02 1.411570929070929026e+02 1.411570929070929026e+02 1.411570929070929026e+02 1.411570929070929026e+02 1.411570929070929026e+02
1.800000000000000000e+04 1.411570929070929026e+02 1.411570929070929026e+02 1.411570929070929026e+02 1.411570929070929026e+02 1.411570929070929026e+02 1.411570929070929026e+02 1.411570929070929026e+02 1.411570929070929026e+02 1.411570929070929026e+02 1.411570929070929026e+02 1.411570929070929026e+02 1.411570929070929026e+02 1.411570929070929026e+02 1.411570929070929026e+02
1.800000000000000000e+04 1.447910422910422881e+02 1.447910422910422881e+02 1.447910422910422881e+02 1.447910422910422881e+02 1.447910422910422881e+02 1.447910422910422881e+02 1.447910422910422881e+02 1.447910422910422881e+02 1.447910422910422881e+02 1.447910422910422881e+02 1.447910422910422881e+02 1.447910422910422881e+02 1.447910422910422881e+02 1.447910422910422881e+02
2.160000000000000000e+04 1.447910422910422881e+02 1.447910422910422881e+02 1.447910422910422881e+02 1.447910422910422881e+02 1.447910422910422881e+02 1.447910422910422881e+02 1.447910422910422881e+02 1.447910422910422881e+02 1.447910422910422881e+02 1.447910422910422881e+02 1.447910422910422881e+02 1.447910422910422881e+02 1.447910422910422881e+02 1.447910422910422881e+02
2.160000000000000000e+04 1.507609890109890216e+02 1.507609890109890216e+02 1.507609890109890216e+02 1.507609890109890216e+02 1.507609890109890216e+02 1.507609890109890216e+02 1.507609890109890216e+02 1.507609890109890216e+02 1.507609890109890216e+02 1.507609890109890216e+02 1.507609890109890216e+02 1.507609890109890216e+02 1.507609890109890216e+02 1.507609890109890216e+02
2.520000000000000000e+04 1.507609890109890216e+02 1.507609890109890216e+02 1.507609890109890216e+02 1.507609890109890216e+02 1.507609890109890216e+02 1.507609890109890216e+02 1.507609890109890216e+02 1.507609890109890216e+02 1.507609890109890216e+02 1.507609890109890216e+02 1.507609890109890216e+02 1.507609890109890216e+02 1.507609890109890216e+02 1.507609890109890216e+02
2.520000000000000000e+04 1.811277888777888734e+02 1.811277888777888734e+02 1.811277888777888734e+02 1.811277888777888734e+02 1.811277888777888734e+02 1.811277888777888734e+02 1.811277888777888734e+02 1.811277888777888734e+02 1.811277888777888734e+02 1.811277888777888734e+02 1.811277888777888734e+02 1.811277888777888734e+02 1.811277888777888734e+02 1.811277888777888734e+02
2.880000000000000000e+04 1.811277888777888734e+02 1.811277888777888734e+02 1.811277888777888734e+02 1.811277888777888734e+02 1.811277888777888734e+02 1.811277888777888734e+02 1.811277888777888734e+02 1.811277888777888734e+02 1.811277888777888734e+02 1.811277888777888734e+02 1.811277888777888734e+02 1.811277888777888734e+02 1.811277888777888734e+02 1.811277888777888734e+02
2.880000000000000000e+04 1.865646853146853061e+02 1.865646853146853061e+02 1.865646853146853061e+02 1.865646853146853061e+02 1.865646853146853061e+02 1.865646853146853061e+02 1.865646853146853061e+02 1.865646853146853061e+02 1.865646853146853061e+02 1.865646853146853061e+02 1.865646853146853061e+02 1.865646853146853061e+02 1.865646853146853061e+02 1.865646853146853061e+02
3.240000000000000000e+04 1.865646853146853061e+02 1.865646853146853061e+02 1.865646853146853061e+02 1.865646853146853061e+02 1.865646853146853061e+02 1.865646853146853061e+02 1.865646853146853061e+02 1.865646853146853061e+02 1.865646853146853061e+02 1.865646853146853061e+02 1.865646853146853061e+02 1.865646853146853061e+02 1.865646853146853061e+02 1.865646853146853061e+02
3.240000000000000000e+04 1.908230103230103225e+02 1.908230103230103225e+02 1.908230103230103225e+02 1.908230103230103225e+02 1.908230103230103225e+02 1.908230103230103225e+02 1.908230103230103225e+02 1.908230103230103225e+02 1.908230103230103225e+02 1.908230103230103225e+02 1.908230103230103225e+02 1.908230103230103225e+02 1.908230103230103225e+02 1.908230103230103225e+02
3.600000000000000000e+04 1.908230103230103225e+02 1.908230103230103225e+02 1.908230103230103225e+02 1.908230103230103225e+02 1.908230103230103225e+02 1.908230103230103225e+02 1.908230103230103225e+02 1.908230103230103225e+02 1.908230103230103225e+02 1.908230103230103225e+02 1.908230103230103225e+02 1.908230103230103225e+02 1.908230103230103225e+02 1.908230103230103225e+02
3.600000000000000000e+04 1.965587745587745587e+02 1.965587745587745587e+02 1.965587745587745587e+02 1.965587745587745587e+02 1.965587745587745587e+02 1.965587745587745587e+02 1.965587745587745587e+02 1.965587745587745587e+02 1.965587745587745587e+02 1.965587745587745587e+02 1.965587745587745587e+02 1.965587745587745587e+02 1.965587745587745587e+02 1.965587745587745587e+02
3.960000000000000000e+04 1.965587745587745587e+02 1.965587745587745587e+02 1.965587745587745587e+02 1.965587745587745587e+02 1.965587745587745587e+02 1.965587745587745587e+02 1.965587745587745587e+02 1.965587745587745587e+02 1.965587745587745587e+02 1.965587745587745587e+02 1.965587745587745587e+02 1.965587745587745587e+02 1.965587745587745587e+02 1.965587745587745587e+02
3.960000000000000000e+04 2.420546953046952865e+02 2.420546953046952865e+02 2.420546953046952865e+02 2.420546953046952865e+02 2.420546953046952865e+02 2.420546953046952865e+02 2.420546953046952865e+02 2.420546953046952865e+02 2.420546953046952865e+02 2.420546953046952865e+02 2.420546953046952865e+02 2.420546953046952865e+02 2.420546953046952865e+02 2.420546953046952865e+02
4.320000000000000000e+04 2.420546953046952865e+02 2.420546953046952865e+02 2.420546953046952865e+02 2.420546953046952865e+02 2.420546953046952865e+02 2.420546953046952865e+02 2.420546953046952865e+02 2.420546953046952865e+02 2.420546953046952865e+02 2.420546953046952865e+02 2.420546953046952865e+02 2.420546953046952865e+02 2.420546953046952865e+02 2.420546953046952865e+02
4.320000000000000000e+04 2.605183982683982435e+02 2.605183982683982435e+02 2.605183982683982435e+02 2.605183982683982435e+02 2.605183982683982435e+02 2.605183982683982435e+02 2.605183982683982435e+02 2.605183982683982435e+02 2.605183982683982435e+02 2.605183982683982435e+02 2.605183982683982435e+02 2.605183982683982435e+02 2.605183982683982435e+02 2.605183982683982435e+02
4.680000000000000000e+04 2.605183982683982435e+02 2.605183982683982435e+02 2.605183982683982435e+02 2.605183982683982435e+02 2.605183982683982435e+02 2.605183982683982435e+02 2.605183982683982435e+02 2.605183982683982435e+02 2.605183982683982435e+02 2.605183982683982435e+02 2.605183982683982435e+02 2.605183982683982435e+02 2.605183982683982435e+02 2.605183982683982435e+02
4.680000000000000000e+04 2.462828005328005361e+02 2.462828005328005361e+02 2.462828005328005361e+02 2.462828005328005361e+02 2.462828005328005361e+02 2.462828005328005361e+02 2.462828005328005361e+02 2.462828005328005361e+02 2.462828005328005361e+02 2.462828005328005361e+02 2.462828005328005361e+02 2.462828005328005361e+02 2.462828005328005361e+02 2.462828005328005361e+02
5.040000000000000000e+04 2.462828005328005361e+02 2.462828005328005361e+02 2.462828005328005361e+02 2.462828005328005361e+02 2.462828005328005361e+02 2.462828005328005361e+02 2.462828005328005361e+02 2.462828005328005361e+02 2.462828005328005361e+02 2.462828005328005361e+02 2.462828005328005361e+02 2.462828005328005361e+02 2.462828005328005361e+02 2.462828005328005361e+02
5.040000000000000000e+04 1.917492507492507343e+02 1.917492507492507343e+02 1.917492507492507343e+02 1.917492507492507343e+02 1.917492507492507343e+02 1.917492507492507343e+02 1.917492507492507343e+02 1.917492507492507343e+02 1.917492507492507343e+02 1.917492507492507343e+02 1.917492507492507343e+02 1.917492507492507343e+02 1.917492507492507343e+02 1.917492507492507343e+02
5.400000000000000000e+04 1.917492507492507343e+02 1.917492507492507343e+02 1.917492507492507343e+02 1.917492507492507343e+02 1.917492507492507343e+02 1.917492507492507343e+02 1.917492507492507343e+02 1.917492507492507343e+02 1.917492507492507343e+02 1.917492507492507343e+02 1.917492507492507343e+02 1.917492507492507343e+02 1.917492507492507343e+02 1.917492507492507343e+02
5.400000000000000000e+04 1.602415084915085117e+02 1.602415084915085117e+02 1.602415084915085117e+02 1.602415084915085117e+02 1.602415084915085117e+02 1.602415084915085117e+02 1.602415084915085117e+02 1.602415084915085117e+02 1.602415084915085117e+02 1.602415084915085117e+02 1.602415084915085117e+02 1.602415084915085117e+02 1.602415084915085117e+02 1.602415084915085117e+02
5.760000000000000000e+04 1.602415084915085117e+02 1.602415084915085117e+02 1.602415084915085117e+02 1.602415084915085117e+02 1.602415084915085117e+02 1.602415084915085117e+02 1.602415084915085117e+02 1.602415084915085117e+02 1.602415084915085117e+02 1.602415084915085117e+02 1.602415084915085117e+02 1.602415084915085117e+02 1.602415084915085117e+02 1.602415084915085117e+02
5.760000000000000000e+04 1.573410755910755938e+02 1.573410755910755938e+02 1.573410755910755938e+02 1.573410755910755938e+02 1.573410755910755938e+02 1.573410755910755938e+02 1.573410755910755938e+02 1.573410755910755938e+02 1.573410755910755938e+02 1.573410755910755938e+02 1.573410755910755938e+02 1.573410755910755938e+02 1.573410755910755938e+02 1.573410755910755938e+02
6.120000000000000000e+04 1.573410755910755938e+02 1.573410755910755938e+02 1.573410755910755938e+02 1.573410755910755938e+02 1.573410755910755938e+02 1.573410755910755938e+02 1.573410755910755938e+02 1.573410755910755938e+02 1.573410755910755938e+02 1.573410755910755938e+02 1.573410755910755938e+02 1.573410755910755938e+02 1.573410755910755938e+02 1.573410755910755938e+02
6.120000000000000000e+04 1.551116383616383700e+02 1.551116383616383700e+02 1.551116383616383700e+02 1.551116383616383700e+02 1.551116383616383700e+02 1.551116383616383700e+02 1.551116383616383700e+02 1.551116383616383700e+02 1.551116383616383700e+02 1.551116383616383700e+02 1.551116383616383700e+02 1.551116383616383700e+02 1.551116383616383700e+02 1.551116383616383700e+02
6.480000000000000000e+04 1.551116383616383700e+02 1.551116383616383700e+02 1.551116383616383700e+02 1.551116383616383700e+02 1.551116383616383700e+02 1.551116383616383700e+02 1.551116383616383700e+02 1.551116383616383700e+02 1.551116383616383700e+02 1.551116383616383700e+02 1.551116383616383700e+02 1.551116383616383700e+02 1.551116383616383700e+02 1.551116383616383700e+02
6.480000000000000000e+04 1.463437395937395991e+02 1.463437395937395991e+02 1.463437395937395991e+02 1.463437395937395991e+02 1.463437395937395991e+02 1.463437395937395991e+02 1.463437395937395991e+02 1.463437395937395991e+02 1.463437395937395991e+02 1.463437395937395991e+02 1.463437395937395991e+02 1.463437395937395991e+02 1.463437395937395991e+02 1.463437395937395991e+02
6.840000000000000000e+04 1.463437395937395991e+02 1.463437395937395991e+02 1.463437395937395991e+02 1.463437395937395991e+02 1.463437395937395991e+02 1.463437395937395991e+02 1.463437395937395991e+02 1.463437395937395991e+02 1.463437395937395991e+02 1.463437395937395991e+02 1.463437395937395991e+02 1.463437395937395991e+02 1.463437395937395991e+02 1.463437395937395991e+02
6.840000000000000000e+04 1.469004329004328895e+02 1.469004329004328895e+02 1.469004329004328895e+02 1.469004329004328895e+02 1.469004329004328895e+02 1.469004329004328895e+02 1.469004329004328895e+02 1.469004329004328895e+02 1.469004329004328895e+02 1.469004329004328895e+02 1.469004329004328895e+02 1.469004329004328895e+02 1.469004329004328895e+02 1.469004329004328895e+02
7.200000000000000000e+04 1.469004329004328895e+02 1.469004329004328895e+02 1.469004329004328895e+02 1.469004329004328895e+02 1.469004329004328895e+02 1.469004329004328895e+02 1.469004329004328895e+02 1.469004329004328895e+02 1.469004329004328895e+02 1.469004329004328895e+02 1.469004329004328895e+02 1.469004329004328895e+02 1.469004329004328895e+02 1.469004329004328895e+02
7.200000000000000000e+04 1.460085271870986219e+02 1.460085271870986219e+02 1.460085271870986219e+02 1.460085271870986219e+02 1.460085271870986219e+02 1.460085271870986219e+02 1.460085271870986219e+02 1.460085271870986219e+02 1.460085271870986219e+02 1.460085271870986219e+02 1.460085271870986219e+02 1.460085271870986219e+02 1.460085271870986219e+02 1.460085271870986219e+02
7.560000000000000000e+04 1.460085271870986219e+02 1.460085271870986219e+02 1.460085271870986219e+02 1.460085271870986219e+02 1.460085271870986219e+02 1.460085271870986219e+02 1.460085271870986219e+02 1.460085271870986219e+02 1.460085271870986219e+02 1.460085271870986219e+02 1.460085271870986219e+02 1.460085271870986219e+02 1.460085271870986219e+02 1.460085271870986219e+02
7.560000000000000000e+04 1.397696945911231410e+02 1.397696945911231410e+02 1.397696945911231410e+02 1.397696945911231410e+02 1.397696945911231410e+02 1.397696945911231410e+02 1.397696945911231410e+02 1.397696945911231410e+02 1.397696945911231410e+02 1.397696945911231410e+02 1.397696945911231410e+02 1.397696945911231410e+02 1.397696945911231410e+02 1.397696945911231410e+02
7.920000000000000000e+04 1.397696945911231410e+02 1.397696945911231410e+02 1.397696945911231410e+02 1.397696945911231410e+02 1.397696945911231410e+02 1.397696945911231410e+02 1.397696945911231410e+02 1.397696945911231410e+02 1.397696945911231410e+02 1.397696945911231410e+02 1.397696945911231410e+02 1.397696945911231410e+02 1.397696945911231410e+02 1.397696945911231410e+02
7.920000000000000000e+04 1.472770562770562890e+02 1.472770562770562890e+02 1.472770562770562890e+02 1.472770562770562890e+02 1.472770562770562890e+02 1.472770562770562890e+02 1.472770562770562890e+02 1.472770562770562890e+02 1.472770562770562890e+02 1.472770562770562890e+02 1.472770562770562890e+02 1.472770562770562890e+02 1.472770562770562890e+02 1.472770562770562890e+02
8.280000000000000000e+04 1.472770562770562890e+02 1.472770562770562890e+02 1.472770562770562890e+02 1.472770562770562890e+02 1.472770562770562890e+02 1.472770562770562890e+02 1.472770562770562890e+02 1.472770562770562890e+02 1.472770562770562890e+02 1.472770562770562890e+02 1.472770562770562890e+02 1.472770562770562890e+02 1.472770562770562890e+02 1.472770562770562890e+02
8.280000000000000000e+04 1.396182864754293291e+02 1.396182864754293291e+02 1.396182864754293291e+02 1.396182864754293291e+02 1.396182864754293291e+02 1.396182864754293291e+02 1.396182864754293291e+02 1.396182864754293291e+02 1.396182864754293291e+02 1.396182864754293291e+02 1.396182864754293291e+02 1.396182864754293291e+02 1.396182864754293291e+02 1.396182864754293291e+02
8.640000000000000000e+04 1.396182864754293291e+02 1.396182864754293291e+02 1.396182864754293291e+02 1.396182864754293291e+02 1.396182864754293291e+02 1.396182864754293291e+02 1.396182864754293291e+02 1.396182864754293291e+02 1.396182864754293291e+02 1.396182864754293291e+02 1.396182864754293291e+02 1.396182864754293291e+02 1.396182864754293291e+02 1.396182864754293291e+02
