#1
double table(48,15)
0.000000000000000000e+00 3.599999999999999867e-01 4.565217391304347561e-01 4.565217391304347561e-01 4.565217391304347561e-01 4.782608695652174058e-01 3.605769230769230727e-01 3.605769230769230727e-01 3.599999999999999867e-01 4.565217391304347561e-01 4.565217391304347561e-01 4.565217391304347561e-01 4.782608695652174058e-01 3.605769230769230727e-01 3.605769230769230727e-01
3.600000000000000000e+03 3.599999999999999867e-01 4.565217391304347561e-01 4.565217391304347561e-01 4.565217391304347561e-01 4.782608695652174058e-01 3.605769230769230727e-01 3.605769230769230727e-01 3.599999999999999867e-01 4.565217391304347561e-01 4.565217391304347561e-01 4.565217391304347561e-01 4.782608695652174058e-01 3.605769230769230727e-01 3.605769230769230727e-01
3.600000000000000000e+03 2.800000000000000266e-01 3.985507246376811530e-01 3.985507246376811530e-01 3.985507246376811530e-01 3.478260869565217295e-01 3.028846153846154188e-01 3.028846153846154188e-01 2.800000000000000266e-01 3.985507246376811530e-01 3.985507246376811530e-01 3.985507246376811530e-01 3.478260869565217295e-01 3.028846153846154188e-01 3.028846153846154188e-01
7.200000000000000000e+03 2.800000000000000266e-01 3.985507246376811530e-01 3.985507246376811530e-01 3.985507246376811530e-01 3.478260869565217295e-01 3.028846153846154188e-01 3.028846153846154188e-01 2.800000000000000266e-01 3.985507246376811530e-01 3.985507246376811530e-01 3.985507246376811530e-01 3.478260869565217295e-01 3.028846153846154188e-01 3.028846153846154188e-01
7.200000000000000000e+03 4.400000000000000022e-01 4.293478260869565410e-01 4.293478260869565410e-01 4.293478260869565410e-01 4.347826086956521618e-01 3.798076923076922906e-01 3.798076923076922906e-01 4.400000000000000022e-01 4.293478260869565410e-01 4.293478260869565410e-01 4.293478260869565410e-01 4.347826086956521618e-01 3.798076923076922906e-01 3.798076923076922906e-01
1.080000000000000000e+04 4.400000000000000022e-01 4.293478260869565410e-01 4.293478260869565410e-01 4.293478260869565410e-01 4.347826086956521618e-01 3.798076923076922906e-01 3.798076923076922906e-01 4.400000000000000022e-01 4.293478260869565410e-01 4.293478260869565410e-01 4.293478260869565410e-01 4.347826086956521618e-01 3.798076923076922906e-01 3.798076923076922906e-01
1.080000000000000000e+04 2.800000000000000266e-01 4.130434782608695676e-01 4.130434782608695676e-01 4.130434782608695676e-01 5.217391304347825942e-01 3.205128205128204844e-01 3.205128205128204844e-01 2.800000000000000266e-01 4.130434782608695676e-01 4.130434782608695676e-01 4.130434782608695676e-01 5.217391304347825942e-01 3.205128205128204844e-01 3.205128205128204844e-01
1.440000000000000000e+04 2.800000000000000266e-01 4.130434782608695676e-01 4.130434782608695676e-01 4.130434782608695676e-01 5.217391304347825942e-01 3.205128205128204844e-01 3.205128205128204844e-01 2.800000000000000266e-01 4.130434782608695676e-01 4.130434782608695676e-01 4.130434782608695676e-01 5.217391304347825942e-01 3.205128205128204844e-01 3.205128205128204844e-01
1.440000000000000000e+04 3.200000000000000067e-01 4.993961352657005359e-01 4.993961352657005359e-01 4.993961352657005359e-01 3.913043478260869734e-01 3.012820512820512664e-01 3.012820512820512664e-01 3.200000000000000067e-01 4.993961352657005359e-01 4.993961352657005359e-01 4.993961352657005359e-01 3.913043478260869734e-01 3.012820512820512664e-01 3.012820512820512664e-01
1.800000000000000000e+04 3.200000000000000067e-01 4.993961352657005359e-01 4.993961352657005359e-01 4.993961352657005359e-01 3.913043478260869734e-01 3.012820512820512664e-01 3.012820512820512664e-01 3.200000000000000067e-01 4.993961352657005359e-01 4.993961352657005359e-01 4.993961352657005359e-01 3.913043478260869734e-01 3.012820512820512664e-01 3.012820512820512664e-01
1.800000000000000000e+04 3.599999999999999867e-01 4.287439613526569659e-01 4.287439613526569659e-01 4.287439613526569659e-01 2.157826086956521863e+02 3.205128205128204844e-01 3.205128205128204844e-01 3.599999999999999867e-01 4.287439613526569659e-01 4.287439613526569659e-01 4.287439613526569659e-01 2.157826086956521863e+02 3.205128205128204844e-01 3.205128205128204844e-01
2.160000000000000000e+04 3.599999999999999867e-01 4.287439613526569659e-01 4.287439613526569659e-01 4.287439613526569659e-01 2.157826086956521863e+02 3.205128205128204844e-01 3.205128205128204844e-01 3.599999999999999867e-01 4.287439613526569659e-01 4.287439613526569659e-01 4.287439613526569659e-01 2.157826086956521863e+02 3.205128205128204844e-01 3.205128205128204844e-01
2.160000000000000000e+04 2.399999999999999911e-01 2.585721892841457930e+02 2.585721892841457930e+02 2.585721892841457930e+02 6.273478260869565020e+02 3.676378205128204968e+02 3.676378205128204968e+02 2.399999999999999911e-01 2.585721892841457930e+02 2.585721892841457930e+02 2.585721892841457930e+02 6.273478260869565020e+02 3.676378205128204968e+02 3.676378205128204968e+02
2.520000000000000000e+04 2.399999999999999911e-01 2.585721892841457930e+02 2.585721892841457930e+02 2.585721892841457930e+02 6.273478260869565020e+02 3.676378205128204968e+02 3.676378205128204968e+02 2.399999999999999911e-01 2.585721892841457930e+02 2.585721892841457930e+02 2.585721892841457930e+02 6.273478260869565020e+02 3.676378205128204968e+02 3.676378205128204968e+02
2.520000000000000000e+04 1.844399999999999977e+02 6.201912604303907983e+02 6.201912604303907983e+02 6.201912604303907983e+02 4.681739130434782510e+02 5.783285256410256352e+02 5.783285256410256352e+02 1.844399999999999977e+02 6.201912604303907983e+02 6.201912604303907983e+02 6.201912604303907983e+02 4.681739130434782510e+02 5.783285256410256352e+02 5.783285256410256352e+02
2.880000000000000000e+04 1.844399999999999977e+02 6.201912604303907983e+02 6.201912604303907983e+02 6.201912604303907983e+02 4.681739130434782510e+02 5.783285256410256352e+02 5.783285256410256352e+02 1.844399999999999977e+02 6.201912604303907983e+02 6.201912604303907983e+02 6.201912604303907983e+02 4.681739130434782510e+02 5.783285256410256352e+02 5.783285256410256352e+02
2.880000000000000000e+04 7.045199999999999818e+02 5.188568840579710013e+02 5.188568840579710013e+02 5.188568840579710013e+02 4.451739130434782510e+02 5.242804487179487296e+02 5.242804487179487296e+02 7.045199999999999818e+02 5.188568840579710013e+02 5.188568840579710013e+02 5.188568840579710013e+02 4.451739130434782510e+02 5.242804487179487296e+02 5.242804487179487296e+02
3.240000000000000000e+04 7.045199999999999818e+02 5.188568840579710013e+02 5.188568840579710013e+02 5.188568840579710013e+02 4.451739130434782510e+02 5.242804487179487296e+02 5.242804487179487296e+02 7.045199999999999818e+02 5.188568840579710013e+02 5.188568840579710013e+02 5.188568840579710013e+02 4.451739130434782510e+02 5.242804487179487296e+02 5.242804487179487296e+02
3.240000000000000000e+04 4.940799999999999841e+02 5.006738267770876405e+02 5.006738267770876405e+02 5.006738267770876405e+02 4.585217391304348098e+02 4.923700000000000045e+02 4.923700000000000045e+02 4.940799999999999841e+02 5.006738267770876405e+02 5.006738267770876405e+02 5.006738267770876405e+02 4.585217391304348098e+02 4.923700000000000045e+02 4.923700000000000045e+02
3.600000000000000000e+04 4.940799999999999841e+02 5.006738267770876405e+02 5.006738267770876405e+02 5.006738267770876405e+02 4.585217391304348098e+02 4.923700000000000045e+02 4.923700000000000045e+02 4.940799999999999841e+02 5.006738267770876405e+02 5.006738267770876405e+02 5.006738267770876405e+02 4.585217391304348098e+02 4.923700000000000045e+02 4.923700000000000045e+02
3.600000000000000000e+04 4.785199999999999818e+02 5.050553359683794383e+02 5.050553359683794383e+02 5.050553359683794383e+02 4.903478260869565020e+02 4.883961538461538794e+02 4.883961538461538794e+02 4.785199999999999818e+02 5.050553359683794383e+02 5.050553359683794383e+02 5.050553359683794383e+02 4.903478260869565020e+02 4.883961538461538794e+02 4.883961538461538794e+02
3.960000000000000000e+04 4.785199999999999818e+02 5.050553359683794383e+02 5.050553359683794383e+02 5.050553359683794383e+02 4.903478260869565020e+02 4.883961538461538794e+02 4.883961538461538794e+02 4.785199999999999818e+02 5.050553359683794383e+02 5.050553359683794383e+02 5.050553359683794383e+02 4.903478260869565020e+02 4.883961538461538794e+02 4.883961538461538794e+02
3.960000000000000000e+04 4.870799999999999841e+02 5.259974747474748256e+02 5.259974747474748256e+02 5.259974747474748256e+02 4.965652173913043725e+02 5.074776923076923367e+02 5.074776923076923367e+02 4.870799999999999841e+02 5.259974747474748256e+02 5.259974747474748256e+02 5.259974747474748256e+02 4.965652173913043725e+02 5.074776923076923367e+02 5.074776923076923367e+02
4.320000000000000000e+04 4.870799999999999841e+02 5.259974747474748256e+02 5.259974747474748256e+02 5.259974747474748256e+02 4.965652173913043725e+02 5.074776923076923367e+02 5.074776923076923367e+02 4.870799999999999841e+02 5.259974747474748256e+02 5.259974747474748256e+02 5.259974747474748256e+02 4.965652173913043725e+02 5.074776923076923367e+02 5.074776923076923367e+02
4.320000000000000000e+04 5.060400000000000205e+02 5.607979797979797922e+02 5.607979797979797922e+02 5.607979797979797922e+02 5.527826086956521294e+02 5.542984615384615381e+02 5.542984615384615381e+02 5.060400000000000205e+02 5.607979797979797922e+02 5.607979797979797922e+02 5.607979797979797922e+02 5.527826086956521294e+02 5.542984615384615381e+02 5.542984615384615381e+02
4.680000000000000000e+04 5.060400000000000205e+02 5.607979797979797922e+02 5.607979797979797922e+02 5.607979797979797922e+02 5.527826086956521294e+02 5.542984615384615381e+02 5.542984615384615381e+02 5.060400000000000205e+02 5.607979797979797922e+02 5.607979797979797922e+02 5.607979797979797922e+02 5.527826086956521294e+02 5.542984615384615381e+02 5.542984615384615381e+02
4.680000000000000000e+04 4.861999999999999886e+02 5.302941919191919169e+02 5.302941919191919169e+02 5.302941919191919169e+02 5.158695652173912549e+02 5.219115384615383846e+02 5.219115384615383846e+02 4.861999999999999886e+02 5.302941919191919169e+02 5.302941919191919169e+02 5.302941919191919169e+02 5.158695652173912549e+02 5.219115384615383846e+02 5.219115384615383846e+02
5.040000000000000000e+04 4.861999999999999886e+02 5.302941919191919169e+02 5.302941919191919169e+02 5.302941919191919169e+02 5.158695652173912549e+02 5.219115384615383846e+02 5.219115384615383846e+02 4.861999999999999886e+02 5.302941919191919169e+02 5.302941919191919169e+02 5.302941919191919169e+02 5.158695652173912549e+02 5.219115384615383846e+02 5.219115384615383846e+02
5.040000000000000000e+04 4.818799999999999955e+02 5.137424242424241356e+02 5.137424242424241356e+02 5.137424242424241356e+02 5.102173913043478137e+02 5.045115384615384642e+02 5.045115384615384642e+02 4.818799999999999955e+02 5.137424242424241356e+02 5.137424242424241356e+02 5.137424242424241356e+02 5.102173913043478137e+02 5.045115384615384642e+02 5.045115384615384642e+02
5.400000000000000000e+04 4.818799999999999955e+02 5.137424242424241356e+02 5.137424242424241356e+02 5.137424242424241356e+02 5.102173913043478137e+02 5.045115384615384642e+02 5.045115384615384642e+02 4.818799999999999955e+02 5.137424242424241356e+02 5.137424242424241356e+02 5.137424242424241356e+02 5.102173913043478137e+02 5.045115384615384642e+02 5.045115384615384642e+02
5.400000000000000000e+04 4.701600000000000250e+02 4.919924242424242493e+02 4.919924242424242493e+02 4.919924242424242493e+02 4.714782608695651902e+02 4.876046153846153857e+02 4.876046153846153857e+02 4.701600000000000250e+02 4.919924242424242493e+02 4.919924242424242493e+02 4.919924242424242493e+02 4.714782608695651902e+02 4.876046153846153857e+02 4.876046153846153857e+02
5.760000000000000000e+04 4.701600000000000250e+02 4.919924242424242493e+02 4.919924242424242493e+02 4.919924242424242493e+02 4.714782608695651902e+02 4.876046153846153857e+02 4.876046153846153857e+02 4.701600000000000250e+02 4.919924242424242493e+02 4.919924242424242493e+02 4.919924242424242493e+02 4.714782608695651902e+02 4.876046153846153857e+02 4.876046153846153857e+02
5.760000000000000000e+04 4.770400000000000205e+02 4.872301822573561481e+02 4.872301822573561481e+02 4.872301822573561481e+02 4.676956521739130608e+02 4.765723076923076746e+02 4.765723076923076746e+02 4.770400000000000205e+02 4.872301822573561481e+02 4.872301822573561481e+02 4.872301822573561481e+02 4.676956521739130608e+02 4.765723076923076746e+02 4.765723076923076746e+02
6.120000000000000000e+04 4.770400000000000205e+02 4.872301822573561481e+02 4.872301822573561481e+02 4.872301822573561481e+02 4.676956521739130608e+02 4.765723076923076746e+02 4.765723076923076746e+02 4.770400000000000205e+02 4.872301822573561481e+02 4.872301822573561481e+02 4.872301822573561481e+02 4.676956521739130608e+02 4.765723076923076746e+02 4.765723076923076746e+02
6.120000000000000000e+04 4.760833333333333144e+02 4.829779863855951021e+02 4.829779863855951021e+02 4.829779863855951021e+02 4.537500000000000000e+02 4.806376923076923049e+02 4.806376923076923049e+02 4.760833333333333144e+02 4.829779863855951021e+02 4.829779863855951021e+02 4.829779863855951021e+02 4.537500000000000000e+02 4.806376923076923049e+02 4.806376923076923049e+02
6.480000000000000000e+04 4.760833333333333144e+02 4.829779863855951021e+02 4.829779863855951021e+02 4.829779863855951021e+02 4.537500000000000000e+02 4.806376923076923049e+02 4.806376923076923049e+02 4.760833333333333144e+02 4.829779863855951021e+02 4.829779863855951021e+02 4.829779863855951021e+02 4.537500000000000000e+02 4.806376923076923049e+02 4.806376923076923049e+02
6.480000000000000000e+04 1.269166666666666714e+02 4.779677206851119990e+02 4.779677206851119990e+02 4.779677206851119990e+02 4.652916666666666856e+02 4.759223076923076405e+02 4.759223076923076405e+02 1.269166666666666714e+02 4.779677206851119990e+02 4.779677206851119990e+02 4.779677206851119990e+02 4.652916666666666856e+02 4.759223076923076405e+02 4.759223076923076405e+02
6.840000000000000000e+04 1.269166666666666714e+02 4.779677206851119990e+02 4.779677206851119990e+02 4.779677206851119990e+02 4.652916666666666856e+02 4.759223076923076405e+02 4.759223076923076405e+02 1.269166666666666714e+02 4.779677206851119990e+02 4.779677206851119990e+02 4.779677206851119990e+02 4.652916666666666856e+02 4.759223076923076405e+02 4.759223076923076405e+02
6.840000000000000000e+04 4.284000000000000341e+01 4.135501207729468547e+02 4.135501207729468547e+02 4.135501207729468547e+02 4.082916666666666856e+02 4.716430769230769329e+02 4.716430769230769329e+02 4.284000000000000341e+01 4.135501207729468547e+02 4.135501207729468547e+02 4.135501207729468547e+02 4.082916666666666856e+02 4.716430769230769329e+02 4.716430769230769329e+02
7.200000000000000000e+04 4.284000000000000341e+01 4.135501207729468547e+02 4.135501207729468547e+02 4.135501207729468547e+02 4.082916666666666856e+02 4.716430769230769329e+02 4.716430769230769329e+02 4.284000000000000341e+01 4.135501207729468547e+02 4.135501207729468547e+02 4.135501207729468547e+02 4.082916666666666856e+02 4.716430769230769329e+02 4.716430769230769329e+02
7.200000000000000000e+04 7.199999999999999734e-01 1.469589371980676162e+02 1.469589371980676162e+02 1.469589371980676162e+02 1.292500000000000000e+02 3.893553846153846507e+02 3.893553846153846507e+02 7.199999999999999734e-01 1.469589371980676162e+02 1.469589371980676162e+02 1.469589371980676162e+02 1.292500000000000000e+02 3.893553846153846507e+02 3.893553846153846507e+02
7.560000000000000000e+04 7.199999999999999734e-01 1.469589371980676162e+02 1.469589371980676162e+02 1.469589371980676162e+02 1.292500000000000000e+02 3.893553846153846507e+02 3.893553846153846507e+02 7.199999999999999734e-01 1.469589371980676162e+02 1.469589371980676162e+02 1.469589371980676162e+02 1.292500000000000000e+02 3.893553846153846507e+02 3.893553846153846507e+02
7.560000000000000000e+04 6.400000000000000133e-01 5.857487922705314487e-01 5.857487922705314487e-01 5.857487922705314487e-01 4.166666666666666852e-01 8.251923076923077360e+01 8.251923076923077360e+01 6.400000000000000133e-01 5.857487922705314487e-01 5.857487922705314487e-01 5.857487922705314487e-01 4.166666666666666852e-01 8.251923076923077360e+01 8.251923076923077360e+01
7.920000000000000000e+04 6.400000000000000133e-01 5.857487922705314487e-01 5.857487922705314487e-01 5.857487922705314487e-01 4.166666666666666852e-01 8.251923076923077360e+01 8.251923076923077360e+01 6.400000000000000133e-01 5.857487922705314487e-01 5.857487922705314487e-01 5.857487922705314487e-01 4.166666666666666852e-01 8.251923076923077360e+01 8.251923076923077360e+01
7.920000000000000000e+04 3.599999999999999867e-01 3.991545893719806171e-01 3.991545893719806171e-01 3.991545893719806171e-01 3.333333333333333148e-01 1.508461538461538520e+00 1.508461538461538520e+00 3.599999999999999867e-01 3.991545893719806171e-01 3.991545893719806171e-01 3.991545893719806171e-01 3.333333333333333148e-01 1.508461538461538520e+00 1.508461538461538520e+00
8.280000000000000000e+04 3.599999999999999867e-01 3.991545893719806171e-01 3.991545893719806171e-01 3.991545893719806171e-01 3.333333333333333148e-01 1.508461538461538520e+00 1.508461538461538520e+00 3.599999999999999867e-01 3.991545893719806171e-01 3.991545893719806171e-01 3.991545893719806171e-01 3.333333333333333148e-01 1.508461538461538520e+00 1.508461538461538520e+00
8.280000000000000000e+04 4.166666666666666852e-01 4.993961352657004249e-01 4.993961352657004249e-01 4.993961352657004249e-01 2.916666666666666852e-01 2.400000000000000189e-01 2.400000000000000189e-01 4.166666666666666852e-01 4.993961352657004249e-01 4.993961352657004249e-01 4.993961352657004249e-01 2.916666666666666852e-01 2.400000000000000189e-01 2.400000000000000189e-01
8.640000000000000000e+04 4.166666666666666852e-01 4.993961352657004249e-01 4.993961352657004249e-01 4.993961352657004249e-01 2.916666666666666852e-01 2.400000000000000189e-01 2.400000000000000189e-01 4.166666666666666852e-01 4.993961352657004249e-01 4.993961352657004249e-01 4.993961352657004249e-01 2.916666666666666852e-01 2.400000000000000189e-01 2.400000000000000189e-01
