#1
double table(48,15)
0.000000000000000000e+00 3.111004897959184063e+02 3.111004897959184063e+02 3.111004897959184063e+02 3.111004897959184063e+02 3.111004897959184063e+02 3.103725490196078454e+02 3.106078431372549176e+02 3.111004897959184063e+02 3.111004897959184063e+02 3.111004897959184063e+02 3.111004897959184063e+02 3.111004897959184063e+02 3.103725490196078454e+02 3.106078431372549176e+02
3.600000000000000000e+03 3.111004897959184063e+02 3.111004897959184063e+02 3.111004897959184063e+02 3.111004897959184063e+02 3.111004897959184063e+02 3.103725490196078454e+02 3.106078431372549176e+02 3.111004897959184063e+02 3.111004897959184063e+02 3.111004897959184063e+02 3.111004897959184063e+02 3.111004897959184063e+02 3.103725490196078454e+02 3.106078431372549176e+02
3.600000000000000000e+03 3.117372244897958922e+02 3.117372244897958922e+02 3.117372244897958922e+02 3.117372244897958922e+02 3.117372244897958922e+02 3.109215686274509949e+02 3.110980392156862990e+02 3.117372244897958922e+02 3.117372244897958922e+02 3.117372244897958922e+02 3.117372244897958922e+02 3.117372244897958922e+02 3.109215686274509949e+02 3.110980392156862990e+02
7.200000000000000000e+03 3.117372244897958922e+02 3.117372244897958922e+02 3.117372244897958922e+02 3.117372244897958922e+02 3.117372244897958922e+02 3.109215686274509949e+02 3.110980392156862990e+02 3.117372244897958922e+02 3.117372244897958922e+02 3.117372244897958922e+02 3.117372244897958922e+02 3.117372244897958922e+02 3.109215686274509949e+02 3.110980392156862990e+02
7.200000000000000000e+03 3.121537142857142726e+02 3.121537142857142726e+02 3.121537142857142726e+02 3.121537142857142726e+02 3.121537142857142726e+02 3.110980392156862990e+02 3.115490196078431495e+02 3.121537142857142726e+02 3.121537142857142726e+02 3.121537142857142726e+02 3.121537142857142726e+02 3.121537142857142726e+02 3.110980392156862990e+02 3.115490196078431495e+02
1.080000000000000000e+04 3.121537142857142726e+02 3.121537142857142726e+02 3.121537142857142726e+02 3.121537142857142726e+02 3.121537142857142726e+02 3.110980392156862990e+02 3.115490196078431495e+02 3.121537142857142726e+02 3.121537142857142726e+02 3.121537142857142726e+02 3.121537142857142726e+02 3.121537142857142726e+02 3.110980392156862990e+02 3.115490196078431495e+02
1.080000000000000000e+04 3.118683265306123076e+02 3.118683265306123076e+02 3.118683265306123076e+02 3.118683265306123076e+02 3.118683265306123076e+02 3.115098039215686185e+02 3.117450980392156907e+02 3.118683265306123076e+02 3.118683265306123076e+02 3.118683265306123076e+02 3.118683265306123076e+02 3.118683265306123076e+02 3.115098039215686185e+02 3.117450980392156907e+02
1.440000000000000000e+04 3.118683265306123076e+02 3.118683265306123076e+02 3.118683265306123076e+02 3.118683265306123076e+02 3.118683265306123076e+02 3.115098039215686185e+02 3.117450980392156907e+02 3.118683265306123076e+02 3.118683265306123076e+02 3.118683265306123076e+02 3.118683265306123076e+02 3.118683265306123076e+02 3.115098039215686185e+02 3.117450980392156907e+02
1.440000000000000000e+04 3.119242448979591700e+02 3.119242448979591700e+02 3.119242448979591700e+02 3.119242448979591700e+02 3.119242448979591700e+02 3.115882352941176237e+02 3.119607843137254690e+02 3.119242448979591700e+02 3.119242448979591700e+02 3.119242448979591700e+02 3.119242448979591700e+02 3.119242448979591700e+02 3.115882352941176237e+02 3.119607843137254690e+02
1.800000000000000000e+04 3.119242448979591700e+02 3.119242448979591700e+02 3.119242448979591700e+02 3.119242448979591700e+02 3.119242448979591700e+02 3.115882352941176237e+02 3.119607843137254690e+02 3.119242448979591700e+02 3.119242448979591700e+02 3.119242448979591700e+02 3.119242448979591700e+02 3.119242448979591700e+02 3.115882352941176237e+02 3.119607843137254690e+02
1.800000000000000000e+04 3.127354285714285425e+02 3.127354285714285425e+02 3.127354285714285425e+02 3.127354285714285425e+02 3.127354285714285425e+02 3.123137254901960773e+02 3.127647058823529278e+02 3.127354285714285425e+02 3.127354285714285425e+02 3.127354285714285425e+02 3.127354285714285425e+02 3.127354285714285425e+02 3.123137254901960773e+02 3.127647058823529278e+02
2.160000000000000000e+04 3.127354285714285425e+02 3.127354285714285425e+02 3.127354285714285425e+02 3.127354285714285425e+02 3.127354285714285425e+02 3.123137254901960773e+02 3.127647058823529278e+02 3.127354285714285425e+02 3.127354285714285425e+02 3.127354285714285425e+02 3.127354285714285425e+02 3.127354285714285425e+02 3.123137254901960773e+02 3.127647058823529278e+02
2.160000000000000000e+04 3.183684421768707011e+02 3.183684421768707011e+02 3.183684421768707011e+02 3.183684421768707011e+02 3.183684421768707011e+02 3.203333333333333144e+02 3.100784313725490051e+02 3.183684421768707011e+02 3.183684421768707011e+02 3.183684421768707011e+02 3.183684421768707011e+02 3.183684421768707011e+02 3.203333333333333144e+02 3.100784313725490051e+02
2.520000000000000000e+04 3.183684421768707011e+02 3.183684421768707011e+02 3.183684421768707011e+02 3.183684421768707011e+02 3.183684421768707011e+02 3.203333333333333144e+02 3.100784313725490051e+02 3.183684421768707011e+02 3.183684421768707011e+02 3.183684421768707011e+02 3.183684421768707011e+02 3.183684421768707011e+02 3.203333333333333144e+02 3.100784313725490051e+02
2.520000000000000000e+04 3.352943503401360203e+02 3.352943503401360203e+02 3.352943503401360203e+02 3.352943503401360203e+02 3.352943503401360203e+02 3.368039215686274588e+02 3.126078431372549176e+02 3.352943503401360203e+02 3.352943503401360203e+02 3.352943503401360203e+02 3.352943503401360203e+02 3.352943503401360203e+02 3.368039215686274588e+02 3.126078431372549176e+02
2.880000000000000000e+04 3.352943503401360203e+02 3.352943503401360203e+02 3.352943503401360203e+02 3.352943503401360203e+02 3.352943503401360203e+02 3.368039215686274588e+02 3.126078431372549176e+02 3.352943503401360203e+02 3.352943503401360203e+02 3.352943503401360203e+02 3.352943503401360203e+02 3.352943503401360203e+02 3.368039215686274588e+02 3.126078431372549176e+02
2.880000000000000000e+04 3.335598299319727857e+02 3.335598299319727857e+02 3.335598299319727857e+02 3.335598299319727857e+02 3.335598299319727857e+02 3.335490196078431495e+02 3.334117647058823763e+02 3.335598299319727857e+02 3.335598299319727857e+02 3.335598299319727857e+02 3.335598299319727857e+02 3.335598299319727857e+02 3.335490196078431495e+02 3.334117647058823763e+02
3.240000000000000000e+04 3.335598299319727857e+02 3.335598299319727857e+02 3.335598299319727857e+02 3.335598299319727857e+02 3.335598299319727857e+02 3.335490196078431495e+02 3.334117647058823763e+02 3.335598299319727857e+02 3.335598299319727857e+02 3.335598299319727857e+02 3.335598299319727857e+02 3.335598299319727857e+02 3.335490196078431495e+02 3.334117647058823763e+02
3.240000000000000000e+04 3.319856154887487492e+02 3.319856154887487492e+02 3.319856154887487492e+02 3.319856154887487492e+02 3.319856154887487492e+02 3.320588235294117680e+02 3.320392156862745310e+02 3.319856154887487492e+02 3.319856154887487492e+02 3.319856154887487492e+02 3.319856154887487492e+02 3.319856154887487492e+02 3.320588235294117680e+02 3.320392156862745310e+02
3.600000000000000000e+04 3.319856154887487492e+02 3.319856154887487492e+02 3.319856154887487492e+02 3.319856154887487492e+02 3.319856154887487492e+02 3.320588235294117680e+02 3.320392156862745310e+02 3.319856154887487492e+02 3.319856154887487492e+02 3.319856154887487492e+02 3.319856154887487492e+02 3.319856154887487492e+02 3.320588235294117680e+02 3.320392156862745310e+02
3.600000000000000000e+04 3.315566484593837799e+02 3.315566484593837799e+02 3.315566484593837799e+02 3.315566484593837799e+02 3.315566484593837799e+02 3.312352941176470722e+02 3.314705882352941444e+02 3.315566484593837799e+02 3.315566484593837799e+02 3.315566484593837799e+02 3.315566484593837799e+02 3.315566484593837799e+02 3.312352941176470722e+02 3.314705882352941444e+02
3.960000000000000000e+04 3.315566484593837799e+02 3.315566484593837799e+02 3.315566484593837799e+02 3.315566484593837799e+02 3.315566484593837799e+02 3.312352941176470722e+02 3.314705882352941444e+02 3.315566484593837799e+02 3.315566484593837799e+02 3.315566484593837799e+02 3.315566484593837799e+02 3.315566484593837799e+02 3.312352941176470722e+02 3.314705882352941444e+02
3.960000000000000000e+04 3.315930006002401456e+02 3.315930006002401456e+02 3.315930006002401456e+02 3.315930006002401456e+02 3.315930006002401456e+02 3.310196078431372371e+02 3.315882352941176237e+02 3.315930006002401456e+02 3.315930006002401456e+02 3.315930006002401456e+02 3.315930006002401456e+02 3.315930006002401456e+02 3.310196078431372371e+02 3.315882352941176237e+02
4.320000000000000000e+04 3.315930006002401456e+02 3.315930006002401456e+02 3.315930006002401456e+02 3.315930006002401456e+02 3.315930006002401456e+02 3.310196078431372371e+02 3.315882352941176237e+02 3.315930006002401456e+02 3.315930006002401456e+02 3.315930006002401456e+02 3.315930006002401456e+02 3.315930006002401456e+02 3.310196078431372371e+02 3.315882352941176237e+02
4.320000000000000000e+04 3.315994849939976348e+02 3.315994849939976348e+02 3.315994849939976348e+02 3.315994849939976348e+02 3.315994849939976348e+02 3.310784313725490051e+02 3.319215686274509949e+02 3.315994849939976348e+02 3.315994849939976348e+02 3.315994849939976348e+02 3.315994849939976348e+02 3.315994849939976348e+02 3.310784313725490051e+02 3.319215686274509949e+02
4.680000000000000000e+04 3.315994849939976348e+02 3.315994849939976348e+02 3.315994849939976348e+02 3.315994849939976348e+02 3.315994849939976348e+02 3.310784313725490051e+02 3.319215686274509949e+02 3.315994849939976348e+02 3.315994849939976348e+02 3.315994849939976348e+02 3.315994849939976348e+02 3.315994849939976348e+02 3.310784313725490051e+02 3.319215686274509949e+02
4.680000000000000000e+04 3.313473443377350804e+02 3.313473443377350804e+02 3.313473443377350804e+02 3.313473443377350804e+02 3.313473443377350804e+02 3.309411764705882320e+02 3.318039215686274588e+02 3.313473443377350804e+02 3.313473443377350804e+02 3.313473443377350804e+02 3.313473443377350804e+02 3.313473443377350804e+02 3.309411764705882320e+02 3.318039215686274588e+02
5.040000000000000000e+04 3.313473443377350804e+02 3.313473443377350804e+02 3.313473443377350804e+02 3.313473443377350804e+02 3.313473443377350804e+02 3.309411764705882320e+02 3.318039215686274588e+02 3.313473443377350804e+02 3.313473443377350804e+02 3.313473443377350804e+02 3.313473443377350804e+02 3.313473443377350804e+02 3.309411764705882320e+02 3.318039215686274588e+02
5.040000000000000000e+04 3.313290076030412479e+02 3.313290076030412479e+02 3.313290076030412479e+02 3.313290076030412479e+02 3.313290076030412479e+02 3.310588235294117680e+02 3.315098039215686185e+02 3.313290076030412479e+02 3.313290076030412479e+02 3.313290076030412479e+02 3.313290076030412479e+02 3.313290076030412479e+02 3.310588235294117680e+02 3.315098039215686185e+02
5.400000000000000000e+04 3.313290076030412479e+02 3.313290076030412479e+02 3.313290076030412479e+02 3.313290076030412479e+02 3.313290076030412479e+02 3.310588235294117680e+02 3.315098039215686185e+02 3.313290076030412479e+02 3.313290076030412479e+02 3.313290076030412479e+02 3.313290076030412479e+02 3.313290076030412479e+02 3.310588235294117680e+02 3.315098039215686185e+02
5.400000000000000000e+04 3.313912342937175026e+02 3.313912342937175026e+02 3.313912342937175026e+02 3.313912342937175026e+02 3.313912342937175026e+02 3.313529411764706083e+02 3.313529411764706083e+02 3.313912342937175026e+02 3.313912342937175026e+02 3.313912342937175026e+02 3.313912342937175026e+02 3.313912342937175026e+02 3.313529411764706083e+02 3.313529411764706083e+02
5.760000000000000000e+04 3.313912342937175026e+02 3.313912342937175026e+02 3.313912342937175026e+02 3.313912342937175026e+02 3.313912342937175026e+02 3.313529411764706083e+02 3.313529411764706083e+02 3.313912342937175026e+02 3.313912342937175026e+02 3.313912342937175026e+02 3.313912342937175026e+02 3.313912342937175026e+02 3.313529411764706083e+02 3.313529411764706083e+02
5.760000000000000000e+04 3.317663313325330137e+02 3.317663313325330137e+02 3.317663313325330137e+02 3.317663313325330137e+02 3.317663313325330137e+02 3.315686274509803866e+02 3.319215686274509949e+02 3.317663313325330137e+02 3.317663313325330137e+02 3.317663313325330137e+02 3.317663313325330137e+02 3.317663313325330137e+02 3.315686274509803866e+02 3.319215686274509949e+02
6.120000000000000000e+04 3.317663313325330137e+02 3.317663313325330137e+02 3.317663313325330137e+02 3.317663313325330137e+02 3.317663313325330137e+02 3.315686274509803866e+02 3.319215686274509949e+02 3.317663313325330137e+02 3.317663313325330137e+02 3.317663313325330137e+02 3.317663313325330137e+02 3.317663313325330137e+02 3.315686274509803866e+02 3.319215686274509949e+02
6.120000000000000000e+04 3.333112915166066159e+02 3.333112915166066159e+02 3.333112915166066159e+02 3.333112915166066159e+02 3.333112915166066159e+02 3.327647058823529278e+02 3.332400000000000091e+02 3.333112915166066159e+02 3.333112915166066159e+02 3.333112915166066159e+02 3.333112915166066159e+02 3.333112915166066159e+02 3.327647058823529278e+02 3.332400000000000091e+02
6.480000000000000000e+04 3.333112915166066159e+02 3.333112915166066159e+02 3.333112915166066159e+02 3.333112915166066159e+02 3.333112915166066159e+02 3.327647058823529278e+02 3.332400000000000091e+02 3.333112915166066159e+02 3.333112915166066159e+02 3.333112915166066159e+02 3.333112915166066159e+02 3.333112915166066159e+02 3.327647058823529278e+02 3.332400000000000091e+02
6.480000000000000000e+04 3.386750162064825531e+02 3.386750162064825531e+02 3.386750162064825531e+02 3.386750162064825531e+02 3.386750162064825531e+02 3.380980392156862990e+02 3.381200000000000045e+02 3.386750162064825531e+02 3.386750162064825531e+02 3.386750162064825531e+02 3.386750162064825531e+02 3.386750162064825531e+02 3.380980392156862990e+02 3.381200000000000045e+02
6.840000000000000000e+04 3.386750162064825531e+02 3.386750162064825531e+02 3.386750162064825531e+02 3.386750162064825531e+02 3.386750162064825531e+02 3.380980392156862990e+02 3.381200000000000045e+02 3.386750162064825531e+02 3.386750162064825531e+02 3.386750162064825531e+02 3.386750162064825531e+02 3.386750162064825531e+02 3.380980392156862990e+02 3.381200000000000045e+02
6.840000000000000000e+04 3.370304361744697985e+02 3.370304361744697985e+02 3.370304361744697985e+02 3.370304361744697985e+02 3.370304361744697985e+02 3.373921568627450824e+02 3.055686274509803866e+02 3.370304361744697985e+02 3.370304361744697985e+02 3.370304361744697985e+02 3.370304361744697985e+02 3.370304361744697985e+02 3.373921568627450824e+02 3.055686274509803866e+02
7.200000000000000000e+04 3.370304361744697985e+02 3.370304361744697985e+02 3.370304361744697985e+02 3.370304361744697985e+02 3.370304361744697985e+02 3.373921568627450824e+02 3.055686274509803866e+02 3.370304361744697985e+02 3.370304361744697985e+02 3.370304361744697985e+02 3.370304361744697985e+02 3.370304361744697985e+02 3.373921568627450824e+02 3.055686274509803866e+02
7.200000000000000000e+04 3.389638783513405542e+02 3.389638783513405542e+02 3.389638783513405542e+02 3.389638783513405542e+02 3.389638783513405542e+02 3.403921568627450824e+02 3.087843137254902217e+02 3.389638783513405542e+02 3.389638783513405542e+02 3.389638783513405542e+02 3.389638783513405542e+02 3.389638783513405542e+02 3.403921568627450824e+02 3.087843137254902217e+02
7.560000000000000000e+04 3.389638783513405542e+02 3.389638783513405542e+02 3.389638783513405542e+02 3.389638783513405542e+02 3.389638783513405542e+02 3.403921568627450824e+02 3.087843137254902217e+02 3.389638783513405542e+02 3.389638783513405542e+02 3.389638783513405542e+02 3.389638783513405542e+02 3.389638783513405542e+02 3.403921568627450824e+02 3.087843137254902217e+02
7.560000000000000000e+04 3.261246802721088329e+02 3.261246802721088329e+02 3.261246802721088329e+02 3.261246802721088329e+02 3.261246802721088329e+02 3.466666666666666856e+02 3.196274509803921546e+02 3.261246802721088329e+02 3.261246802721088329e+02 3.261246802721088329e+02 3.261246802721088329e+02 3.261246802721088329e+02 3.466666666666666856e+02 3.196274509803921546e+02
7.920000000000000000e+04 3.261246802721088329e+02 3.261246802721088329e+02 3.261246802721088329e+02 3.261246802721088329e+02 3.261246802721088329e+02 3.466666666666666856e+02 3.196274509803921546e+02 3.261246802721088329e+02 3.261246802721088329e+02 3.261246802721088329e+02 3.261246802721088329e+02 3.261246802721088329e+02 3.466666666666666856e+02 3.196274509803921546e+02
7.920000000000000000e+04 3.124290788315325926e+02 3.124290788315325926e+02 3.124290788315325926e+02 3.124290788315325926e+02 3.124290788315325926e+02 3.120784313725490051e+02 3.117843137254902217e+02 3.124290788315325926e+02 3.124290788315325926e+02 3.124290788315325926e+02 3.124290788315325926e+02 3.124290788315325926e+02 3.120784313725490051e+02 3.117843137254902217e+02
8.280000000000000000e+04 3.124290788315325926e+02 3.124290788315325926e+02 3.124290788315325926e+02 3.124290788315325926e+02 3.124290788315325926e+02 3.120784313725490051e+02 3.117843137254902217e+02 3.124290788315325926e+02 3.124290788315325926e+02 3.124290788315325926e+02 3.124290788315325926e+02 3.124290788315325926e+02 3.120784313725490051e+02 3.117843137254902217e+02
8.280000000000000000e+04 3.097801072428972020e+02 3.097801072428972020e+02 3.097801072428972020e+02 3.097801072428972020e+02 3.097801072428972020e+02 3.091800000000000068e+02 3.098000000000000114e+02 3.097801072428972020e+02 3.097801072428972020e+02 3.097801072428972020e+02 3.097801072428972020e+02 3.097801072428972020e+02 3.091800000000000068e+02 3.098000000000000114e+02
8.640000000000000000e+04 3.097801072428972020e+02 3.097801072428972020e+02 3.097801072428972020e+02 3.097801072428972020e+02 3.097801072428972020e+02 3.091800000000000068e+02 3.098000000000000114e+02 3.097801072428972020e+02 3.097801072428972020e+02 3.097801072428972020e+02 3.097801072428972020e+02 3.097801072428972020e+02 3.091800000000000068e+02 3.098000000000000114e+02
