#1
double table(48,15)
0.000000000000000000e+00 3.589069685016863787e+01 3.589069685016863787e+01 3.589069685016863787e+01 3.589069685016863787e+01 3.589069685016863787e+01 3.589069685016863787e+01 3.589069685016863787e+01 3.589069685016863787e+01 3.589069685016863787e+01 3.589069685016863787e+01 3.589069685016863787e+01 3.589069685016863787e+01 3.589069685016863787e+01 3.589069685016863787e+01
3.600000000000000000e+03 3.589069685016863787e+01 3.589069685016863787e+01 3.589069685016863787e+01 3.589069685016863787e+01 3.589069685016863787e+01 3.589069685016863787e+01 3.589069685016863787e+01 3.589069685016863787e+01 3.589069685016863787e+01 3.589069685016863787e+01 3.589069685016863787e+01 3.589069685016863787e+01 3.589069685016863787e+01 3.589069685016863787e+01
3.600000000000000000e+03 3.606846167038244033e+01 3.606846167038244033e+01 3.606846167038244033e+01 3.606846167038244033e+01 3.606846167038244033e+01 3.606846167038244033e+01 3.606846167038244033e+01 3.606846167038244033e+01 3.606846167038244033e+01 3.606846167038244033e+01 3.606846167038244033e+01 3.606846167038244033e+01 3.606846167038244033e+01 3.606846167038244033e+01
7.200000000000000000e+03 3.606846167038244033e+01 3.606846167038244033e+01 3.606846167038244033e+01 3.606846167038244033e+01 3.606846167038244033e+01 3.606846167038244033e+01 3.606846167038244033e+01 3.606846167038244033e+01 3.606846167038244033e+01 3.606846167038244033e+01 3.606846167038244033e+01 3.606846167038244033e+01 3.606846167038244033e+01 3.606846167038244033e+01
7.200000000000000000e+03 3.613705139198536642e+01 3.613705139198536642e+01 3.613705139198536642e+01 3.613705139198536642e+01 3.613705139198536642e+01 3.613705139198536642e+01 3.613705139198536642e+01 3.613705139198536642e+01 3.613705139198536642e+01 3.613705139198536642e+01 3.613705139198536642e+01 3.613705139198536642e+01 3.613705139198536642e+01 3.613705139198536642e+01
1.080000000000000000e+04 3.613705139198536642e+01 3.613705139198536642e+01 3.613705139198536642e+01 3.613705139198536642e+01 3.613705139198536642e+01 3.613705139198536642e+01 3.613705139198536642e+01 3.613705139198536642e+01 3.613705139198536642e+01 3.613705139198536642e+01 3.613705139198536642e+01 3.613705139198536642e+01 3.613705139198536642e+01 3.613705139198536642e+01
1.080000000000000000e+04 3.614842622763391233e+01 3.614842622763391233e+01 3.614842622763391233e+01 3.614842622763391233e+01 3.614842622763391233e+01 3.614842622763391233e+01 3.614842622763391233e+01 3.614842622763391233e+01 3.614842622763391233e+01 3.614842622763391233e+01 3.614842622763391233e+01 3.614842622763391233e+01 3.614842622763391233e+01 3.614842622763391233e+01
1.440000000000000000e+04 3.614842622763391233e+01 3.614842622763391233e+01 3.614842622763391233e+01 3.614842622763391233e+01 3.614842622763391233e+01 3.614842622763391233e+01 3.614842622763391233e+01 3.614842622763391233e+01 3.614842622763391233e+01 3.614842622763391233e+01 3.614842622763391233e+01 3.614842622763391233e+01 3.614842622763391233e+01 3.614842622763391233e+01
1.440000000000000000e+04 3.617151660664266188e+01 3.617151660664266188e+01 3.617151660664266188e+01 3.617151660664266188e+01 3.617151660664266188e+01 3.617151660664266188e+01 3.617151660664266188e+01 3.617151660664266188e+01 3.617151660664266188e+01 3.617151660664266188e+01 3.617151660664266188e+01 3.617151660664266188e+01 3.617151660664266188e+01 3.617151660664266188e+01
1.800000000000000000e+04 3.617151660664266188e+01 3.617151660664266188e+01 3.617151660664266188e+01 3.617151660664266188e+01 3.617151660664266188e+01 3.617151660664266188e+01 3.617151660664266188e+01 3.617151660664266188e+01 3.617151660664266188e+01 3.617151660664266188e+01 3.617151660664266188e+01 3.617151660664266188e+01 3.617151660664266188e+01 3.617151660664266188e+01
1.800000000000000000e+04 3.593836506030984168e+01 3.593836506030984168e+01 3.593836506030984168e+01 3.593836506030984168e+01 3.593836506030984168e+01 3.593836506030984168e+01 3.593836506030984168e+01 3.593836506030984168e+01 3.593836506030984168e+01 3.593836506030984168e+01 3.593836506030984168e+01 3.593836506030984168e+01 3.593836506030984168e+01 3.593836506030984168e+01
2.160000000000000000e+04 3.593836506030984168e+01 3.593836506030984168e+01 3.593836506030984168e+01 3.593836506030984168e+01 3.593836506030984168e+01 3.593836506030984168e+01 3.593836506030984168e+01 3.593836506030984168e+01 3.593836506030984168e+01 3.593836506030984168e+01 3.593836506030984168e+01 3.593836506030984168e+01 3.593836506030984168e+01 3.593836506030984168e+01
2.160000000000000000e+04 3.496925484479505997e+01 3.496925484479505997e+01 3.496925484479505997e+01 3.496925484479505997e+01 3.496925484479505997e+01 3.496925484479505997e+01 3.496925484479505997e+01 3.496925484479505997e+01 3.496925484479505997e+01 3.496925484479505997e+01 3.496925484479505997e+01 3.496925484479505997e+01 3.496925484479505997e+01 3.496925484479505997e+01
2.520000000000000000e+04 3.496925484479505997e+01 3.496925484479505997e+01 3.496925484479505997e+01 3.496925484479505997e+01 3.496925484479505997e+01 3.496925484479505997e+01 3.496925484479505997e+01 3.496925484479505997e+01 3.496925484479505997e+01 3.496925484479505997e+01 3.496925484479505997e+01 3.496925484479505997e+01 3.496925484479505997e+01 3.496925484479505997e+01
2.520000000000000000e+04 3.410529354598982366e+01 3.410529354598982366e+01 3.410529354598982366e+01 3.410529354598982366e+01 3.410529354598982366e+01 3.410529354598982366e+01 3.410529354598982366e+01 3.410529354598982366e+01 3.410529354598982366e+01 3.410529354598982366e+01 3.410529354598982366e+01 3.410529354598982366e+01 3.410529354598982366e+01 3.410529354598982366e+01
2.880000000000000000e+04 3.410529354598982366e+01 3.410529354598982366e+01 3.410529354598982366e+01 3.410529354598982366e+01 3.410529354598982366e+01 3.410529354598982366e+01 3.410529354598982366e+01 3.410529354598982366e+01 3.410529354598982366e+01 3.410529354598982366e+01 3.410529354598982366e+01 3.410529354598982366e+01 3.410529354598982366e+01 3.410529354598982366e+01
2.880000000000000000e+04 3.359507803121248060e+01 3.359507803121248060e+01 3.359507803121248060e+01 3.359507803121248060e+01 3.359507803121248060e+01 3.359507803121248060e+01 3.359507803121248060e+01 3.359507803121248060e+01 3.359507803121248060e+01 3.359507803121248060e+01 3.359507803121248060e+01 3.359507803121248060e+01 3.359507803121248060e+01 3.359507803121248060e+01
3.240000000000000000e+04 3.359507803121248060e+01 3.359507803121248060e+01 3.359507803121248060e+01 3.359507803121248060e+01 3.359507803121248060e+01 3.359507803121248060e+01 3.359507803121248060e+01 3.359507803121248060e+01 3.359507803121248060e+01 3.359507803121248060e+01 3.359507803121248060e+01 3.359507803121248060e+01 3.359507803121248060e+01 3.359507803121248060e+01
3.240000000000000000e+04 3.351471435990809766e+01 3.351471435990809766e+01 3.351471435990809766e+01 3.351471435990809766e+01 3.351471435990809766e+01 3.351471435990809766e+01 3.351471435990809766e+01 3.351471435990809766e+01 3.351471435990809766e+01 3.351471435990809766e+01 3.351471435990809766e+01 3.351471435990809766e+01 3.351471435990809766e+01 3.351471435990809766e+01
3.600000000000000000e+04 3.351471435990809766e+01 3.351471435990809766e+01 3.351471435990809766e+01 3.351471435990809766e+01 3.351471435990809766e+01 3.351471435990809766e+01 3.351471435990809766e+01 3.351471435990809766e+01 3.351471435990809766e+01 3.351471435990809766e+01 3.351471435990809766e+01 3.351471435990809766e+01 3.351471435990809766e+01 3.351471435990809766e+01
3.600000000000000000e+04 3.385723303607156964e+01 3.385723303607156964e+01 3.385723303607156964e+01 3.385723303607156964e+01 3.385723303607156964e+01 3.385723303607156964e+01 3.385723303607156964e+01 3.385723303607156964e+01 3.385723303607156964e+01 3.385723303607156964e+01 3.385723303607156964e+01 3.385723303607156964e+01 3.385723303607156964e+01 3.385723303607156964e+01
3.960000000000000000e+04 3.385723303607156964e+01 3.385723303607156964e+01 3.385723303607156964e+01 3.385723303607156964e+01 3.385723303607156964e+01 3.385723303607156964e+01 3.385723303607156964e+01 3.385723303607156964e+01 3.385723303607156964e+01 3.385723303607156964e+01 3.385723303607156964e+01 3.385723303607156964e+01 3.385723303607156964e+01 3.385723303607156964e+01
3.960000000000000000e+04 3.467856614074201360e+01 3.467856614074201360e+01 3.467856614074201360e+01 3.467856614074201360e+01 3.467856614074201360e+01 3.467856614074201360e+01 3.467856614074201360e+01 3.467856614074201360e+01 3.467856614074201360e+01 3.467856614074201360e+01 3.467856614074201360e+01 3.467856614074201360e+01 3.467856614074201360e+01 3.467856614074201360e+01
4.320000000000000000e+04 3.467856614074201360e+01 3.467856614074201360e+01 3.467856614074201360e+01 3.467856614074201360e+01 3.467856614074201360e+01 3.467856614074201360e+01 3.467856614074201360e+01 3.467856614074201360e+01 3.467856614074201360e+01 3.467856614074201360e+01 3.467856614074201360e+01 3.467856614074201360e+01 3.467856614074201360e+01 3.467856614074201360e+01
4.320000000000000000e+04 3.606855685131195344e+01 3.606855685131195344e+01 3.606855685131195344e+01 3.606855685131195344e+01 3.606855685131195344e+01 3.606855685131195344e+01 3.606855685131195344e+01 3.606855685131195344e+01 3.606855685131195344e+01 3.606855685131195344e+01 3.606855685131195344e+01 3.606855685131195344e+01 3.606855685131195344e+01 3.606855685131195344e+01
4.680000000000000000e+04 3.606855685131195344e+01 3.606855685131195344e+01 3.606855685131195344e+01 3.606855685131195344e+01 3.606855685131195344e+01 3.606855685131195344e+01 3.606855685131195344e+01 3.606855685131195344e+01 3.606855685131195344e+01 3.606855685131195344e+01 3.606855685131195344e+01 3.606855685131195344e+01 3.606855685131195344e+01 3.606855685131195344e+01
4.680000000000000000e+04 3.464186774709883565e+01 3.464186774709883565e+01 3.464186774709883565e+01 3.464186774709883565e+01 3.464186774709883565e+01 3.464186774709883565e+01 3.464186774709883565e+01 3.464186774709883565e+01 3.464186774709883565e+01 3.464186774709883565e+01 3.464186774709883565e+01 3.464186774709883565e+01 3.464186774709883565e+01 3.464186774709883565e+01
5.040000000000000000e+04 3.464186774709883565e+01 3.464186774709883565e+01 3.464186774709883565e+01 3.464186774709883565e+01 3.464186774709883565e+01 3.464186774709883565e+01 3.464186774709883565e+01 3.464186774709883565e+01 3.464186774709883565e+01 3.464186774709883565e+01 3.464186774709883565e+01 3.464186774709883565e+01 3.464186774709883565e+01 3.464186774709883565e+01
5.040000000000000000e+04 3.388848768078660356e+01 3.388848768078660356e+01 3.388848768078660356e+01 3.388848768078660356e+01 3.388848768078660356e+01 3.388848768078660356e+01 3.388848768078660356e+01 3.388848768078660356e+01 3.388848768078660356e+01 3.388848768078660356e+01 3.388848768078660356e+01 3.388848768078660356e+01 3.388848768078660356e+01 3.388848768078660356e+01
5.400000000000000000e+04 3.388848768078660356e+01 3.388848768078660356e+01 3.388848768078660356e+01 3.388848768078660356e+01 3.388848768078660356e+01 3.388848768078660356e+01 3.388848768078660356e+01 3.388848768078660356e+01 3.388848768078660356e+01 3.388848768078660356e+01 3.388848768078660356e+01 3.388848768078660356e+01 3.388848768078660356e+01 3.388848768078660356e+01
5.400000000000000000e+04 3.400056736980506855e+01 3.400056736980506855e+01 3.400056736980506855e+01 3.400056736980506855e+01 3.400056736980506855e+01 3.400056736980506855e+01 3.400056736980506855e+01 3.400056736980506855e+01 3.400056736980506855e+01 3.400056736980506855e+01 3.400056736980506855e+01 3.400056736980506855e+01 3.400056736980506855e+01 3.400056736980506855e+01
5.760000000000000000e+04 3.400056736980506855e+01 3.400056736980506855e+01 3.400056736980506855e+01 3.400056736980506855e+01 3.400056736980506855e+01 3.400056736980506855e+01 3.400056736980506855e+01 3.400056736980506855e+01 3.400056736980506855e+01 3.400056736980506855e+01 3.400056736980506855e+01 3.400056736980506855e+01 3.400056736980506855e+01 3.400056736980506855e+01
5.760000000000000000e+04 3.386039773052078061e+01 3.386039773052078061e+01 3.386039773052078061e+01 3.386039773052078061e+01 3.386039773052078061e+01 3.386039773052078061e+01 3.386039773052078061e+01 3.386039773052078061e+01 3.386039773052078061e+01 3.386039773052078061e+01 3.386039773052078061e+01 3.386039773052078061e+01 3.386039773052078061e+01 3.386039773052078061e+01
6.120000000000000000e+04 3.386039773052078061e+01 3.386039773052078061e+01 3.386039773052078061e+01 3.386039773052078061e+01 3.386039773052078061e+01 3.386039773052078061e+01 3.386039773052078061e+01 3.386039773052078061e+01 3.386039773052078061e+01 3.386039773052078061e+01 3.386039773052078061e+01 3.386039773052078061e+01 3.386039773052078061e+01 3.386039773052078061e+01
6.120000000000000000e+04 3.413949594123364051e+01 3.413949594123364051e+01 3.413949594123364051e+01 3.413949594123364051e+01 3.413949594123364051e+01 3.413949594123364051e+01 3.413949594123364051e+01 3.413949594123364051e+01 3.413949594123364051e+01 3.413949594123364051e+01 3.413949594123364051e+01 3.413949594123364051e+01 3.413949594123364051e+01 3.413949594123364051e+01
6.480000000000000000e+04 3.413949594123364051e+01 3.413949594123364051e+01 3.413949594123364051e+01 3.413949594123364051e+01 3.413949594123364051e+01 3.413949594123364051e+01 3.413949594123364051e+01 3.413949594123364051e+01 3.413949594123364051e+01 3.413949594123364051e+01 3.413949594123364051e+01 3.413949594123364051e+01 3.413949594123364051e+01 3.413949594123364051e+01
6.480000000000000000e+04 3.408442977190876633e+01 3.408442977190876633e+01 3.408442977190876633e+01 3.408442977190876633e+01 3.408442977190876633e+01 3.408442977190876633e+01 3.408442977190876633e+01 3.408442977190876633e+01 3.408442977190876633e+01 3.408442977190876633e+01 3.408442977190876633e+01 3.408442977190876633e+01 3.408442977190876633e+01 3.408442977190876633e+01
6.840000000000000000e+04 3.408442977190876633e+01 3.408442977190876633e+01 3.408442977190876633e+01 3.408442977190876633e+01 3.408442977190876633e+01 3.408442977190876633e+01 3.408442977190876633e+01 3.408442977190876633e+01 3.408442977190876633e+01 3.408442977190876633e+01 3.408442977190876633e+01 3.408442977190876633e+01 3.408442977190876633e+01 3.408442977190876633e+01
6.840000000000000000e+04 3.433295832618762233e+01 3.433295832618762233e+01 3.433295832618762233e+01 3.433295832618762233e+01 3.433295832618762233e+01 3.433295832618762233e+01 3.433295832618762233e+01 3.433295832618762233e+01 3.433295832618762233e+01 3.433295832618762233e+01 3.433295832618762233e+01 3.433295832618762233e+01 3.433295832618762233e+01 3.433295832618762233e+01
7.200000000000000000e+04 3.433295832618762233e+01 3.433295832618762233e+01 3.433295832618762233e+01 3.433295832618762233e+01 3.433295832618762233e+01 3.433295832618762233e+01 3.433295832618762233e+01 3.433295832618762233e+01 3.433295832618762233e+01 3.433295832618762233e+01 3.433295832618762233e+01 3.433295832618762233e+01 3.433295832618762233e+01 3.433295832618762233e+01
7.200000000000000000e+04 3.454387926599211056e+01 3.454387926599211056e+01 3.454387926599211056e+01 3.454387926599211056e+01 3.454387926599211056e+01 3.454387926599211056e+01 3.454387926599211056e+01 3.454387926599211056e+01 3.454387926599211056e+01 3.454387926599211056e+01 3.454387926599211056e+01 3.454387926599211056e+01 3.454387926599211056e+01 3.454387926599211056e+01
7.560000000000000000e+04 3.454387926599211056e+01 3.454387926599211056e+01 3.454387926599211056e+01 3.454387926599211056e+01 3.454387926599211056e+01 3.454387926599211056e+01 3.454387926599211056e+01 3.454387926599211056e+01 3.454387926599211056e+01 3.454387926599211056e+01 3.454387926599211056e+01 3.454387926599211056e+01 3.454387926599211056e+01 3.454387926599211056e+01
7.560000000000000000e+04 3.492533127536729154e+01 3.492533127536729154e+01 3.492533127536729154e+01 3.492533127536729154e+01 3.492533127536729154e+01 3.492533127536729154e+01 3.492533127536729154e+01 3.492533127536729154e+01 3.492533127536729154e+01 3.492533127536729154e+01 3.492533127536729154e+01 3.492533127536729154e+01 3.492533127536729154e+01 3.492533127536729154e+01
7.920000000000000000e+04 3.492533127536729154e+01 3.492533127536729154e+01 3.492533127536729154e+01 3.492533127536729154e+01 3.492533127536729154e+01 3.492533127536729154e+01 3.492533127536729154e+01 3.492533127536729154e+01 3.492533127536729154e+01 3.492533127536729154e+01 3.492533127536729154e+01 3.492533127536729154e+01 3.492533127536729154e+01 3.492533127536729154e+01
7.920000000000000000e+04 3.537570571085576887e+01 3.537570571085576887e+01 3.537570571085576887e+01 3.537570571085576887e+01 3.537570571085576887e+01 3.537570571085576887e+01 3.537570571085576887e+01 3.537570571085576887e+01 3.537570571085576887e+01 3.537570571085576887e+01 3.537570571085576887e+01 3.537570571085576887e+01 3.537570571085576887e+01 3.537570571085576887e+01
8.280000000000000000e+04 3.537570571085576887e+01 3.537570571085576887e+01 3.537570571085576887e+01 3.537570571085576887e+01 3.537570571085576887e+01 3.537570571085576887e+01 3.537570571085576887e+01 3.537570571085576887e+01 3.537570571085576887e+01 3.537570571085576887e+01 3.537570571085576887e+01 3.537570571085576887e+01 3.537570571085576887e+01 3.537570571085576887e+01
8.280000000000000000e+04 3.566096152746813175e+01 3.566096152746813175e+01 3.566096152746813175e+01 3.566096152746813175e+01 3.566096152746813175e+01 3.566096152746813175e+01 3.566096152746813175e+01 3.566096152746813175e+01 3.566096152746813175e+01 3.566096152746813175e+01 3.566096152746813175e+01 3.566096152746813175e+01 3.566096152746813175e+01 3.566096152746813175e+01
8.640000000000000000e+04 3.566096152746813175e+01 3.566096152746813175e+01 3.566096152746813175e+01 3.566096152746813175e+01 3.566096152746813175e+01 3.566096152746813175e+01 3.566096152746813175e+01 3.566096152746813175e+01 3.566096152746813175e+01 3.566096152746813175e+01 3.566096152746813175e+01 3.566096152746813175e+01 3.566096152746813175e+01 3.566096152746813175e+01
