0
1408921200.0 
1408996800.0
1409004000.0          
1409083200.0
1409090400.0
1409169600.0
1409176800.0
1409256000.0
1409263200.0
1409342400.0
1409349600.0
1409428800.0
1409436000.0
1409515200.0 
1409522400.0
