,,Hourly SiteSage  Data, 2016-05-06 10:16:00,Customer: ,Historic Green Village @AMI

Column name is Energy Monitor Channel Number-Circuit Name
Channel Columns contain energy usage(production) in watt hours for hour
Voltage is average voltage for hour

 ,,,,,,,,,,,,,,,,,,,,,,,,,,
,"1","2","3","4","5","6","7","8","9","10","11","12","13","14","15","16","17","18","19","20","21","22","23","24",4065,
Date/Time,"Bldg F1","Bldg F1","Solar Input (F1)","No CT","WSHP","Range","Range","Microwave","Dishwasher","Mixer","Fridge in Back","Front Display Case","Back Middle Freezer","Back Freezer near Wall","Lighting{1}","Gas Water Heater","Gas Convection Oven","Receptacle 1","Receptacle 2","Receptacle 3","Front Small Fridge","Bath/Mechanical Room","Outdoor Receptacle","Lighting Outdoor",Voltage,Outdoor Temp
2014-08-25 00:00:00,2177,2584,0,0,1268,5,0,29,0,0,269,907,873,528,31,3,0,0,0,104,10,7,0,0,117.6,81
2014-08-25 01:00:00,1907,1783,0,0,493,5,0,29,0,0,389,275,809,566,32,3,0,0,0,102,11,7,0,0,117.8,80
2014-08-25 02:00:00,2056,2426,0,0,895,5,0,29,0,0,323,907,863,570,32,3,0,0,0,97,11,7,0,0,117.5,80
2014-08-25 03:00:00,1950,1730,0,0,397,5,0,29,0,0,295,232,1029,577,32,3,0,0,0,123,11,7,0,0,117.9,79
2014-08-25 04:00:00,2312,2636,0,0,1444,5,0,29,0,0,414,885,889,570,32,3,0,0,0,150,11,7,0,0,118.1,79
2014-08-25 05:00:00,1681,1624,0,0,347,5,0,29,0,0,285,291,814,523,32,3,0,0,0,104,11,7,0,0,118.0,78
2014-08-25 06:00:00,1989,2261,0,0,856,5,0,29,0,0,351,881,861,509,31,2,0,0,0,100,11,7,0,0,117.2,78
2014-08-25 07:00:00,1993,1751,-134,0,796,5,0,39,0,0,382,307,895,524,32,3,0,0,0,98,11,9,0,0,117.8,78
2014-08-25 08:00:00,2449,3042,-485,0,2247,5,0,54,0,0,303,698,793,746,218,3,0,0,0,136,10,24,0,15,116.6,79
2014-08-25 09:00:00,3362,3871,-1172,0,4364,197,189,44,0,172,338,563,703,464,573,4,0,0,0,201,8,40,0,45,117.3,82
2014-08-25 10:00:00,2625,2987,-2441,0,4071,9,3,45,0,70,278,419,765,495,578,3,0,0,0,129,10,44,0,133,120.1,85
2014-08-25 11:00:00,3110,3376,-2365,0,4108,398,388,53,0,90,408,334,767,523,575,4,0,0,0,123,11,39,0,133,118.7,87
2014-08-25 12:00:00,2917,3110,-2858,2,4734,12,5,44,0,89,262,521,857,452,572,3,175,0,0,123,10,39,0,133,118.0,90
2014-08-25 13:00:00,2973,3327,-3364,1,5200,15,7,43,37,66,376,630,705,598,574,2,342,0,0,123,10,40,0,131,117.0,92
2014-08-25 14:00:00,3024,3353,-3181,1,5190,14,7,57,0,128,353,445,914,737,574,3,23,0,0,125,10,38,0,130,116.7,92
2014-08-25 15:00:00,3053,3511,-2945,0,5190,12,5,184,40,102,278,486,736,677,572,3,0,0,0,126,10,40,0,130,117.0,91
2014-08-25 16:00:00,3372,3838,-2388,0,5197,11,5,43,0,74,414,608,770,570,570,3,0,0,0,135,10,51,0,131,118.1,92
2014-08-25 17:00:00,1669,2091,-1523,0,742,5,0,46,0,33,390,684,907,574,551,3,0,0,0,120,12,28,0,24,119.2,92
2014-08-25 18:00:00,2182,2036,-328,0,958,4,0,42,0,0,450,350,896,610,80,2,0,0,0,96,12,10,0,0,119.7,89
2014-08-25 19:00:00,2263,2229,-195,0,978,4,0,42,0,0,441,651,935,562,34,1,0,0,0,98,12,10,0,0,119.6,87
2014-08-25 20:00:00,2144,2608,29,0,1117,5,0,31,0,0,292,657,861,807,33,0,0,0,0,98,11,7,0,0,120.0,86
2014-08-25 21:00:00,2044,1893,0,0,589,3,0,28,0,0,417,354,910,576,36,1,0,0,0,98,11,6,0,0,121.0,84
2014-08-25 22:00:00,2239,2425,0,0,1343,5,0,28,0,0,305,682,931,561,33,1,0,0,0,99,11,6,0,0,118.6,83
2014-08-25 23:00:00,1965,2161,0,0,826,5,0,29,0,0,339,582,794,562,32,3,0,0,0,101,11,7,0,0,117.3,81
2014-08-26 00:00:00,1822,1746,0,0,393,5,0,29,0,0,385,328,827,536,32,2,0,0,0,121,11,7,0,0,118.6,80
2014-08-26 01:00:00,2284,2482,0,0,1319,5,0,28,0,0,268,749,995,522,33,1,0,0,0,144,10,7,0,0,119.4,78
2014-08-26 02:00:00,2047,2051,0,0,833,5,0,28,0,0,402,530,915,570,34,1,0,0,0,100,11,7,0,0,119.6,78
2014-08-26 03:00:00,1861,1754,0,0,578,5,0,29,0,0,319,343,903,562,34,1,0,0,0,94,11,7,0,0,120.1,77
2014-08-26 04:00:00,1907,2162,0,0,1077,5,0,28,0,0,304,753,855,503,34,1,0,0,0,95,10,7,0,0,119.9,77
2014-08-26 05:00:00,2023,2052,0,0,858,5,0,29,0,0,423,528,836,579,34,1,0,0,0,95,11,7,0,0,119.5,77
2014-08-26 06:00:00,1665,1656,0,0,445,5,0,29,0,0,287,328,816,539,36,1,0,0,0,94,11,7,0,0,118.5,77
2014-08-26 07:00:00,2644,2960,-113,0,2248,5,0,51,0,0,337,753,917,498,175,2,0,0,0,130,9,22,0,12,117.6,76
2014-08-26 08:00:00,4065,4135,-459,0,3755,322,314,42,0,453,422,474,924,627,577,5,0,0,0,202,9,37,0,45,116.7,77
2014-08-26 09:00:00,3119,3320,-1102,0,3412,5,0,49,0,192,428,391,912,714,577,3,0,11,0,132,10,39,0,123,120.3,81
2014-08-26 10:00:00,3849,4060,-1421,0,4251,307,298,58,0,203,376,450,842,650,577,4,285,164,0,138,10,40,0,133,119.5,86
2014-08-26 11:00:00,3994,4240,-2008,0,5159,9,2,43,39,200,460,593,891,720,577,5,372,160,0,139,9,36,0,129,118.0,88
2014-08-26 12:00:00,3246,3591,-3433,0,5161,13,6,54,59,201,366,606,928,639,578,4,352,171,0,134,9,32,0,130,118.2,90
2014-08-26 13:00:00,3465,3663,-3348,0,5171,13,6,67,79,206,463,461,952,925,578,3,352,158,0,120,9,42,0,129,117.4,92
2014-08-26 14:00:00,3853,4031,-3196,0,5187,11,5,107,78,201,478,433,1125,986,578,5,364,159,0,114,10,37,0,129,117.4,95
2014-08-26 15:00:00,3775,4811,-2302,0,5207,9,3,43,0,135,474,936,1026,960,580,2,17,121,0,234,11,33,0,131,117.7,94
2014-08-26 16:00:00,2781,2579,-2184,0,3851,9,3,39,0,0,407,310,920,798,59,1,0,20,0,143,11,32,0,132,117.8,91
2014-08-26 17:00:00,1621,1842,-1339,0,744,4,0,42,0,0,337,729,955,758,134,2,0,0,0,122,12,20,0,38,118.8,91
2014-08-26 18:00:00,1940,1861,-528,0,492,3,0,41,0,0,411,575,982,624,34,1,0,0,0,100,12,9,0,0,119.6,90
2014-08-26 19:00:00,2281,2043,-154,0,805,4,0,42,0,0,456,411,990,628,34,2,0,0,0,94,12,10,0,0,119.8,88
2014-08-26 20:00:00,2318,2483,23,0,824,4,0,30,0,0,447,865,1051,617,34,1,0,0,0,140,11,6,0,0,120.4,86
2014-08-26 21:00:00,2146,1997,0,0,740,3,0,27,0,0,310,362,1064,574,34,0,0,0,0,143,11,6,0,0,121.2,85
2014-08-26 22:00:00,2096,2129,0,0,821,4,0,27,0,0,331,588,978,571,32,1,0,0,0,95,11,6,0,0,118.7,83
2014-08-26 23:00:00,2047,2099,0,0,777,5,0,28,0,0,433,671,917,553,32,1,0,0,0,99,11,7,0,0,117.9,82
2014-08-27 00:00:00,1796,1743,0,0,468,5,0,28,0,0,289,327,903,549,33,2,0,0,0,98,11,7,0,0,119.5,81
2014-08-27 01:00:00,2034,2267,0,0,1177,5,0,28,0,0,340,760,884,535,33,1,0,0,0,98,11,7,0,0,120.3,80
2014-08-27 02:00:00,1878,1751,0,0,440,5,0,28,0,0,450,531,967,553,33,1,0,0,0,97,11,7,0,0,120.2,79
2014-08-27 03:00:00,1915,1976,0,0,765,5,0,28,0,0,315,442,958,713,34,1,0,0,0,104,11,7,0,0,120.5,78
2014-08-27 04:00:00,1886,2338,0,0,806,5,0,28,0,0,305,814,882,683,39,1,0,0,0,101,11,7,0,0,119.7,78
2014-08-27 05:00:00,2020,1857,0,0,731,5,0,29,0,0,439,365,914,584,39,1,0,0,0,103,11,7,0,0,119.5,77
2014-08-27 06:00:00,1858,1952,0,0,883,5,0,28,0,0,326,553,866,550,39,1,0,0,0,104,11,7,0,0,119.0,77
2014-08-27 07:00:00,1776,1912,-106,0,724,5,0,39,0,0,296,701,959,541,38,2,0,0,0,104,12,9,0,0,118.4,76
2014-08-27 08:00:00,1751,1390,-511,0,403,4,0,41,0,0,403,359,983,517,37,2,0,0,0,102,12,9,0,0,117.3,77
2014-08-27 09:00:00,2703,2451,-1687,0,2659,262,254,42,83,289,376,595,958,536,239,7,0,8,0,122,10,24,0,0,118.9,81
2014-08-27 10:00:00,3365,4060,-2598,0,5148,228,220,45,0,301,296,675,906,584,580,14,0,332,0,132,9,31,0,53,119.9,86
2014-08-27 11:00:00,3202,3537,-3208,0,5172,13,6,44,168,187,411,384,806,517,579,12,0,329,0,136,10,40,0,125,118.7,89
2014-08-27 12:00:00,2825,3401,-3375,1,5043,14,6,44,0,186,367,413,830,500,578,10,0,223,0,126,9,40,0,112,117.9,91
2014-08-27 13:00:00,2589,3737,-3409,1,4955,21,7,44,0,237,240,666,741,446,581,7,0,604,1,121,10,45,0,81,118.5,94
2014-08-27 14:00:00,2714,4407,-3247,0,4983,12,6,44,0,186,255,903,708,470,583,4,0,754,2,128,10,39,0,82,117.7,91
2014-08-27 15:00:00,2857,3565,-2904,0,4986,12,6,44,0,157,357,362,688,483,581,3,0,449,1,122,10,34,0,84,117.3,93
2014-08-27 16:00:00,2647,2998,-2362,0,4053,10,4,67,0,71,385,480,726,531,579,3,0,7,0,119,10,40,0,84,118.7,92
2014-08-27 17:00:00,1216,1379,-1595,0,649,5,0,41,0,4,254,684,807,669,104,1,0,0,0,133,11,18,0,21,118.6,92
2014-08-27 18:00:00,1513,1537,-543,0,0,4,0,40,0,0,324,565,886,567,36,1,0,0,0,106,12,9,0,0,118.0,90
2014-08-27 19:00:00,2006,1687,-177,0,380,5,0,41,0,0,426,372,988,547,35,2,0,0,0,101,11,9,0,0,118.4,86
2014-08-27 20:00:00,2146,2193,19,0,709,5,0,29,0,0,435,738,916,526,32,0,0,0,0,101,10,7,0,0,118.6,85
2014-08-27 21:00:00,1830,1953,0,0,361,5,0,27,0,0,311,591,901,560,33,1,0,0,0,106,10,6,0,0,119.7,85
2014-08-27 22:00:00,1909,1842,0,0,771,5,0,27,0,0,271,358,964,585,33,0,0,0,0,97,10,6,0,0,120.2,84
2014-08-27 23:00:00,2199,2349,0,0,742,5,0,27,0,0,435,859,958,565,33,1,0,0,0,90,11,6,0,0,120.1,81
2014-08-28 00:00:00,1821,1721,0,0,354,5,0,27,0,0,373,489,936,520,33,0,0,0,0,92,10,6,0,0,120.3,80
2014-08-28 01:00:00,1820,1908,0,0,685,5,0,28,0,0,291,492,886,583,33,1,0,0,0,91,10,6,0,0,121.1,79
2014-08-28 02:00:00,1899,2153,0,0,738,5,0,28,0,0,391,853,941,598,33,1,0,0,0,106,10,6,0,0,121.6,78
2014-08-28 03:00:00,1787,1581,0,0,341,5,0,28,0,0,392,405,973,519,34,2,0,0,0,106,11,7,0,0,120.0,77
2014-08-28 04:00:00,1746,1836,0,0,682,5,0,29,0,0,296,540,882,527,37,2,0,0,0,105,11,7,0,0,119.3,76
2014-08-28 05:00:00,1890,2202,0,0,721,5,0,29,0,0,334,794,934,662,39,1,0,0,0,102,11,7,0,0,118.8,75
2014-08-28 06:00:00,1889,1799,0,0,385,5,0,28,0,0,426,377,969,670,39,1,0,0,0,102,11,7,0,0,118.4,75
2014-08-28 07:00:00,1857,1956,-111,0,739,5,0,38,0,0,300,611,959,591,40,2,0,0,0,103,11,9,0,0,118.8,74
2014-08-28 08:00:00,1746,1882,-514,0,781,5,0,41,0,0,309,733,979,554,40,1,0,0,0,101,12,10,0,0,119.5,77
2014-08-28 09:00:00,2888,2768,-1664,0,3401,203,196,59,0,216,481,321,775,487,466,4,0,0,0,143,10,39,0,0,117.8,81
2014-08-28 10:00:00,3039,3245,-2501,0,4353,10,4,159,0,115,316,754,838,473,578,3,265,0,0,145,9,37,0,106,116.5,86
2014-08-28 11:00:00,3071,3322,-3051,0,4941,62,55,53,0,79,420,506,784,677,579,3,335,0,0,134,9,33,0,122,115.6,90
2014-08-28 12:00:00,3564,3849,-3191,0,4982,455,445,59,0,87,330,399,895,518,580,3,346,0,0,198,9,38,0,122,115.0,92
2014-08-28 13:00:00,3205,4080,-3268,0,4987,156,148,43,0,120,342,942,894,683,580,2,346,0,0,184,9,38,0,121,114.3,93
2014-08-28 14:00:00,3581,4313,-3214,0,4960,754,740,43,0,70,476,599,741,818,581,2,77,0,0,143,9,42,0,123,115.4,94
2014-08-28 15:00:00,3179,3828,-2829,0,4959,11,5,44,72,68,490,676,871,832,582,2,0,0,0,149,9,37,0,123,114.8,95
2014-08-28 16:00:00,3353,3715,-2255,0,4844,11,5,43,76,56,328,388,992,768,582,2,0,0,0,138,9,40,0,124,115.2,93
2014-08-28 17:00:00,1578,1857,-1433,0,475,5,0,41,0,0,402,855,939,605,166,2,0,0,0,107,11,20,0,59,115.4,93
2014-08-28 18:00:00,1976,1660,-668,0,783,5,0,40,0,0,455,311,858,564,33,2,0,0,0,92,11,9,0,44,115.4,88
2014-08-28 19:00:00,2276,2405,-238,0,1142,5,0,40,0,0,401,775,905,587,33,1,0,0,0,95,11,9,0,45,116.7,82
2014-08-28 20:00:00,1872,1970,27,0,469,5,0,30,0,0,345,468,820,605,32,1,0,0,0,101,11,7,0,46,117.1,82
2014-08-28 21:00:00,2099,2051,0,0,617,5,0,27,0,0,397,521,925,578,32,1,0,0,0,99,11,7,0,45,116.6,81
2014-08-28 22:00:00,2092,2277,0,0,1010,5,0,28,0,0,376,731,846,572,35,1,0,0,0,105,10,7,0,46,117.2,81
2014-08-28 23:00:00,1913,1798,0,0,346,5,0,28,0,0,306,321,875,570,34,2,0,0,0,104,11,7,0,47,118.5,80
2014-08-29 00:00:00,2316,2579,0,0,1228,5,0,29,0,0,361,868,926,555,33,1,0,0,0,105,11,7,0,47,118.6,79
2014-08-29 01:00:00,1848,1695,0,0,402,5,0,29,0,0,452,418,859,587,33,1,0,0,0,104,11,7,0,47,119.5,78
2014-08-29 02:00:00,2031,2175,0,0,715,5,0,29,0,0,319,613,1004,732,33,1,0,0,0,95,11,7,0,47,119.7,78
2014-08-29 03:00:00,2079,2267,0,0,1017,5,0,29,0,0,312,687,975,673,34,1,0,0,0,94,11,7,0,47,120.1,78
2014-08-29 04:00:00,1868,1562,0,0,290,5,0,29,0,0,457,354,935,581,34,1,0,0,0,94,11,7,0,47,119.7,78
2014-08-29 05:00:00,2043,2375,0,0,1118,5,0,29,0,0,351,928,876,559,34,1,0,0,0,97,11,7,0,47,119.3,77
2014-08-29 06:00:00,1612,1522,0,0,358,5,0,29,0,0,297,292,850,560,38,1,0,0,0,93,11,7,0,47,118.8,76
2014-08-29 07:00:00,1918,2138,-323,0,961,5,0,39,0,0,357,806,833,540,39,2,0,0,0,148,10,9,0,47,118.2,77
2014-08-29 08:00:00,1664,1443,-850,0,677,5,0,41,0,0,410,465,897,540,36,3,0,0,0,133,11,10,0,46,117.1,79
2014-08-29 09:00:00,2742,2716,-614,0,2360,60,53,52,0,302,316,558,799,530,214,6,0,19,0,148,10,28,0,44,115.9,84
2014-08-29 10:00:00,3303,3711,-1245,0,3584,264,256,43,0,267,387,712,808,544,577,4,96,153,0,148,10,38,0,123,118.9,80
2014-08-29 11:00:00,2879,2886,-3029,0,4502,11,5,45,0,191,380,418,763,524,577,3,380,181,0,131,9,46,0,128,119.2,86
2014-08-29 12:00:00,3129,3426,-3264,0,4882,12,6,72,0,190,318,722,847,495,577,4,372,161,0,134,9,41,0,128,118.3,90
2014-08-29 13:00:00,3559,3641,-3351,0,4894,174,166,118,79,183,429,715,1009,474,576,5,362,157,0,134,9,39,0,125,116.5,91
2014-08-29 14:00:00,3211,3210,-3350,1,4935,194,182,51,0,179,305,327,895,519,575,3,340,68,0,141,9,46,0,124,115.3,93
2014-08-29 15:00:00,3105,4248,-2658,0,4932,11,4,49,0,183,232,944,759,770,579,2,170,67,0,159,10,44,0,124,115.5,88
2014-08-29 16:00:00,3111,3415,-1590,0,3450,6,0,42,0,107,440,341,807,542,575,3,0,68,0,153,11,42,0,127,115.6,89
2014-08-29 17:00:00,1783,2026,-764,0,600,5,0,41,0,0,454,713,839,523,241,1,0,10,0,104,11,20,0,23,117.6,89
2014-08-29 18:00:00,1699,1672,-356,0,119,5,0,40,0,0,483,590,840,571,34,1,0,0,0,92,11,9,0,0,118.2,87
2014-08-29 19:00:00,1960,1976,-158,0,603,5,0,40,0,0,318,529,947,580,32,1,0,0,0,91,11,9,0,0,117.3,87
2014-08-29 20:00:00,1770,2053,9,0,670,5,0,28,0,0,316,715,830,560,32,1,0,0,0,92,10,7,0,0,117.3,85
2014-08-29 21:00:00,1958,1749,0,0,630,5,0,27,0,0,440,297,863,562,30,2,0,0,0,98,10,7,0,0,116.2,81
2014-08-29 22:00:00,1925,2225,0,0,761,5,0,28,0,0,317,839,899,544,31,2,0,0,0,105,10,7,0,0,117.5,78
2014-08-29 23:00:00,1696,1698,0,0,352,5,0,28,0,0,308,454,932,556,33,1,0,0,0,107,10,7,0,0,119.3,77
2014-08-30 00:00:00,2054,1951,0,0,743,5,0,28,0,0,442,545,947,555,33,2,0,0,0,104,10,7,0,0,119.2,76
2014-08-30 01:00:00,1942,2131,0,0,735,5,0,28,0,0,367,747,964,589,34,2,0,0,0,105,11,7,0,0,119.6,76
2014-08-30 02:00:00,1689,1582,0,0,379,5,0,28,0,0,318,309,887,573,35,2,0,0,0,89,11,7,0,0,120.2,76
2014-08-30 03:00:00,1970,2409,0,0,731,5,0,28,0,0,425,900,916,699,35,1,0,0,0,131,11,7,0,0,120.2,75
2014-08-30 04:00:00,1859,1851,0,0,687,5,0,29,0,0,354,427,980,648,41,1,0,0,0,124,11,7,0,0,120.6,74
2014-08-30 05:00:00,1728,1911,0,0,709,5,0,29,0,0,300,586,887,571,41,1,0,0,0,110,10,7,0,0,120.6,74
2014-08-30 06:00:00,2036,2113,0,0,785,5,0,29,0,0,447,719,914,533,40,2,0,0,0,112,11,7,0,0,120.3,75
2014-08-30 07:00:00,1709,1481,-120,0,341,5,0,38,0,0,374,352,939,518,40,2,0,0,0,98,11,9,0,0,119.8,75
2014-08-30 08:00:00,2646,3176,-533,0,2897,5,0,56,33,8,316,685,778,525,368,4,0,0,0,165,10,32,0,28,117.9,77
2014-08-30 09:00:00,2778,3054,-1613,0,3227,106,100,50,0,72,389,581,688,424,580,4,374,52,0,204,9,40,0,44,116.0,83
2014-08-30 10:00:00,3023,3174,-2260,0,4029,49,43,66,0,143,233,607,970,562,573,3,341,70,0,140,8,35,0,118,116.5,87
2014-08-30 11:00:00,3153,3659,-2957,0,4890,12,5,43,36,71,398,956,856,497,577,2,332,69,0,155,9,48,0,123,116.6,89
2014-08-30 12:00:00,2920,3682,-2571,0,4892,11,4,43,0,75,282,751,761,437,579,2,0,69,0,148,9,46,0,122,116.1,91
2014-08-30 13:00:00,2875,3626,-2611,1,4918,11,5,43,0,74,300,588,707,451,581,3,0,68,0,128,9,41,0,122,115.5,93
2014-08-30 14:00:00,2609,3324,-2812,1,4437,11,5,59,0,66,316,442,781,598,580,3,0,67,0,138,9,50,0,122,115.0,94
2014-08-30 15:00:00,3300,4282,-2601,0,4529,10,4,56,37,69,290,942,899,536,582,2,0,66,0,143,9,46,0,121,114.4,95
2014-08-30 16:00:00,2437,2829,-2263,0,3243,9,3,43,0,44,338,397,780,629,544,3,0,42,0,117,9,43,0,125,114.8,92
2014-08-30 17:00:00,1083,1272,-1340,0,0,5,0,40,0,0,286,807,876,671,32,1,0,0,0,86,11,9,0,0,115.8,91
2014-08-30 18:00:00,1841,1509,-838,0,707,5,0,40,0,0,449,303,940,576,33,2,0,0,0,90,11,9,0,0,117.2,78
2014-08-30 19:00:00,2069,2332,-81,0,773,5,0,35,0,0,340,828,942,558,36,1,0,0,0,107,11,8,0,0,118.2,77
2014-08-30 20:00:00,1790,1769,0,0,362,5,0,27,0,0,347,452,907,565,34,0,0,0,0,93,10,6,0,0,118.8,76
2014-08-30 21:00:00,2111,2040,0,0,700,5,0,27,0,0,409,561,975,567,32,1,0,0,0,89,9,7,0,0,118.1,75
2014-08-30 22:00:00,1774,1978,0,0,448,5,0,28,0,0,285,691,951,569,31,2,0,0,0,91,10,7,0,0,116.1,76
2014-08-30 23:00:00,1908,1789,0,0,619,5,0,28,0,0,397,304,840,571,31,3,0,0,0,110,10,7,0,0,116.9,76
2014-08-31 00:00:00,1931,2251,0,0,763,5,0,28,0,0,343,844,958,561,32,2,0,0,0,158,11,7,0,0,118.2,76
2014-08-31 01:00:00,1640,1705,0,0,355,5,0,28,0,0,319,445,845,564,33,2,0,0,0,114,11,7,0,0,119.0,75
2014-08-31 02:00:00,2031,1962,0,0,785,5,0,28,0,0,434,556,981,574,34,1,0,0,0,109,11,7,0,0,120.0,75
2014-08-31 03:00:00,1768,2068,0,0,740,5,0,28,0,0,285,740,860,552,34,2,0,0,0,94,11,7,0,0,120.1,75
2014-08-31 04:00:00,1902,1583,0,0,325,5,0,28,0,0,445,303,977,532,35,1,0,0,0,91,11,7,0,0,120.1,74
2014-08-31 05:00:00,1809,2431,0,0,715,5,0,28,0,0,316,891,857,780,36,2,0,0,0,95,11,7,0,0,120.2,74
2014-08-31 06:00:00,1827,1726,0,0,671,5,0,28,0,0,357,396,971,592,37,1,0,0,0,108,10,7,0,0,120.1,74
2014-08-31 07:00:00,1756,1755,-110,0,468,5,0,38,0,0,399,545,881,571,37,2,0,0,0,107,10,9,0,0,119.6,74
2014-08-31 08:00:00,1865,1850,-496,0,865,5,0,41,0,0,399,701,993,562,36,3,0,0,0,106,11,10,0,0,117.2,76
2014-08-31 09:00:00,1014,680,-1547,0,480,6,0,41,0,0,264,319,853,538,35,2,0,0,0,92,11,10,0,0,117.0,82
2014-08-31 10:00:00,896,609,-2549,0,808,7,0,42,0,0,385,708,878,514,35,2,0,0,0,90,10,10,0,0,118.9,85
2014-08-31 11:00:00,307,338,-2991,2,757,7,0,41,0,0,357,531,870,557,33,1,0,0,0,85,10,9,0,0,117.5,89
2014-08-31 12:00:00,221,431,-3233,3,1133,8,2,41,0,0,255,484,831,528,33,1,0,0,0,108,10,9,0,0,116.6,91
2014-08-31 13:00:00,901,1177,-2166,2,855,6,1,41,0,0,423,696,861,493,32,2,0,0,0,105,11,10,0,0,115.2,93
2014-08-31 14:00:00,884,861,-1873,1,820,7,1,41,0,0,246,297,771,511,32,2,0,0,0,92,11,10,0,0,115.4,94
2014-08-31 15:00:00,1186,1167,-2346,1,1134,7,1,41,0,0,359,833,880,557,33,1,0,0,0,86,11,9,0,0,116.7,95
2014-08-31 16:00:00,605,673,-2261,0,855,7,1,41,0,0,356,382,819,526,33,1,0,0,0,86,11,9,0,0,117.6,92
2014-08-31 17:00:00,1361,1262,-1587,0,934,6,0,41,0,0,267,610,834,480,33,1,0,0,0,101,11,9,0,0,117.2,92
2014-08-31 18:00:00,2146,2169,-524,2,869,6,2,41,0,2,448,552,1066,778,35,1,0,0,0,101,9,10,0,1,117.5,72
2014-08-31 19:00:00,2168,2296,-129,0,710,5,0,39,0,1,309,343,902,533,33,2,0,0,0,137,0,10,0,0,116.8,74
2014-08-31 20:00:00,2067,2659,0,0,924,5,0,27,0,0,338,858,854,574,32,1,0,0,0,128,0,8,0,0,117.8,75
2014-08-31 21:00:00,1870,1691,0,0,451,5,0,28,0,0,374,294,868,529,32,3,0,0,0,113,0,9,0,0,117.5,75
2014-08-31 22:00:00,1830,2076,0,0,691,5,0,29,0,0,261,674,847,542,33,2,0,0,0,100,0,9,0,0,118.8,75
