#1
double table1(24,2)   # comment line
      1408924800          0
      1408928400          0
      1408932000          0
      1408935600          0
      1408939200          0
      1408942800          0
      1408946400          0
      1408950000          0
      1408953600          0
      1408957200          0
      1408960800          0
      1408964400          0
      1408968000          0
      1408971600          0
      1408975200          0
      1408978800          0
      1408982400          0
      1408986000          0
      1408989600          0
      1408993200          0
      1408996800          0
      1409000400          0
      1409004000          0
      1409007600          0
      1409011200          0
