#1
double table(24,15)
0.000000000000000000e+00 1.686110798605156447e+02 1.686110798605156447e+02 1.686110798605156447e+02 1.686110798605156447e+02 1.686110798605156447e+02 1.686110798605156447e+02 1.686110798605156447e+02 1.686110798605156447e+02 1.686110798605156447e+02 1.686110798605156447e+02 1.686110798605156447e+02 1.686110798605156447e+02 1.686110798605156447e+02 1.686110798605156447e+02
3.600000000000000000e+03 1.692482924598410534e+02 1.692482924598410534e+02 1.692482924598410534e+02 1.692482924598410534e+02 1.692482924598410534e+02 1.692482924598410534e+02 1.692482924598410534e+02 1.692482924598410534e+02 1.692482924598410534e+02 1.692482924598410534e+02 1.692482924598410534e+02 1.692482924598410534e+02 1.692482924598410534e+02 1.692482924598410534e+02
7.200000000000000000e+03 1.696348002057965800e+02 1.696348002057965800e+02 1.696348002057965800e+02 1.696348002057965800e+02 1.696348002057965800e+02 1.696348002057965800e+02 1.696348002057965800e+02 1.696348002057965800e+02 1.696348002057965800e+02 1.696348002057965800e+02 1.696348002057965800e+02 1.696348002057965800e+02 1.696348002057965800e+02 1.696348002057965800e+02
1.080000000000000000e+04 1.699772686217343960e+02 1.699772686217343960e+02 1.699772686217343960e+02 1.699772686217343960e+02 1.699772686217343960e+02 1.699772686217343960e+02 1.699772686217343960e+02 1.699772686217343960e+02 1.699772686217343960e+02 1.699772686217343960e+02 1.699772686217343960e+02 1.699772686217343960e+02 1.699772686217343960e+02 1.699772686217343960e+02
1.440000000000000000e+04 1.700012656491167604e+02 1.700012656491167604e+02 1.700012656491167604e+02 1.700012656491167604e+02 1.700012656491167604e+02 1.700012656491167604e+02 1.700012656491167604e+02 1.700012656491167604e+02 1.700012656491167604e+02 1.700012656491167604e+02 1.700012656491167604e+02 1.700012656491167604e+02 1.700012656491167604e+02 1.700012656491167604e+02
1.800000000000000000e+04 1.693453301320528226e+02 1.693453301320528226e+02 1.693453301320528226e+02 1.693453301320528226e+02 1.693453301320528226e+02 1.693453301320528226e+02 1.693453301320528226e+02 1.693453301320528226e+02 1.693453301320528226e+02 1.693453301320528226e+02 1.693453301320528226e+02 1.693453301320528226e+02 1.693453301320528226e+02 1.693453301320528226e+02
2.160000000000000000e+04 1.676897506145315049e+02 1.676897506145315049e+02 1.676897506145315049e+02 1.676897506145315049e+02 1.676897506145315049e+02 1.676897506145315049e+02 1.676897506145315049e+02 1.676897506145315049e+02 1.676897506145315049e+02 1.676897506145315049e+02 1.676897506145315049e+02 1.676897506145315049e+02 1.676897506145315049e+02 1.676897506145315049e+02
2.520000000000000000e+04 1.649601414851654795e+02 1.649601414851654795e+02 1.649601414851654795e+02 1.649601414851654795e+02 1.649601414851654795e+02 1.649601414851654795e+02 1.649601414851654795e+02 1.649601414851654795e+02 1.649601414851654795e+02 1.649601414851654795e+02 1.649601414851654795e+02 1.649601414851654795e+02 1.649601414851654795e+02 1.649601414851654795e+02
2.880000000000000000e+04 1.626332297204596102e+02 1.626332297204596102e+02 1.626332297204596102e+02 1.626332297204596102e+02 1.626332297204596102e+02 1.626332297204596102e+02 1.626332297204596102e+02 1.626332297204596102e+02 1.626332297204596102e+02 1.626332297204596102e+02 1.626332297204596102e+02 1.626332297204596102e+02 1.626332297204596102e+02 1.626332297204596102e+02
3.240000000000000000e+04 1.616938127226574409e+02 1.616938127226574409e+02 1.616938127226574409e+02 1.616938127226574409e+02 1.616938127226574409e+02 1.616938127226574409e+02 1.616938127226574409e+02 1.616938127226574409e+02 1.616938127226574409e+02 1.616938127226574409e+02 1.616938127226574409e+02 1.616938127226574409e+02 1.616938127226574409e+02 1.616938127226574409e+02
3.600000000000000000e+04 1.676972506145315549e+02 1.676972506145315549e+02 1.676972506145315549e+02 1.676972506145315549e+02 1.676972506145315549e+02 1.676972506145315549e+02 1.676972506145315549e+02 1.676972506145315549e+02 1.676972506145315549e+02 1.676972506145315549e+02 1.676972506145315549e+02 1.676972506145315549e+02 1.676972506145315549e+02 1.676972506145315549e+02
3.960000000000000000e+04 1.688375557365803274e+02 1.688375557365803274e+02 1.688375557365803274e+02 1.688375557365803274e+02 1.688375557365803274e+02 1.688375557365803274e+02 1.688375557365803274e+02 1.688375557365803274e+02 1.688375557365803274e+02 1.688375557365803274e+02 1.688375557365803274e+02 1.688375557365803274e+02 1.688375557365803274e+02 1.688375557365803274e+02
4.320000000000000000e+04 1.693285068313039403e+02 1.693285068313039403e+02 1.693285068313039403e+02 1.693285068313039403e+02 1.693285068313039403e+02 1.693285068313039403e+02 1.693285068313039403e+02 1.693285068313039403e+02 1.693285068313039403e+02 1.693285068313039403e+02 1.693285068313039403e+02 1.693285068313039403e+02 1.693285068313039403e+02 1.693285068313039403e+02
4.680000000000000000e+04 1.693052861144457779e+02 1.693052861144457779e+02 1.693052861144457779e+02 1.693052861144457779e+02 1.693052861144457779e+02 1.693052861144457779e+02 1.693052861144457779e+02 1.693052861144457779e+02 1.693052861144457779e+02 1.693052861144457779e+02 1.693052861144457779e+02 1.693052861144457779e+02 1.693052861144457779e+02 1.693052861144457779e+02
5.040000000000000000e+04 1.689669853655748000e+02 1.689669853655748000e+02 1.689669853655748000e+02 1.689669853655748000e+02 1.689669853655748000e+02 1.689669853655748000e+02 1.689669853655748000e+02 1.689669853655748000e+02 1.689669853655748000e+02 1.689669853655748000e+02 1.689669853655748000e+02 1.689669853655748000e+02 1.689669853655748000e+02 1.689669853655748000e+02
5.400000000000000000e+04 1.695836984793917850e+02 1.695836984793917850e+02 1.695836984793917850e+02 1.695836984793917850e+02 1.695836984793917850e+02 1.695836984793917850e+02 1.695836984793917850e+02 1.695836984793917850e+02 1.695836984793917850e+02 1.695836984793917850e+02 1.695836984793917850e+02 1.695836984793917850e+02 1.695836984793917850e+02 1.695836984793917850e+02
5.760000000000000000e+04 1.702100896072714420e+02 1.702100896072714420e+02 1.702100896072714420e+02 1.702100896072714420e+02 1.702100896072714420e+02 1.702100896072714420e+02 1.702100896072714420e+02 1.702100896072714420e+02 1.702100896072714420e+02 1.702100896072714420e+02 1.702100896072714420e+02 1.702100896072714420e+02 1.702100896072714420e+02 1.702100896072714420e+02
6.120000000000000000e+04 1.705881984222260144e+02 1.705881984222260144e+02 1.705881984222260144e+02 1.705881984222260144e+02 1.705881984222260144e+02 1.705881984222260144e+02 1.705881984222260144e+02 1.705881984222260144e+02 1.705881984222260144e+02 1.705881984222260144e+02 1.705881984222260144e+02 1.705881984222260144e+02 1.705881984222260144e+02 1.705881984222260144e+02
6.480000000000000000e+04 1.712895955525067109e+02 1.712895955525067109e+02 1.712895955525067109e+02 1.712895955525067109e+02 1.712895955525067109e+02 1.712895955525067109e+02 1.712895955525067109e+02 1.712895955525067109e+02 1.712895955525067109e+02 1.712895955525067109e+02 1.712895955525067109e+02 1.712895955525067109e+02 1.712895955525067109e+02 1.712895955525067109e+02
6.840000000000000000e+04 1.724801131881324068e+02 1.724801131881324068e+02 1.724801131881324068e+02 1.724801131881324068e+02 1.724801131881324068e+02 1.724801131881324068e+02 1.724801131881324068e+02 1.724801131881324068e+02 1.724801131881324068e+02 1.724801131881324068e+02 1.724801131881324068e+02 1.724801131881324068e+02 1.724801131881324068e+02 1.724801131881324068e+02
7.200000000000000000e+04 1.731532738809809757e+02 1.731532738809809757e+02 1.731532738809809757e+02 1.731532738809809757e+02 1.731532738809809757e+02 1.731532738809809757e+02 1.731532738809809757e+02 1.731532738809809757e+02 1.731532738809809757e+02 1.731532738809809757e+02 1.731532738809809757e+02 1.731532738809809757e+02 1.731532738809809757e+02 1.731532738809809757e+02
7.560000000000000000e+04 1.731537998056365666e+02 1.731537998056365666e+02 1.731537998056365666e+02 1.731537998056365666e+02 1.731537998056365666e+02 1.731537998056365666e+02 1.731537998056365666e+02 1.731537998056365666e+02 1.731537998056365666e+02 1.731537998056365666e+02 1.731537998056365666e+02 1.731537998056365666e+02 1.731537998056365666e+02 1.731537998056365666e+02
7.920000000000000000e+04 1.678914571542902934e+02 1.678914571542902934e+02 1.678914571542902934e+02 1.678914571542902934e+02 1.678914571542902934e+02 1.678914571542902934e+02 1.678914571542902934e+02 1.678914571542902934e+02 1.678914571542902934e+02 1.678914571542902934e+02 1.678914571542902934e+02 1.678914571542902934e+02 1.678914571542902934e+02 1.678914571542902934e+02
8.280000000000000000e+04 1.670769027611044635e+02 1.670769027611044635e+02 1.670769027611044635e+02 1.670769027611044635e+02 1.670769027611044635e+02 1.670769027611044635e+02 1.670769027611044635e+02 1.670769027611044635e+02 1.670769027611044635e+02 1.670769027611044635e+02 1.670769027611044635e+02 1.670769027611044635e+02 1.670769027611044635e+02 1.670769027611044635e+02
