#1
double table(24,15)
0.000000000000000000e+00 -3.345594717887154701e+01 -3.345594717887154701e+01 -3.345594717887154701e+01 -3.345594717887154701e+01 -3.345594717887154701e+01 -1.317999999999999972e+01 -3.779999999999999805e+00 -3.345594717887154701e+01 -3.345594717887154701e+01 -3.345594717887154701e+01 -3.345594717887154701e+01 -3.345594717887154701e+01 -1.317999999999999972e+01 -3.779999999999999805e+00
3.600000000000000000e+03 -2.946622328931572454e+01 -2.946622328931572454e+01 -2.946622328931572454e+01 -2.946622328931572454e+01 -2.946622328931572454e+01 -7.780000000000000249e+00 -5.299999999999999822e+00 -2.946622328931572454e+01 -2.946622328931572454e+01 -2.946622328931572454e+01 -2.946622328931572454e+01 -2.946622328931572454e+01 -7.780000000000000249e+00 -5.299999999999999822e+00
7.200000000000000000e+03 -2.963873069227690848e+01 -2.963873069227690848e+01 -2.963873069227690848e+01 -2.963873069227690848e+01 -2.963873069227690848e+01 -9.339999999999999858e+00 -3.020000000000000018e+00 -2.963873069227690848e+01 -2.963873069227690848e+01 -2.963873069227690848e+01 -2.963873069227690848e+01 -2.963873069227690848e+01 -9.339999999999999858e+00 -3.020000000000000018e+00
1.080000000000000000e+04 -2.854403521408563549e+01 -2.854403521408563549e+01 -2.854403521408563549e+01 -2.854403521408563549e+01 -2.854403521408563549e+01 -6.240000000000000213e+00 -3.200000000000000067e-01 -2.854403521408563549e+01 -2.854403521408563549e+01 -2.854403521408563549e+01 -2.854403521408563549e+01 -2.854403521408563549e+01 -6.240000000000000213e+00 -3.200000000000000067e-01
1.440000000000000000e+04 -2.871814005602240627e+01 -2.871814005602240627e+01 -2.871814005602240627e+01 -2.871814005602240627e+01 -2.871814005602240627e+01 -5.379999999999999893e+00 -1.419999999999999929e+00 -2.871814005602240627e+01 -2.871814005602240627e+01 -2.871814005602240627e+01 -2.871814005602240627e+01 -2.871814005602240627e+01 -5.379999999999999893e+00 -1.419999999999999929e+00
1.800000000000000000e+04 -2.733572949179671951e+01 -2.733572949179671951e+01 -2.733572949179671951e+01 -2.733572949179671951e+01 -2.733572949179671951e+01 -3.180000000000000160e+00 -9.599999999999999645e-01 -2.733572949179671951e+01 -2.733572949179671951e+01 -2.733572949179671951e+01 -2.733572949179671951e+01 -2.733572949179671951e+01 -3.180000000000000160e+00 -9.599999999999999645e-01
2.160000000000000000e+04 -2.644400640256101909e+01 -2.644400640256101909e+01 -2.644400640256101909e+01 -2.644400640256101909e+01 -2.644400640256101909e+01 -8.400000000000000355e+00 3.640000000000000124e+00 -2.644400640256101909e+01 -2.644400640256101909e+01 -2.644400640256101909e+01 -2.644400640256101909e+01 -2.644400640256101909e+01 -8.400000000000000355e+00 3.640000000000000124e+00
2.520000000000000000e+04 -2.505683233293317613e+01 -2.505683233293317613e+01 -2.505683233293317613e+01 -2.505683233293317613e+01 -2.505683233293317613e+01 -8.519999999999999574e+00 -8.199999999999999512e-01 -2.505683233293317613e+01 -2.505683233293317613e+01 -2.505683233293317613e+01 -2.505683233293317613e+01 -2.505683233293317613e+01 -8.519999999999999574e+00 -8.199999999999999512e-01
2.880000000000000000e+04 -2.492740296118447674e+01 -2.492740296118447674e+01 -2.492740296118447674e+01 -2.492740296118447674e+01 -2.492740296118447674e+01 -7.000000000000000000e+00 -4.500000000000000000e+00 -2.492740296118447674e+01 -2.492740296118447674e+01 -2.492740296118447674e+01 -2.492740296118447674e+01 -2.492740296118447674e+01 -7.000000000000000000e+00 -4.500000000000000000e+00
3.240000000000000000e+04 -8.167082833133253672e+00 -8.167082833133253672e+00 -8.167082833133253672e+00 -8.167082833133253672e+00 -8.167082833133253672e+00 -3.120000000000000107e+00 -2.240000000000000213e+00 -8.167082833133253672e+00 -8.167082833133253672e+00 -8.167082833133253672e+00 -8.167082833133253672e+00 -8.167082833133253672e+00 -3.120000000000000107e+00 -2.240000000000000213e+00
3.600000000000000000e+04 3.499157743097238438e+01 3.499157743097238438e+01 3.499157743097238438e+01 3.499157743097238438e+01 3.499157743097238438e+01 8.957999999999999829e+01 9.865999999999999659e+01 3.499157743097238438e+01 3.499157743097238438e+01 3.499157743097238438e+01 3.499157743097238438e+01 3.499157743097238438e+01 8.957999999999999829e+01 9.865999999999999659e+01
3.960000000000000000e+04 -6.399988795518207318e+00 -6.399988795518207318e+00 -6.399988795518207318e+00 -6.399988795518207318e+00 -6.399988795518207318e+00 4.361999999999999744e+01 1.340000000000000036e+01 -6.399988795518207318e+00 -6.399988795518207318e+00 -6.399988795518207318e+00 -6.399988795518207318e+00 -6.399988795518207318e+00 4.361999999999999744e+01 1.340000000000000036e+01
4.320000000000000000e+04 -2.122991116446578630e+01 -2.122991116446578630e+01 -2.122991116446578630e+01 -2.122991116446578630e+01 -2.122991116446578630e+01 3.220000000000000284e+01 9.560000000000000497e+00 -2.122991116446578630e+01 -2.122991116446578630e+01 -2.122991116446578630e+01 -2.122991116446578630e+01 -2.122991116446578630e+01 3.220000000000000284e+01 9.560000000000000497e+00
4.680000000000000000e+04 -1.748140536214485863e+01 -1.748140536214485863e+01 -1.748140536214485863e+01 -1.748140536214485863e+01 -1.748140536214485863e+01 3.684000000000000341e+01 1.006000000000000050e+01 -1.748140536214485863e+01 -1.748140536214485863e+01 -1.748140536214485863e+01 -1.748140536214485863e+01 -1.748140536214485863e+01 3.684000000000000341e+01 1.006000000000000050e+01
5.040000000000000000e+04 -2.112533013205282373e+01 -2.112533013205282373e+01 -2.112533013205282373e+01 -2.112533013205282373e+01 -2.112533013205282373e+01 9.199999999999999289e+00 1.962000000000000099e+01 -2.112533013205282373e+01 -2.112533013205282373e+01 -2.112533013205282373e+01 -2.112533013205282373e+01 -2.112533013205282373e+01 9.199999999999999289e+00 1.962000000000000099e+01
5.400000000000000000e+04 -2.424220728291316718e+01 -2.424220728291316718e+01 -2.424220728291316718e+01 -2.424220728291316718e+01 -2.424220728291316718e+01 2.351999999999999957e+01 1.164000000000000057e+01 -2.424220728291316718e+01 -2.424220728291316718e+01 -2.424220728291316718e+01 -2.424220728291316718e+01 -2.424220728291316718e+01 2.351999999999999957e+01 1.164000000000000057e+01
5.760000000000000000e+04 -2.132426570628251383e+01 -2.132426570628251383e+01 -2.132426570628251383e+01 -2.132426570628251383e+01 -2.132426570628251383e+01 2.385999999999999943e+01 1.064000000000000057e+01 -2.132426570628251383e+01 -2.132426570628251383e+01 -2.132426570628251383e+01 -2.132426570628251383e+01 -2.132426570628251383e+01 2.385999999999999943e+01 1.064000000000000057e+01
6.120000000000000000e+04 -2.650725410164065465e+01 -2.650725410164065465e+01 -2.650725410164065465e+01 -2.650725410164065465e+01 -2.650725410164065465e+01 1.685999999999999943e+01 1.840000000000000080e+00 -2.650725410164065465e+01 -2.650725410164065465e+01 -2.650725410164065465e+01 -2.650725410164065465e+01 -2.650725410164065465e+01 1.685999999999999943e+01 1.840000000000000080e+00
6.480000000000000000e+04 -2.378008163265305797e+01 -2.378008163265305797e+01 -2.378008163265305797e+01 -2.378008163265305797e+01 -2.378008163265305797e+01 8.039999999999999147e+00 3.839999999999999858e+00 -2.378008163265305797e+01 -2.378008163265305797e+01 -2.378008163265305797e+01 -2.378008163265305797e+01 -2.378008163265305797e+01 8.039999999999999147e+00 3.839999999999999858e+00
6.840000000000000000e+04 -2.018546778711484535e+01 -2.018546778711484535e+01 -2.018546778711484535e+01 -2.018546778711484535e+01 -2.018546778711484535e+01 1.300000000000000000e+01 1.549019607843137303e+00 -2.018546778711484535e+01 -2.018546778711484535e+01 -2.018546778711484535e+01 -2.018546778711484535e+01 -2.018546778711484535e+01 1.300000000000000000e+01 1.549019607843137303e+00
7.200000000000000000e+04 -1.885683233293317329e+01 -1.885683233293317329e+01 -1.885683233293317329e+01 -1.885683233293317329e+01 -1.885683233293317329e+01 1.124000000000000021e+01 -4.396078431372549034e+01 -1.885683233293317329e+01 -1.885683233293317329e+01 -1.885683233293317329e+01 -1.885683233293317329e+01 -1.885683233293317329e+01 1.124000000000000021e+01 -4.396078431372549034e+01
7.560000000000000000e+04 -1.683335734293717323e+01 -1.683335734293717323e+01 -1.683335734293717323e+01 -1.683335734293717323e+01 -1.683335734293717323e+01 -1.419999999999999929e+00 -4.631372549019607732e+01 -1.683335734293717323e+01 -1.683335734293717323e+01 -1.683335734293717323e+01 -1.683335734293717323e+01 -1.683335734293717323e+01 -1.419999999999999929e+00 -4.631372549019607732e+01
7.920000000000000000e+04 -2.616902280912365342e+01 -2.616902280912365342e+01 -2.616902280912365342e+01 -2.616902280912365342e+01 -2.616902280912365342e+01 -9.699999999999999289e+00 -6.005882352941176805e+01 -2.616902280912365342e+01 -2.616902280912365342e+01 -2.616902280912365342e+01 -2.616902280912365342e+01 -2.616902280912365342e+01 -9.699999999999999289e+00 -6.005882352941176805e+01
8.280000000000000000e+04 -2.847103161264505644e+01 -2.847103161264505644e+01 -2.847103161264505644e+01 -2.847103161264505644e+01 -2.847103161264505644e+01 -1.106122448979591866e+01 -6.433333333333332860e+01 -2.847103161264505644e+01 -2.847103161264505644e+01 -2.847103161264505644e+01 -2.847103161264505644e+01 -2.847103161264505644e+01 -1.106122448979591866e+01 -6.433333333333332860e+01
