Date/Time,WSHP_A2,WSHP_C,WSHP_D,WSHP_F,WSHP_G1,WSHP_G2,WSHP_A1
1408924800,1132.084327,705.4271295,216.9730562,930.5288427,869.09201,1700.272401,284.0281683
1408928400,784.9135602,696.650052,315.5193199,659.5812531,833.8726454,1915.030005,242.9614333
1408932000,645.8484014,748.7913178,353.6933802,1068.397272,894.2363264,1678.237207,355.2867559
1408935600,624.2576823,748.1327175,320.3833008,720.6385619,897.8379033,1530.200619,388.7579871
1408939200,559.2479464,771.0171378,253.2011631,1006.960422,905.5127018,1414.63387,386.4150015
1408942800,543.0573882,746.6665161,192.7759164,607.3761507,882.7300555,1552.261199,298.8248755
1408946400,586.318809,739.0159415,173.7301363,634.1405433,887.7212287,1287.274785,214.0242283
1408950000,486.981192,713.5767815,208.6303355,1430.653245,877.3970055,1555.092185,393.9534354
1408953600,617.8845764,701.656185,364.4412351,2062.581652,920.6734657,1609.840477,1077.493845
1408957200,675.0564161,694.449668,2127.342548,3349.753689,1074.429035,1758.682169,1024.566472
1408960800,340.664327,770.3174326,1127.28484,4505.548092,1222.953222,2152.736635,944.9190251
1408964400,376.6137428,877.3913616,1782.430649,4635.358037,1265.344966,2275.818663,996.7422948
1408968000,581.9318517,1041.724406,1534.793242,4488.743422,1214.089934,2919.426237,1160.547324
1408971600,830.6703667,1162.052009,2576.302627,4872.775504,1252.462776,2635.635117,1252.431315
1408975200,909.3490479,1165.32945,2491.533494,5296.00916,1245.617816,2954.322605,1236.967726
1408978800,965.4969163,1223.550603,3012.448143,5308.525343,1325.699841,2986.247609,1336.018815
1408982400,1022.644031,1189.863174,2783.443683,4475.528451,1317.206327,2972.81979,1233.945819
1408986000,1439.459579,1247.440642,2317.323115,2699.075329,1331.102028,2960.685435,1058.960877
1408989600,1736.084801,1311.468604,16.52155879,929.4031499,1281.226275,2916.107907,1203.255531
1408993200,1581.053138,1249.808343,0,1142.304128,1139.246014,2915.608486,904.4218569
1408996800,1675.40077,1060.573928,123.6610059,1093.339408,904.7795357,2855.64477,965.6714217
1409000400,1612.243347,959.8857848,236.2977745,875.3205772,796.5256349,2459.208476,574.2312684
1409004000,1517.990953,971.2150582,221.4297716,944.1580965,743.9984563,2532.692177,281.9347393
1409007600,1358.949529,887.5814304,396.571871,696.6527812,738.8365076,2798.180646,140.7692216
1409011200,812.7293197,654.465488,284.6097057,916.5914794,802.1314484,1758.061046,22.1178676
1409014800,697.6063652,344.1937043,351.1108548,1089.490023,743.3222929,1271.13858,1.798016365
1409018400,646.85925,683.7239833,324.4817109,547.3709454,763.7803168,1481.208031,0.799112922
1409022000,627.3357159,642.9697795,242.0073175,765.7435549,829.7610918,1514.392053,30.09585901
1409025600,559.6280102,613.4499726,210.0155375,748.4514495,791.2611956,1266.068815,51.04151666
1409029200,605.6522325,722.0341148,181.0284742,670.0333207,819.7976019,1137.364718,229.9042716
1409032800,522.650182,704.0114369,172.5122775,928.3899965,827.9320143,1376.184602,0
1409036400,569.7889856,442.1731877,98.69072963,928.7715182,833.3742711,1375.202754,412.3091486
1409040000,560.203115,667.142698,323.5872593,1763.040478,801.2517777,1199.834079,1548.991414
1409043600,604.5192557,469.8993879,2027.366556,3365.779198,921.577997,1722.405974,1024.460035
1409047200,367.3388205,802.2117525,913.046349,4185.811061,1024.464372,2238.747218,1283.821351
1409050800,378.9785778,904.3047609,1845.008904,4772.258359,986.6903561,2380.182549,1151.965329
1409054400,560.1833201,1054.491312,1410.281856,5190.294311,1115.078685,2961.818376,999.9582898
1409058000,658.8610258,1160.921476,2434.345117,5204.299916,1239.860652,3300.229657,1290.343041
1409061600,991.372643,1255.285217,2168.449139,5147.448721,1365.834464,3092.391584,1393.124568
1409065200,1040.228951,1223.899052,2608.806059,5046.046814,1350.629848,3232.56641,1367.501868
1409068800,979.7515789,1135.265432,2848.82585,4705.363109,1236.365646,2970.294513,1212.299342
1409072400,1412.384871,1255.923408,2255.49018,2145.790708,1404.893908,3393.534458,996.9617964
1409076000,1679.718203,1220.850411,465.1925319,853.9806266,1392.49234,3362.915033,1196.510116
1409079600,1575.401751,1151.935828,0,705.6457637,1152.993382,3373.470236,933.0338692
1409083200,1366.865784,1138.390068,123.6610059,1080.905755,880.3760752,2934.065934,1031.461891
1409086800,1283.954122,1078.900807,22.75951102,1041.813881,753.2814621,2599.52273,862.5976277
1409090400,1232.694121,979.9328186,0,924.9102856,668.7517249,2319.90267,273.9534243
1409094000,1124.363217,853.2008362,310.6247806,873.5622393,690.1590995,1699.496081,153.1293974
1409097600,725.1465696,648.5017538,176.74316,917.9932453,748.5146978,1288.976533,20.02819841
1409101200,671.7484371,684.6336445,184.276996,1066.837824,720.9778844,1662.885164,1.154511205
1409104800,614.1280702,392.4667805,289.9403022,668.9938827,766.6450288,1220.72716,0.504059045
1409108400,596.113104,718.3752624,169.5068912,976.1269574,789.259321,1260.583341,27.40299152
1409112000,660.8051463,592.1922748,234.5763434,659.8137539,790.5216792,1242.867417,45.72226258
1409115600,547.7919794,674.5426904,175.9600651,675.5868846,779.6240179,1218.334947,5.184313824
1409119200,570.3982235,701.8995557,172.3411288,903.1649695,712.9610494,1183.564749,0
1409122800,545.9416986,443.593105,196.1608329,1525.66029,677.3073109,1504.147806,250.8394685
1409126400,525.9532035,475.810541,314.4036195,2085.303403,790.9545124,1130.458815,1536.622008
1409130000,598.1927773,656.209172,2188.183973,2136.674624,989.2177569,1350.175943,1044.892666
1409133600,746.3744484,780.1970307,2279.806688,3948.26799,1059.936429,2292.856056,1181.533161
1409137200,839.8259857,968.3231581,2513.039057,5091.52378,1023.262083,2631.806643,1028.012939
1409140800,899.5785972,1082.275136,2439.100517,5217.893567,1092.425032,2508.406429,1227.744542
1409144400,1017.757679,1229.611009,2478.963587,5079.213249,1256.368431,2958.502198,1388.920001
1409148000,1509.570864,1148.684393,2830.352363,5089.083462,1243.572865,2607.298916,1285.29177
1409151600,1421.92053,1199.821626,2617.392969,4709.178301,1264.09546,2992.148069,1352.258476
1409155200,1396.53223,1218.144253,2783.443683,3791.635116,1331.943459,4000.169016,1094.579072
1409158800,1325.007274,1192.685272,1545.184931,2002.505327,1333.539571,3841.754533,969.7413342
1409162400,1592.956096,1258.311102,41.72891195,797.3795729,1391.259378,3727.940857,1247.53934
1409166000,1706.271886,1245.085902,0,228.375886,1344.06803,3713.204203,976.5964972
1409169600,1612.758257,1138.456603,110.4060139,824.6332619,1013.388067,3773.098147,998.4366404
1409173200,1457.986862,1006.07013,243.8593467,1039.616724,947.7897659,2293.598341,493.9335738
1409176800,1384.346196,946.7972484,230.2644476,944.2831829,760.1962285,2307.47098,347.78474
1409180400,1334.499673,868.211421,384.9653338,813.2650452,696.1033642,2255.589245,142.9785508
1409184000,883.0177705,657.1736688,289.1288802,937.345316,791.2568436,1878.130108,22.1178676
1409187600,708.7330029,677.5588925,312.1017859,1104.217397,816.4542075,1893.383729,1.294752658
1409191200,605.1946941,378.3642175,298.6268643,943.8287416,814.0962459,1802.643269,0.799112922
1409194800,612.7635037,474.7114075,236.3100015,798.071006,781.9918344,1523.207875,30.09585901
1409198400,547.5010089,644.7937244,187.5322223,886.3361028,738.0753201,1483.988301,54.92723207
1409202000,527.6053802,498.5719499,155.2426552,740.8821405,727.7405823,1328.132529,4.740309154
1409205600,507.4392812,599.2242694,173.2898389,958.4392519,736.6841187,1605.238946,0
1409209200,550.7254855,401.9584476,150.3531364,960.3007324,756.0393157,1292.67498,183.7600774
1409212800,482.4594311,453.4205645,320.4577362,2118.316477,804.1934635,740.1289385,1548.991414
1409216400,522.1009753,671.5588378,2035.179973,2812.274901,953.6308797,1332.894385,1044.81963
1409220000,732.9388939,520.8277098,1177.819885,4178.215488,1213.212982,2131.056547,1103.562602
1409223600,832.370612,1047.877352,1877.000921,4852.016336,895.3176764,2405.659412,1141.465811
1409227200,836.4689533,1218.90345,1745.913673,5119.804059,946.6405219,2608.755756,1155.169517
1409230800,757.0819865,1193.425789,1491.099457,5062.067343,1103.850937,2629.822025,1330.312943
1409234400,1070.125637,1232.576852,1558.628753,4972.303825,1279.996155,2843.143431,1242.172888
1409238000,1180.485126,1340.392111,1577.651075,4333.951026,887.945284,2675.692838,1348.190433
1409241600,1246.404888,1669.951212,1403.888088,3506.181514,1230.737795,2825.324738,1226.183361
1409245200,1221.879955,1711.209598,2402.274192,1619.395454,1415.688627,3004.087509,1091.626524
1409248800,1216.368224,1556.080117,35.10293142,786.719059,1370.308478,2816.743049,1182.343079
1409252400,1280.193376,1241.123248,30.87667603,880.8153902,1303.653676,2916.085425,981.9746351
1409256000,1385.173127,967.9985951,244.9113168,741.931254,774.0771094,2743.514385,862.8593528
1409259600,1303.306454,862.9965249,335.0633836,764.1694878,890.6531802,2097.003901,553.2263139
1409263200,1211.655921,914.3922417,337.0263916,785.0098041,822.5762361,2728.281387,123.5708455
1409266800,1055.605423,846.5147082,408.9665669,713.064285,758.0414898,2629.177198,124.6811994
1409270400,700.4922523,689.1473114,291.7241743,986.6364696,871.3119492,1448.625289,25.16536307
1409274000,641.8597909,647.2461875,377.0172672,655.3523145,875.5346517,1225.598693,1.798016365
1409277600,625.5139778,682.9782758,351.2131167,1077.825749,865.0315656,1224.015689,0.799112922
1409281200,644.8767441,525.5981968,321.9035805,803.5205514,832.2511566,1192.162395,27.40299152
1409284800,578.7460912,689.5896288,225.6323364,596.2838657,828.6028024,1162.729053,45.72226258
1409288400,567.7090597,723.9702853,181.2039239,835.3060917,850.822809,1156.985891,5.184313824
1409292000,607.9047332,687.5602823,173.4629778,929.3836295,856.3046233,1190.273432,144.9005007
1409295600,494.9107004,680.1564574,178.0786292,608.6798512,868.1304949,1113.387356,421.1607742
1409299200,631.5569623,555.9600779,362.3296421,2343.041618,880.6641499,1330.718279,1542.996665
1409302800,815.0957417,727.5922938,2259.081683,2879.856629,1014.604243,1891.552704,1181.422574
1409306400,709.7191043,627.7274455,1834.304759,3771.048398,1025.255295,1243.509403,937.6036666
1409310000,751.650496,656.541033,2392.725731,4279.250361,1103.854198,1229.684374,1496.693222
1409313600,766.4185039,1050.089274,2416.202079,4831.222045,1251.002755,1960.304986,1875.742921
1409317200,825.4302952,1123.059887,2575.92241,5025.453409,1259.85866,2493.227544,1348.242793
1409320800,1046.448282,1195.507813,2383.672644,4919.391656,1243.232001,2650.742719,1760.476015
1409324400,1205.334834,1080.248092,2860.151436,5020.203048,1304.899494,3799.407417,1178.924784
1409328000,1308.375076,1054.51952,2817.389012,4137.165814,1296.218863,3293.915837,969.2867398
1409331600,1412.994118,1218.043741,2220.089108,2256.633899,1390.116371,3365.465361,878.5542834
1409335200,1278.580502,1127.634975,191.2906383,954.1318693,1154.970734,3264.591225,1106.486899
1409338800,1262.521874,1091.703535,0,306.5094578,1092.566147,2804.791097,988.3313521
1409342400,1467.396728,974.987166,110.4060139,988.1828878,940.600352,2774.520244,936.3009379
1409346000,1340.347178,922.9837716,207.0519911,747.855907,802.3752769,2358.724439,426.9368918
1409349600,1182.706287,843.968622,122.5415929,572.867327,810.7993677,2128.08341,80.19873442
1409353200,1098.400385,727.6195562,447.712878,629.1999764,719.1540767,1930.658234,55.73781845
1409356800,810.8623038,610.9101229,326.7256806,1016.637724,713.0477148,1495.866956,36.70120175
1409360400,771.1325294,455.6800042,286.5316442,959.9727725,719.6471936,1800.119798,2.372314493
1409364000,680.7999528,401.9562948,264.4680686,922.630835,738.7283985,1313.748513,0.464730856
1409367600,611.7054764,551.1800613,194.3118042,937.0066489,779.2439193,1432.978234,32.49446195
1409371200,603.303224,349.1811908,139.8180526,744.8857368,764.0779406,1437.089513,56.53520618
1409374800,575.1951294,569.6266919,143.658614,746.0663381,794.1061872,1531.96606,0
1409378400,524.5305438,642.8265491,170.5082947,957.5249393,779.8291166,1238.595093,0
1409382000,501.081889,476.1867979,202.4629012,1481.014135,768.3067597,1218.424566,219.7602017
1409385600,476.2891743,456.1265745,322.0141965,937.0401573,807.8703098,1158.860914,1548.991414
1409389200,619.0854341,689.9883468,2193.377997,3510.82063,881.5100225,1780.927318,1137.843132
1409392800,769.3726629,539.1166407,1405.582089,4053.779996,923.3004797,2133.703414,1582.380541
1409396400,859.531102,991.8087692,2952.210813,4605.178823,1010.76469,2539.417652,1245.397677
1409400000,1104.647852,1110.02372,2690.156289,5093.517024,1151.999885,2657.891753,1229.796835
1409403600,1314.440505,1197.829721,2276.343445,4981.909726,1072.266562,2706.153172,1332.506247
1409407200,1630.751162,1225.624549,2276.846312,4872.295184,1210.900033,3080.975205,1359.066893
1409410800,1473.547665,1229.381156,2669.152205,3345.433106,1136.988383,3701.297938,1314.399702
1409414400,1557.493845,1313.928064,2790.983621,2831.066611,1162.412977,4140.830097,1142.704396
1409418000,1571.291238,1255.450125,2248.667136,1861.401954,1182.653071,4879.961327,978.212903
1409421600,1454.07166,1131.87226,0,539.4515719,1042.17454,4122.283518,730.6008817
1409425200,1249.121858,1167.855159,0,515.4295097,936.3426894,3164.810649,599.999721
1409428800,1361.562132,932.6495368,25.39678932,467.1920191,1047.548761,3203.465974,390.0748792
1409432400,1065.628669,941.3033154,0,313.9133024,720.2421767,2045.098585,475.177911
1409436000,1075.837947,745.3896228,0,515.3034957,588.5846344,1311.624628,458.646794
1409439600,991.1169699,736.573498,316.0839459,538.0313452,554.0332088,1174.782229,458.6153136
1409443200,821.9528217,619.045299,114.6640793,427.5869905,737.6992625,1244.725956,341.2312112
1409446800,863.992965,879.7751226,6.066266615,155.8819676,701.4061281,1389.662191,347.7435062
1409450400,751.9923679,791.7148618,0,679.8551556,708.9981004,1389.468203,79.29455354
1409454000,638.2684983,696.3546183,107.8768056,189.2256897,748.265595,1389.48753,281.5679236
1409457600,506.0658633,780.8595855,88.76178932,278.3448387,731.4940053,1444.002283,172.9900823
1409461200,615.3517866,715.389372,149.2876452,714.6631293,738.6084919,1399.462528,68.11613789
1409464800,509.5480015,143.0197513,215.426566,477.3450183,737.924871,1375.881982,0
1409468400,551.7315608,188.6338268,15.54836982,494.0706055,768.2480312,1372.521034,0
1409472000,526.0859327,119.9537744,270.4708637,725.6727617,792.7839096,1455.46314,1340.560211
1409475600,760.0305946,684.8430095,2566.371925,419.3721186,858.2720278,2111.429691,1341.380967
1409479200,903.2725229,609.9759637,1071.790531,1156.567712,913.3323605,2849.661274,963.6611091
1409482800,1058.669634,1096.494476,1810.844755,1233.684272,1016.02402,3177.48563,939.5280587
1409486400,1623.799574,434.7872608,2427.672393,1383.574587,1159.951606,3414.504015,1070.386162
1409490000,1492.885408,1198.681382,2441.518965,1497.785381,1259.172946,3843.194939,1179.063406
1409493600,1475.064118,653.7231221,2311.093609,1317.435038,1243.294508,4295.166471,1142.68285
1409497200,1650.642014,1155.068422,2932.114715,1497.275069,1220.020224,4303.611207,995.6590058
1409500800,1595.408659,1019.323203,2791.215891,1295.395146,1127.890856,3727.362507,613.4612365
1409504400,1690.936246,1198.547635,2136.88225,1948.040817,1240.522255,3689.228061,320.632795
1409508000,1565.937235,482.3520424,0,0,987.1652431,1852.132632,0
1409511600,1594.941245,316.9912812,462.3881794,0,873.2458556,1950.698512,0
1409515200,1698.348115,109.7415632,0,0,924.7897853,1500.523935,0
1409518800,1650.940841,338.7563736,0,0,702.402532,1450.526794,0
1409522400,1654.982229,0,0,0,616.3504955,1455.908904,0
1409526000,1493.317656,252.8456305,0,0,632.3648758,1467.011218,0
