#1
double table1(168,2)   # comment line
      1408924800          1700.272401
      1408928400          1915.030005
      1408932000          1678.237207
      1408935600          1530.200619
      1408939200          1414.63387
      1408942800          1552.261199
      1408946400          1287.274785
      1408950000          1555.092185
      1408953600          1609.840477
      1408957200          1758.682169
      1408960800          2152.736635
      1408964400          2275.818663
      1408968000          2919.426237
      1408971600          2635.635117
      1408975200          2954.322605
      1408978800          2986.247609
      1408982400          2972.81979
      1408986000          2960.685435
      1408989600          2916.107907
      1408993200          2915.608486
      1408996800          2855.64477
      1409000400          2459.208476
      1409004000          2532.692177
      1409007600          2798.180646
      1409011200          1758.061046
      1409014800          1271.13858
      1409018400          1481.208031
      1409022000          1514.392053
      1409025600          1266.068815
      1409029200          1137.364718
      1409032800          1376.184602
      1409036400          1375.202754
      1409040000          1199.834079
      1409043600          1722.405974
      1409047200          2238.747218
      1409050800          2380.182549
      1409054400          2961.818376
      1409058000          3300.229657
      1409061600          3092.391584
      1409065200          3232.56641
      1409068800          2970.294513
      1409072400          3393.534458
      1409076000          3362.915033
      1409079600          3373.470236
      1409083200          2934.065934
      1409086800          2599.52273
      1409090400          2319.90267
      1409094000          1699.496081
      1409097600          1288.976533
      1409101200          1662.885164
      1409104800          1220.72716
      1409108400          1260.583341
      1409112000          1242.867417
      1409115600          1218.334947
      1409119200          1183.564749
      1409122800          1504.147806
      1409126400          1130.458815
      1409130000          1350.175943
      1409133600          2292.856056
      1409137200          2631.806643
      1409140800          2508.406429
      1409144400          2958.502198
      1409148000          2607.298916
      1409151600          2992.148069
      1409155200          4000.169016
      1409158800          3841.754533
      1409162400          3727.940857
      1409166000          3713.204203
      1409169600          3773.098147
      1409173200          2293.598341
      1409176800          2307.47098
      1409180400          2255.589245
      1409184000          1878.130108
      1409187600          1893.383729
      1409191200          1802.643269
      1409194800          1523.207875
      1409198400          1483.988301
      1409202000          1328.132529
      1409205600          1605.238946
      1409209200          1292.67498
      1409212800          740.1289385
      1409216400          1332.894385
      1409220000          2131.056547
      1409223600          2405.659412
      1409227200          2608.755756
      1409230800          2629.822025
      1409234400          2843.143431
      1409238000          2675.692838
      1409241600          2825.324738
      1409245200          3004.087509
      1409248800          2816.743049
      1409252400          2916.085425
      1409256000          2743.514385
      1409259600          2097.003901
      1409263200          2728.281387
      1409266800          2629.177198
      1409270400          1448.625289
      1409274000          1225.598693
      1409277600          1224.015689
      1409281200          1192.162395
      1409284800          1162.729053
      1409288400          1156.985891
      1409292000          1190.273432
      1409295600          1113.387356
      1409299200          1330.718279
      1409302800          1891.552704
      1409306400          1243.509403
      1409310000          1229.684374
      1409313600          1960.304986
      1409317200          2493.227544
      1409320800          2650.742719
      1409324400          3799.407417
      1409328000          3293.915837
      1409331600          3365.465361
      1409335200          3264.591225
      1409338800          2804.791097
      1409342400          2774.520244
      1409346000          2358.724439
      1409349600          2128.08341
      1409353200          1930.658234
      1409356800          1495.866956
      1409360400          1800.119798
      1409364000          1313.748513
      1409367600          1432.978234
      1409371200          1437.089513
      1409374800          1531.96606
      1409378400          1238.595093
      1409382000          1218.424566
      1409385600          1158.860914
      1409389200          1780.927318
      1409392800          2133.703414
      1409396400          2539.417652
      1409400000          2657.891753
      1409403600          2706.153172
      1409407200          3080.975205
      1409410800          3701.297938
      1409414400          4140.830097
      1409418000          4879.961327
      1409421600          4122.283518
      1409425200          3164.810649
      1409428800          3203.465974
      1409432400          2045.098585
      1409436000          1311.624628
      1409439600          1174.782229
      1409443200          1244.725956
      1409446800          1389.662191
      1409450400          1389.468203
      1409454000          1389.48753
      1409457600          1444.002283
      1409461200          1399.462528
      1409464800          1375.881982
      1409468400          1372.521034
      1409472000          1455.46314
      1409475600          2111.429691
      1409479200          2849.661274
      1409482800          3177.48563
      1409486400          3414.504015
      1409490000          3843.194939
      1409493600          4295.166471
      1409497200          4303.611207
      1409500800          3727.362507
      1409504400          3689.228061
      1409508000          1852.132632
      1409511600          1950.698512
      1409515200          1500.523935
      1409518800          1450.526794
      1409522400          1455.908904
      1409526000          1467.011218
