#1
double table(48,15)
0.000000000000000000e+00 8.303207843137255395e+01 8.303207843137255395e+01 8.303207843137255395e+01 8.303207843137255395e+01 8.303207843137255395e+01 8.390196078431372939e+01 8.276470588235294201e+01 8.303207843137255395e+01 8.303207843137255395e+01 8.303207843137255395e+01 8.303207843137255395e+01 8.303207843137255395e+01 8.390196078431372939e+01 8.276470588235294201e+01
3.600000000000000000e+03 8.303207843137255395e+01 8.303207843137255395e+01 8.303207843137255395e+01 8.303207843137255395e+01 8.303207843137255395e+01 8.390196078431372939e+01 8.276470588235294201e+01 8.303207843137255395e+01 8.303207843137255395e+01 8.303207843137255395e+01 8.303207843137255395e+01 8.303207843137255395e+01 8.390196078431372939e+01 8.276470588235294201e+01
3.600000000000000000e+03 8.226415686274508232e+01 8.226415686274508232e+01 8.226415686274508232e+01 8.226415686274508232e+01 8.226415686274508232e+01 8.145098039215686470e+01 8.250980392156863275e+01 8.226415686274508232e+01 8.226415686274508232e+01 8.226415686274508232e+01 8.226415686274508232e+01 8.226415686274508232e+01 8.145098039215686470e+01 8.250980392156863275e+01
7.200000000000000000e+03 8.226415686274508232e+01 8.226415686274508232e+01 8.226415686274508232e+01 8.226415686274508232e+01 8.226415686274508232e+01 8.145098039215686470e+01 8.250980392156863275e+01 8.226415686274508232e+01 8.226415686274508232e+01 8.226415686274508232e+01 8.226415686274508232e+01 8.226415686274508232e+01 8.145098039215686470e+01 8.250980392156863275e+01
7.200000000000000000e+03 8.180188235294117760e+01 8.180188235294117760e+01 8.180188235294117760e+01 8.180188235294117760e+01 8.180188235294117760e+01 8.096078431372548323e+01 8.209803921568627061e+01 8.180188235294117760e+01 8.180188235294117760e+01 8.180188235294117760e+01 8.180188235294117760e+01 8.180188235294117760e+01 8.096078431372548323e+01 8.209803921568627061e+01
1.080000000000000000e+04 8.180188235294117760e+01 8.180188235294117760e+01 8.180188235294117760e+01 8.180188235294117760e+01 8.180188235294117760e+01 8.096078431372548323e+01 8.209803921568627061e+01 8.180188235294117760e+01 8.180188235294117760e+01 8.180188235294117760e+01 8.180188235294117760e+01 8.180188235294117760e+01 8.096078431372548323e+01 8.209803921568627061e+01
1.080000000000000000e+04 8.149850980392156430e+01 8.149850980392156430e+01 8.149850980392156430e+01 8.149850980392156430e+01 8.149850980392156430e+01 8.060784313725490335e+01 8.174509803921569073e+01 8.149850980392156430e+01 8.149850980392156430e+01 8.149850980392156430e+01 8.149850980392156430e+01 8.149850980392156430e+01 8.060784313725490335e+01 8.174509803921569073e+01
1.440000000000000000e+04 8.149850980392156430e+01 8.149850980392156430e+01 8.149850980392156430e+01 8.149850980392156430e+01 8.149850980392156430e+01 8.060784313725490335e+01 8.174509803921569073e+01 8.149850980392156430e+01 8.149850980392156430e+01 8.149850980392156430e+01 8.149850980392156430e+01 8.149850980392156430e+01 8.060784313725490335e+01 8.174509803921569073e+01
1.440000000000000000e+04 8.106423529411765116e+01 8.106423529411765116e+01 8.106423529411765116e+01 8.106423529411765116e+01 8.106423529411765116e+01 8.039215686274509665e+01 8.170588235294117396e+01 8.106423529411765116e+01 8.106423529411765116e+01 8.106423529411765116e+01 8.106423529411765116e+01 8.106423529411765116e+01 8.039215686274509665e+01 8.170588235294117396e+01
1.800000000000000000e+04 8.106423529411765116e+01 8.106423529411765116e+01 8.106423529411765116e+01 8.106423529411765116e+01 8.106423529411765116e+01 8.039215686274509665e+01 8.170588235294117396e+01 8.106423529411765116e+01 8.106423529411765116e+01 8.106423529411765116e+01 8.106423529411765116e+01 8.106423529411765116e+01 8.039215686274509665e+01 8.170588235294117396e+01
1.800000000000000000e+04 8.114235294117648323e+01 8.114235294117648323e+01 8.114235294117648323e+01 8.114235294117648323e+01 8.114235294117648323e+01 8.186274509803921262e+01 8.133333333333332860e+01 8.114235294117648323e+01 8.114235294117648323e+01 8.114235294117648323e+01 8.114235294117648323e+01 8.114235294117648323e+01 8.186274509803921262e+01 8.133333333333332860e+01
2.160000000000000000e+04 8.114235294117648323e+01 8.114235294117648323e+01 8.114235294117648323e+01 8.114235294117648323e+01 8.114235294117648323e+01 8.186274509803921262e+01 8.133333333333332860e+01 8.114235294117648323e+01 8.114235294117648323e+01 8.114235294117648323e+01 8.114235294117648323e+01 8.114235294117648323e+01 8.186274509803921262e+01 8.133333333333332860e+01
2.160000000000000000e+04 8.194985514205681909e+01 8.194985514205681909e+01 8.194985514205681909e+01 8.194985514205681909e+01 8.194985514205681909e+01 8.472549019607842524e+01 8.162745098039215463e+01 8.194985514205681909e+01 8.194985514205681909e+01 8.194985514205681909e+01 8.194985514205681909e+01 8.194985514205681909e+01 8.472549019607842524e+01 8.162745098039215463e+01
2.520000000000000000e+04 8.194985514205681909e+01 8.194985514205681909e+01 8.194985514205681909e+01 8.194985514205681909e+01 8.194985514205681909e+01 8.472549019607842524e+01 8.162745098039215463e+01 8.194985514205681909e+01 8.194985514205681909e+01 8.194985514205681909e+01 8.194985514205681909e+01 8.194985514205681909e+01 8.472549019607842524e+01 8.162745098039215463e+01
2.520000000000000000e+04 8.473390796318527407e+01 8.473390796318527407e+01 8.473390796318527407e+01 8.473390796318527407e+01 8.473390796318527407e+01 8.992156862745098067e+01 8.252941176470588402e+01 8.473390796318527407e+01 8.473390796318527407e+01 8.473390796318527407e+01 8.473390796318527407e+01 8.473390796318527407e+01 8.992156862745098067e+01 8.252941176470588402e+01
2.880000000000000000e+04 8.473390796318527407e+01 8.473390796318527407e+01 8.473390796318527407e+01 8.473390796318527407e+01 8.473390796318527407e+01 8.992156862745098067e+01 8.252941176470588402e+01 8.473390796318527407e+01 8.473390796318527407e+01 8.473390796318527407e+01 8.473390796318527407e+01 8.473390796318527407e+01 8.992156862745098067e+01 8.252941176470588402e+01
2.880000000000000000e+04 9.184940536214485007e+01 9.184940536214485007e+01 9.184940536214485007e+01 9.184940536214485007e+01 9.184940536214485007e+01 9.394117647058823195e+01 9.637254901960784537e+01 9.184940536214485007e+01 9.184940536214485007e+01 9.184940536214485007e+01 9.184940536214485007e+01 9.184940536214485007e+01 9.394117647058823195e+01 9.637254901960784537e+01
3.240000000000000000e+04 9.184940536214485007e+01 9.184940536214485007e+01 9.184940536214485007e+01 9.184940536214485007e+01 9.184940536214485007e+01 9.394117647058823195e+01 9.637254901960784537e+01 9.184940536214485007e+01 9.184940536214485007e+01 9.184940536214485007e+01 9.184940536214485007e+01 9.184940536214485007e+01 9.394117647058823195e+01 9.637254901960784537e+01
3.240000000000000000e+04 9.723276470588234588e+01 9.723276470588234588e+01 9.723276470588234588e+01 9.723276470588234588e+01 9.723276470588234588e+01 9.680392156862744457e+01 1.065769230769230802e+02 9.723276470588234588e+01 9.723276470588234588e+01 9.723276470588234588e+01 9.723276470588234588e+01 9.723276470588234588e+01 9.680392156862744457e+01 1.065769230769230802e+02
3.600000000000000000e+04 9.723276470588234588e+01 9.723276470588234588e+01 9.723276470588234588e+01 9.723276470588234588e+01 9.723276470588234588e+01 9.680392156862744457e+01 1.065769230769230802e+02 9.723276470588234588e+01 9.723276470588234588e+01 9.723276470588234588e+01 9.723276470588234588e+01 9.723276470588234588e+01 9.680392156862744457e+01 1.065769230769230802e+02
3.600000000000000000e+04 9.982459863945578604e+01 9.982459863945578604e+01 9.982459863945578604e+01 9.982459863945578604e+01 9.982459863945578604e+01 9.839215686274509665e+01 1.074807692307692264e+02 9.982459863945578604e+01 9.982459863945578604e+01 9.982459863945578604e+01 9.982459863945578604e+01 9.982459863945578604e+01 9.839215686274509665e+01 1.074807692307692264e+02
3.960000000000000000e+04 9.982459863945578604e+01 9.982459863945578604e+01 9.982459863945578604e+01 9.982459863945578604e+01 9.982459863945578604e+01 9.839215686274509665e+01 1.074807692307692264e+02 9.982459863945578604e+01 9.982459863945578604e+01 9.982459863945578604e+01 9.982459863945578604e+01 9.982459863945578604e+01 9.839215686274509665e+01 1.074807692307692264e+02
3.960000000000000000e+04 9.958681552621048638e+01 9.958681552621048638e+01 9.958681552621048638e+01 9.958681552621048638e+01 9.958681552621048638e+01 9.896078431372548323e+01 1.056923076923076934e+02 9.958681552621048638e+01 9.958681552621048638e+01 9.958681552621048638e+01 9.958681552621048638e+01 9.958681552621048638e+01 9.896078431372548323e+01 1.056923076923076934e+02
4.320000000000000000e+04 9.958681552621048638e+01 9.958681552621048638e+01 9.958681552621048638e+01 9.958681552621048638e+01 9.958681552621048638e+01 9.896078431372548323e+01 1.056923076923076934e+02 9.958681552621048638e+01 9.958681552621048638e+01 9.958681552621048638e+01 9.958681552621048638e+01 9.958681552621048638e+01 9.896078431372548323e+01 1.056923076923076934e+02
4.320000000000000000e+04 1.000221640656262423e+02 1.000221640656262423e+02 1.000221640656262423e+02 1.000221640656262423e+02 1.000221640656262423e+02 9.819607843137255543e+01 1.114423076923076934e+02 1.000221640656262423e+02 1.000221640656262423e+02 1.000221640656262423e+02 1.000221640656262423e+02 1.000221640656262423e+02 9.819607843137255543e+01 1.114423076923076934e+02
4.680000000000000000e+04 1.000221640656262423e+02 1.000221640656262423e+02 1.000221640656262423e+02 1.000221640656262423e+02 1.000221640656262423e+02 9.819607843137255543e+01 1.114423076923076934e+02 1.000221640656262423e+02 1.000221640656262423e+02 1.000221640656262423e+02 1.000221640656262423e+02 1.000221640656262423e+02 9.819607843137255543e+01 1.114423076923076934e+02
4.680000000000000000e+04 1.006874589835934444e+02 1.006874589835934444e+02 1.006874589835934444e+02 1.006874589835934444e+02 1.006874589835934444e+02 9.931372549019607732e+01 1.189215686274509807e+02 1.006874589835934444e+02 1.006874589835934444e+02 1.006874589835934444e+02 1.006874589835934444e+02 1.006874589835934444e+02 9.931372549019607732e+01 1.189215686274509807e+02
5.040000000000000000e+04 1.006874589835934444e+02 1.006874589835934444e+02 1.006874589835934444e+02 1.006874589835934444e+02 1.006874589835934444e+02 9.931372549019607732e+01 1.189215686274509807e+02 1.006874589835934444e+02 1.006874589835934444e+02 1.006874589835934444e+02 1.006874589835934444e+02 1.006874589835934444e+02 9.931372549019607732e+01 1.189215686274509807e+02
5.040000000000000000e+04 1.011060952380952358e+02 1.011060952380952358e+02 1.011060952380952358e+02 1.011060952380952358e+02 1.011060952380952358e+02 9.864705882352940591e+01 1.205882352941176521e+02 1.011060952380952358e+02 1.011060952380952358e+02 1.011060952380952358e+02 1.011060952380952358e+02 1.011060952380952358e+02 9.864705882352940591e+01 1.205882352941176521e+02
5.400000000000000000e+04 1.011060952380952358e+02 1.011060952380952358e+02 1.011060952380952358e+02 1.011060952380952358e+02 1.011060952380952358e+02 9.864705882352940591e+01 1.205882352941176521e+02 1.011060952380952358e+02 1.011060952380952358e+02 1.011060952380952358e+02 1.011060952380952358e+02 1.011060952380952358e+02 9.864705882352940591e+01 1.205882352941176521e+02
5.400000000000000000e+04 1.024192877150860284e+02 1.024192877150860284e+02 1.024192877150860284e+02 1.024192877150860284e+02 1.024192877150860284e+02 1.006078431372549034e+02 1.156666666666666714e+02 1.024192877150860284e+02 1.024192877150860284e+02 1.024192877150860284e+02 1.024192877150860284e+02 1.024192877150860284e+02 1.006078431372549034e+02 1.156666666666666714e+02
5.760000000000000000e+04 1.024192877150860284e+02 1.024192877150860284e+02 1.024192877150860284e+02 1.024192877150860284e+02 1.024192877150860284e+02 1.006078431372549034e+02 1.156666666666666714e+02 1.024192877150860284e+02 1.024192877150860284e+02 1.024192877150860284e+02 1.024192877150860284e+02 1.024192877150860284e+02 1.006078431372549034e+02 1.156666666666666714e+02
5.760000000000000000e+04 1.104201264505802129e+02 1.104201264505802129e+02 1.104201264505802129e+02 1.104201264505802129e+02 1.104201264505802129e+02 1.049019607843137294e+02 1.088823529411764639e+02 1.104201264505802129e+02 1.104201264505802129e+02 1.104201264505802129e+02 1.104201264505802129e+02 1.104201264505802129e+02 1.049019607843137294e+02 1.088823529411764639e+02
6.120000000000000000e+04 1.104201264505802129e+02 1.104201264505802129e+02 1.104201264505802129e+02 1.104201264505802129e+02 1.104201264505802129e+02 1.049019607843137294e+02 1.088823529411764639e+02 1.104201264505802129e+02 1.104201264505802129e+02 1.104201264505802129e+02 1.104201264505802129e+02 1.104201264505802129e+02 1.049019607843137294e+02 1.088823529411764639e+02
6.120000000000000000e+04 1.282654245698279283e+02 1.282654245698279283e+02 1.282654245698279283e+02 1.282654245698279283e+02 1.282654245698279283e+02 1.130196078431372513e+02 1.063799999999999955e+02 1.282654245698279283e+02 1.282654245698279283e+02 1.282654245698279283e+02 1.282654245698279283e+02 1.282654245698279283e+02 1.130196078431372513e+02 1.063799999999999955e+02
6.480000000000000000e+04 1.282654245698279283e+02 1.282654245698279283e+02 1.282654245698279283e+02 1.282654245698279283e+02 1.282654245698279283e+02 1.130196078431372513e+02 1.063799999999999955e+02 1.282654245698279283e+02 1.282654245698279283e+02 1.282654245698279283e+02 1.282654245698279283e+02 1.282654245698279283e+02 1.130196078431372513e+02 1.063799999999999955e+02
6.480000000000000000e+04 1.266032108843537287e+02 1.266032108843537287e+02 1.266032108843537287e+02 1.266032108843537287e+02 1.266032108843537287e+02 1.125294117647058840e+02 9.707843137254901933e+01 1.266032108843537287e+02 1.266032108843537287e+02 1.266032108843537287e+02 1.266032108843537287e+02 1.266032108843537287e+02 1.125294117647058840e+02 9.707843137254901933e+01
6.840000000000000000e+04 1.266032108843537287e+02 1.266032108843537287e+02 1.266032108843537287e+02 1.266032108843537287e+02 1.266032108843537287e+02 1.125294117647058840e+02 9.707843137254901933e+01 1.266032108843537287e+02 1.266032108843537287e+02 1.266032108843537287e+02 1.266032108843537287e+02 1.266032108843537287e+02 1.125294117647058840e+02 9.707843137254901933e+01
6.840000000000000000e+04 1.136473725490196074e+02 1.136473725490196074e+02 1.136473725490196074e+02 1.136473725490196074e+02 1.136473725490196074e+02 1.040980392156862706e+02 9.098076923076922640e+01 1.136473725490196074e+02 1.136473725490196074e+02 1.136473725490196074e+02 1.136473725490196074e+02 1.136473725490196074e+02 1.040980392156862706e+02 9.098076923076922640e+01
7.200000000000000000e+04 1.136473725490196074e+02 1.136473725490196074e+02 1.136473725490196074e+02 1.136473725490196074e+02 1.136473725490196074e+02 1.040980392156862706e+02 9.098076923076922640e+01 1.136473725490196074e+02 1.136473725490196074e+02 1.136473725490196074e+02 1.136473725490196074e+02 1.136473725490196074e+02 1.040980392156862706e+02 9.098076923076922640e+01
7.200000000000000000e+04 1.029017254901960712e+02 1.029017254901960712e+02 1.029017254901960712e+02 1.029017254901960712e+02 1.029017254901960712e+02 9.456862745098038658e+01 9.015384615384616041e+01 1.029017254901960712e+02 1.029017254901960712e+02 1.029017254901960712e+02 1.029017254901960712e+02 1.029017254901960712e+02 9.456862745098038658e+01 9.015384615384616041e+01
7.560000000000000000e+04 1.029017254901960712e+02 1.029017254901960712e+02 1.029017254901960712e+02 1.029017254901960712e+02 1.029017254901960712e+02 9.456862745098038658e+01 9.015384615384616041e+01 1.029017254901960712e+02 1.029017254901960712e+02 1.029017254901960712e+02 1.029017254901960712e+02 1.029017254901960712e+02 9.456862745098038658e+01 9.015384615384616041e+01
7.560000000000000000e+04 9.920478431372548300e+01 9.920478431372548300e+01 9.920478431372548300e+01 9.920478431372548300e+01 9.920478431372548300e+01 8.903921568627451677e+01 8.805769230769230660e+01 9.920478431372548300e+01 9.920478431372548300e+01 9.920478431372548300e+01 9.920478431372548300e+01 9.920478431372548300e+01 8.903921568627451677e+01 8.805769230769230660e+01
7.920000000000000000e+04 9.920478431372548300e+01 9.920478431372548300e+01 9.920478431372548300e+01 9.920478431372548300e+01 9.920478431372548300e+01 8.903921568627451677e+01 8.805769230769230660e+01 9.920478431372548300e+01 9.920478431372548300e+01 9.920478431372548300e+01 9.920478431372548300e+01 9.920478431372548300e+01 8.903921568627451677e+01 8.805769230769230660e+01
7.920000000000000000e+04 9.096776470588235952e+01 9.096776470588235952e+01 9.096776470588235952e+01 9.096776470588235952e+01 9.096776470588235952e+01 8.668627450980392268e+01 8.636538461538461320e+01 9.096776470588235952e+01 9.096776470588235952e+01 9.096776470588235952e+01 9.096776470588235952e+01 9.096776470588235952e+01 8.668627450980392268e+01 8.636538461538461320e+01
8.280000000000000000e+04 9.096776470588235952e+01 9.096776470588235952e+01 9.096776470588235952e+01 9.096776470588235952e+01 9.096776470588235952e+01 8.668627450980392268e+01 8.636538461538461320e+01 9.096776470588235952e+01 9.096776470588235952e+01 9.096776470588235952e+01 9.096776470588235952e+01 9.096776470588235952e+01 8.668627450980392268e+01 8.636538461538461320e+01
8.280000000000000000e+04 8.598611764705883331e+01 8.598611764705883331e+01 8.598611764705883331e+01 8.598611764705883331e+01 8.598611764705883331e+01 8.407999999999999829e+01 8.431372549019607732e+01 8.598611764705883331e+01 8.598611764705883331e+01 8.598611764705883331e+01 8.598611764705883331e+01 8.598611764705883331e+01 8.407999999999999829e+01 8.431372549019607732e+01
8.640000000000000000e+04 8.598611764705883331e+01 8.598611764705883331e+01 8.598611764705883331e+01 8.598611764705883331e+01 8.598611764705883331e+01 8.407999999999999829e+01 8.431372549019607732e+01 8.598611764705883331e+01 8.598611764705883331e+01 8.598611764705883331e+01 8.598611764705883331e+01 8.598611764705883331e+01 8.407999999999999829e+01 8.431372549019607732e+01
