#1
double table(48,15)
0.000000000000000000e+00 0.000000000000000000e+00 0.000000000000000000e+00 0.000000000000000000e+00 0.000000000000000000e+00 0.000000000000000000e+00 0.000000000000000000e+00 0.000000000000000000e+00 0.000000000000000000e+00 0.000000000000000000e+00 0.000000000000000000e+00 0.000000000000000000e+00 0.000000000000000000e+00 0.000000000000000000e+00 0.000000000000000000e+00
3.600000000000000000e+03 0.000000000000000000e+00 0.000000000000000000e+00 0.000000000000000000e+00 0.000000000000000000e+00 0.000000000000000000e+00 0.000000000000000000e+00 0.000000000000000000e+00 0.000000000000000000e+00 0.000000000000000000e+00 0.000000000000000000e+00 0.000000000000000000e+00 0.000000000000000000e+00 0.000000000000000000e+00 0.000000000000000000e+00
3.600000000000000000e+03 8.571428571428571855e-03 8.571428571428571855e-03 8.571428571428571855e-03 8.571428571428571855e-03 8.571428571428571855e-03 8.571428571428571855e-03 8.571428571428571855e-03 8.571428571428571855e-03 8.571428571428571855e-03 8.571428571428571855e-03 8.571428571428571855e-03 8.571428571428571855e-03 8.571428571428571855e-03 8.571428571428571855e-03
7.200000000000000000e+03 8.571428571428571855e-03 8.571428571428571855e-03 8.571428571428571855e-03 8.571428571428571855e-03 8.571428571428571855e-03 8.571428571428571855e-03 8.571428571428571855e-03 8.571428571428571855e-03 8.571428571428571855e-03 8.571428571428571855e-03 8.571428571428571855e-03 8.571428571428571855e-03 8.571428571428571855e-03 8.571428571428571855e-03
7.200000000000000000e+03 0.000000000000000000e+00 0.000000000000000000e+00 0.000000000000000000e+00 0.000000000000000000e+00 0.000000000000000000e+00 0.000000000000000000e+00 0.000000000000000000e+00 0.000000000000000000e+00 0.000000000000000000e+00 0.000000000000000000e+00 0.000000000000000000e+00 0.000000000000000000e+00 0.000000000000000000e+00 0.000000000000000000e+00
1.080000000000000000e+04 0.000000000000000000e+00 0.000000000000000000e+00 0.000000000000000000e+00 0.000000000000000000e+00 0.000000000000000000e+00 0.000000000000000000e+00 0.000000000000000000e+00 0.000000000000000000e+00 0.000000000000000000e+00 0.000000000000000000e+00 0.000000000000000000e+00 0.000000000000000000e+00 0.000000000000000000e+00 0.000000000000000000e+00
1.080000000000000000e+04 1.428571428571428700e-02 1.428571428571428700e-02 1.428571428571428700e-02 1.428571428571428700e-02 1.428571428571428700e-02 1.428571428571428700e-02 1.428571428571428700e-02 1.428571428571428700e-02 1.428571428571428700e-02 1.428571428571428700e-02 1.428571428571428700e-02 1.428571428571428700e-02 1.428571428571428700e-02 1.428571428571428700e-02
1.440000000000000000e+04 1.428571428571428700e-02 1.428571428571428700e-02 1.428571428571428700e-02 1.428571428571428700e-02 1.428571428571428700e-02 1.428571428571428700e-02 1.428571428571428700e-02 1.428571428571428700e-02 1.428571428571428700e-02 1.428571428571428700e-02 1.428571428571428700e-02 1.428571428571428700e-02 1.428571428571428700e-02 1.428571428571428700e-02
1.440000000000000000e+04 2.801120448179271732e-03 2.801120448179271732e-03 2.801120448179271732e-03 2.801120448179271732e-03 2.801120448179271732e-03 2.801120448179271732e-03 2.801120448179271732e-03 2.801120448179271732e-03 2.801120448179271732e-03 2.801120448179271732e-03 2.801120448179271732e-03 2.801120448179271732e-03 2.801120448179271732e-03 2.801120448179271732e-03
1.800000000000000000e+04 2.801120448179271732e-03 2.801120448179271732e-03 2.801120448179271732e-03 2.801120448179271732e-03 2.801120448179271732e-03 2.801120448179271732e-03 2.801120448179271732e-03 2.801120448179271732e-03 2.801120448179271732e-03 2.801120448179271732e-03 2.801120448179271732e-03 2.801120448179271732e-03 2.801120448179271732e-03 2.801120448179271732e-03
1.800000000000000000e+04 1.120448179271708693e-02 1.120448179271708693e-02 1.120448179271708693e-02 1.120448179271708693e-02 1.120448179271708693e-02 1.120448179271708693e-02 1.120448179271708693e-02 1.120448179271708693e-02 1.120448179271708693e-02 1.120448179271708693e-02 1.120448179271708693e-02 1.120448179271708693e-02 1.120448179271708693e-02 1.120448179271708693e-02
2.160000000000000000e+04 1.120448179271708693e-02 1.120448179271708693e-02 1.120448179271708693e-02 1.120448179271708693e-02 1.120448179271708693e-02 1.120448179271708693e-02 1.120448179271708693e-02 1.120448179271708693e-02 1.120448179271708693e-02 1.120448179271708693e-02 1.120448179271708693e-02 1.120448179271708693e-02 1.120448179271708693e-02 1.120448179271708693e-02
2.160000000000000000e+04 4.481792717086834771e-02 4.481792717086834771e-02 4.481792717086834771e-02 4.481792717086834771e-02 4.481792717086834771e-02 4.481792717086834771e-02 4.481792717086834771e-02 4.481792717086834771e-02 4.481792717086834771e-02 4.481792717086834771e-02 4.481792717086834771e-02 4.481792717086834771e-02 4.481792717086834771e-02 4.481792717086834771e-02
2.520000000000000000e+04 4.481792717086834771e-02 4.481792717086834771e-02 4.481792717086834771e-02 4.481792717086834771e-02 4.481792717086834771e-02 4.481792717086834771e-02 4.481792717086834771e-02 4.481792717086834771e-02 4.481792717086834771e-02 4.481792717086834771e-02 4.481792717086834771e-02 4.481792717086834771e-02 4.481792717086834771e-02 4.481792717086834771e-02
2.520000000000000000e+04 2.800834619562110328e-01 2.800834619562110328e-01 2.800834619562110328e-01 2.800834619562110328e-01 2.800834619562110328e-01 2.800834619562110328e-01 2.800834619562110328e-01 2.800834619562110328e-01 2.800834619562110328e-01 2.800834619562110328e-01 2.800834619562110328e-01 2.800834619562110328e-01 2.800834619562110328e-01 2.800834619562110328e-01
2.880000000000000000e+04 2.800834619562110328e-01 2.800834619562110328e-01 2.800834619562110328e-01 2.800834619562110328e-01 2.800834619562110328e-01 2.800834619562110328e-01 2.800834619562110328e-01 2.800834619562110328e-01 2.800834619562110328e-01 2.800834619562110328e-01 2.800834619562110328e-01 2.800834619562110328e-01 2.800834619562110328e-01 2.800834619562110328e-01
2.880000000000000000e+04 1.525900645972674718e+00 1.525900645972674718e+00 1.525900645972674718e+00 1.525900645972674718e+00 1.525900645972674718e+00 1.525900645972674718e+00 1.525900645972674718e+00 1.525900645972674718e+00 1.525900645972674718e+00 1.525900645972674718e+00 1.525900645972674718e+00 1.525900645972674718e+00 1.525900645972674718e+00 1.525900645972674718e+00
3.240000000000000000e+04 1.525900645972674718e+00 1.525900645972674718e+00 1.525900645972674718e+00 1.525900645972674718e+00 1.525900645972674718e+00 1.525900645972674718e+00 1.525900645972674718e+00 1.525900645972674718e+00 1.525900645972674718e+00 1.525900645972674718e+00 1.525900645972674718e+00 1.525900645972674718e+00 1.525900645972674718e+00 1.525900645972674718e+00
3.240000000000000000e+04 1.667011958629605939e+00 1.667011958629605939e+00 1.667011958629605939e+00 1.667011958629605939e+00 1.667011958629605939e+00 1.667011958629605939e+00 1.667011958629605939e+00 1.667011958629605939e+00 1.667011958629605939e+00 1.667011958629605939e+00 1.667011958629605939e+00 1.667011958629605939e+00 1.667011958629605939e+00 1.667011958629605939e+00
3.600000000000000000e+04 1.667011958629605939e+00 1.667011958629605939e+00 1.667011958629605939e+00 1.667011958629605939e+00 1.667011958629605939e+00 1.667011958629605939e+00 1.667011958629605939e+00 1.667011958629605939e+00 1.667011958629605939e+00 1.667011958629605939e+00 1.667011958629605939e+00 1.667011958629605939e+00 1.667011958629605939e+00 1.667011958629605939e+00
3.600000000000000000e+04 1.794730771429451144e+00 1.794730771429451144e+00 1.794730771429451144e+00 1.794730771429451144e+00 1.794730771429451144e+00 1.794730771429451144e+00 1.794730771429451144e+00 1.794730771429451144e+00 1.794730771429451144e+00 1.794730771429451144e+00 1.794730771429451144e+00 1.794730771429451144e+00 1.794730771429451144e+00 1.794730771429451144e+00
3.960000000000000000e+04 1.794730771429451144e+00 1.794730771429451144e+00 1.794730771429451144e+00 1.794730771429451144e+00 1.794730771429451144e+00 1.794730771429451144e+00 1.794730771429451144e+00 1.794730771429451144e+00 1.794730771429451144e+00 1.794730771429451144e+00 1.794730771429451144e+00 1.794730771429451144e+00 1.794730771429451144e+00 1.794730771429451144e+00
3.960000000000000000e+04 1.890535422960393008e+00 1.890535422960393008e+00 1.890535422960393008e+00 1.890535422960393008e+00 1.890535422960393008e+00 1.890535422960393008e+00 1.890535422960393008e+00 1.890535422960393008e+00 1.890535422960393008e+00 1.890535422960393008e+00 1.890535422960393008e+00 1.890535422960393008e+00 1.890535422960393008e+00 1.890535422960393008e+00
4.320000000000000000e+04 1.890535422960393008e+00 1.890535422960393008e+00 1.890535422960393008e+00 1.890535422960393008e+00 1.890535422960393008e+00 1.890535422960393008e+00 1.890535422960393008e+00 1.890535422960393008e+00 1.890535422960393008e+00 1.890535422960393008e+00 1.890535422960393008e+00 1.890535422960393008e+00 1.890535422960393008e+00 1.890535422960393008e+00
4.320000000000000000e+04 1.882210686472390870e+00 1.882210686472390870e+00 1.882210686472390870e+00 1.882210686472390870e+00 1.882210686472390870e+00 1.882210686472390870e+00 1.882210686472390870e+00 1.882210686472390870e+00 1.882210686472390870e+00 1.882210686472390870e+00 1.882210686472390870e+00 1.882210686472390870e+00 1.882210686472390870e+00 1.882210686472390870e+00
4.680000000000000000e+04 1.882210686472390870e+00 1.882210686472390870e+00 1.882210686472390870e+00 1.882210686472390870e+00 1.882210686472390870e+00 1.882210686472390870e+00 1.882210686472390870e+00 1.882210686472390870e+00 1.882210686472390870e+00 1.882210686472390870e+00 1.882210686472390870e+00 1.882210686472390870e+00 1.882210686472390870e+00 1.882210686472390870e+00
4.680000000000000000e+04 1.804551534899674126e+00 1.804551534899674126e+00 1.804551534899674126e+00 1.804551534899674126e+00 1.804551534899674126e+00 1.804551534899674126e+00 1.804551534899674126e+00 1.804551534899674126e+00 1.804551534899674126e+00 1.804551534899674126e+00 1.804551534899674126e+00 1.804551534899674126e+00 1.804551534899674126e+00 1.804551534899674126e+00
5.040000000000000000e+04 1.804551534899674126e+00 1.804551534899674126e+00 1.804551534899674126e+00 1.804551534899674126e+00 1.804551534899674126e+00 1.804551534899674126e+00 1.804551534899674126e+00 1.804551534899674126e+00 1.804551534899674126e+00 1.804551534899674126e+00 1.804551534899674126e+00 1.804551534899674126e+00 1.804551534899674126e+00 1.804551534899674126e+00
5.040000000000000000e+04 1.697602469559252203e+00 1.697602469559252203e+00 1.697602469559252203e+00 1.697602469559252203e+00 1.697602469559252203e+00 1.697602469559252203e+00 1.697602469559252203e+00 1.697602469559252203e+00 1.697602469559252203e+00 1.697602469559252203e+00 1.697602469559252203e+00 1.697602469559252203e+00 1.697602469559252203e+00 1.697602469559252203e+00
5.400000000000000000e+04 1.697602469559252203e+00 1.697602469559252203e+00 1.697602469559252203e+00 1.697602469559252203e+00 1.697602469559252203e+00 1.697602469559252203e+00 1.697602469559252203e+00 1.697602469559252203e+00 1.697602469559252203e+00 1.697602469559252203e+00 1.697602469559252203e+00 1.697602469559252203e+00 1.697602469559252203e+00 1.697602469559252203e+00
5.400000000000000000e+04 1.464071342822843125e+00 1.464071342822843125e+00 1.464071342822843125e+00 1.464071342822843125e+00 1.464071342822843125e+00 1.464071342822843125e+00 1.464071342822843125e+00 1.464071342822843125e+00 1.464071342822843125e+00 1.464071342822843125e+00 1.464071342822843125e+00 1.464071342822843125e+00 1.464071342822843125e+00 1.464071342822843125e+00
5.760000000000000000e+04 1.464071342822843125e+00 1.464071342822843125e+00 1.464071342822843125e+00 1.464071342822843125e+00 1.464071342822843125e+00 1.464071342822843125e+00 1.464071342822843125e+00 1.464071342822843125e+00 1.464071342822843125e+00 1.464071342822843125e+00 1.464071342822843125e+00 1.464071342822843125e+00 1.464071342822843125e+00 1.464071342822843125e+00
5.760000000000000000e+04 1.320197793403075526e+00 1.320197793403075526e+00 1.320197793403075526e+00 1.320197793403075526e+00 1.320197793403075526e+00 1.320197793403075526e+00 1.320197793403075526e+00 1.320197793403075526e+00 1.320197793403075526e+00 1.320197793403075526e+00 1.320197793403075526e+00 1.320197793403075526e+00 1.320197793403075526e+00 1.320197793403075526e+00
6.120000000000000000e+04 1.320197793403075526e+00 1.320197793403075526e+00 1.320197793403075526e+00 1.320197793403075526e+00 1.320197793403075526e+00 1.320197793403075526e+00 1.320197793403075526e+00 1.320197793403075526e+00 1.320197793403075526e+00 1.320197793403075526e+00 1.320197793403075526e+00 1.320197793403075526e+00 1.320197793403075526e+00 1.320197793403075526e+00
6.120000000000000000e+04 3.894323443663179618e-01 3.894323443663179618e-01 3.894323443663179618e-01 3.894323443663179618e-01 3.894323443663179618e-01 3.894323443663179618e-01 3.894323443663179618e-01 3.894323443663179618e-01 3.894323443663179618e-01 3.894323443663179618e-01 3.894323443663179618e-01 3.894323443663179618e-01 3.894323443663179618e-01 3.894323443663179618e-01
6.480000000000000000e+04 3.894323443663179618e-01 3.894323443663179618e-01 3.894323443663179618e-01 3.894323443663179618e-01 3.894323443663179618e-01 3.894323443663179618e-01 3.894323443663179618e-01 3.894323443663179618e-01 3.894323443663179618e-01 3.894323443663179618e-01 3.894323443663179618e-01 3.894323443663179618e-01 3.894323443663179618e-01 3.894323443663179618e-01
6.480000000000000000e+04 1.220168067226890946e-01 1.220168067226890946e-01 1.220168067226890946e-01 1.220168067226890946e-01 1.220168067226890946e-01 1.220168067226890946e-01 1.220168067226890946e-01 1.220168067226890946e-01 1.220168067226890946e-01 1.220168067226890946e-01 1.220168067226890946e-01 1.220168067226890946e-01 1.220168067226890946e-01 1.220168067226890946e-01
6.840000000000000000e+04 1.220168067226890946e-01 1.220168067226890946e-01 1.220168067226890946e-01 1.220168067226890946e-01 1.220168067226890946e-01 1.220168067226890946e-01 1.220168067226890946e-01 1.220168067226890946e-01 1.220168067226890946e-01 1.220168067226890946e-01 1.220168067226890946e-01 1.220168067226890946e-01 1.220168067226890946e-01 1.220168067226890946e-01
6.840000000000000000e+04 6.179918121094591515e-02 6.179918121094591515e-02 6.179918121094591515e-02 6.179918121094591515e-02 6.179918121094591515e-02 6.179918121094591515e-02 6.179918121094591515e-02 6.179918121094591515e-02 6.179918121094591515e-02 6.179918121094591515e-02 6.179918121094591515e-02 6.179918121094591515e-02 6.179918121094591515e-02 6.179918121094591515e-02
7.200000000000000000e+04 6.179918121094591515e-02 6.179918121094591515e-02 6.179918121094591515e-02 6.179918121094591515e-02 6.179918121094591515e-02 6.179918121094591515e-02 6.179918121094591515e-02 6.179918121094591515e-02 6.179918121094591515e-02 6.179918121094591515e-02 6.179918121094591515e-02 6.179918121094591515e-02 6.179918121094591515e-02 6.179918121094591515e-02
7.200000000000000000e+04 2.801120448179271819e-02 2.801120448179271819e-02 2.801120448179271819e-02 2.801120448179271819e-02 2.801120448179271819e-02 2.801120448179271819e-02 2.801120448179271819e-02 2.801120448179271819e-02 2.801120448179271819e-02 2.801120448179271819e-02 2.801120448179271819e-02 2.801120448179271819e-02 2.801120448179271819e-02 2.801120448179271819e-02
7.560000000000000000e+04 2.801120448179271819e-02 2.801120448179271819e-02 2.801120448179271819e-02 2.801120448179271819e-02 2.801120448179271819e-02 2.801120448179271819e-02 2.801120448179271819e-02 2.801120448179271819e-02 2.801120448179271819e-02 2.801120448179271819e-02 2.801120448179271819e-02 2.801120448179271819e-02 2.801120448179271819e-02 2.801120448179271819e-02
7.560000000000000000e+04 1.411764705882352818e-02 1.411764705882352818e-02 1.411764705882352818e-02 1.411764705882352818e-02 1.411764705882352818e-02 1.411764705882352818e-02 1.411764705882352818e-02 1.411764705882352818e-02 1.411764705882352818e-02 1.411764705882352818e-02 1.411764705882352818e-02 1.411764705882352818e-02 1.411764705882352818e-02 1.411764705882352818e-02
7.920000000000000000e+04 1.411764705882352818e-02 1.411764705882352818e-02 1.411764705882352818e-02 1.411764705882352818e-02 1.411764705882352818e-02 1.411764705882352818e-02 1.411764705882352818e-02 1.411764705882352818e-02 1.411764705882352818e-02 1.411764705882352818e-02 1.411764705882352818e-02 1.411764705882352818e-02 1.411764705882352818e-02 1.411764705882352818e-02
7.920000000000000000e+04 0.000000000000000000e+00 0.000000000000000000e+00 0.000000000000000000e+00 0.000000000000000000e+00 0.000000000000000000e+00 0.000000000000000000e+00 0.000000000000000000e+00 0.000000000000000000e+00 0.000000000000000000e+00 0.000000000000000000e+00 0.000000000000000000e+00 0.000000000000000000e+00 0.000000000000000000e+00 0.000000000000000000e+00
8.280000000000000000e+04 0.000000000000000000e+00 0.000000000000000000e+00 0.000000000000000000e+00 0.000000000000000000e+00 0.000000000000000000e+00 0.000000000000000000e+00 0.000000000000000000e+00 0.000000000000000000e+00 0.000000000000000000e+00 0.000000000000000000e+00 0.000000000000000000e+00 0.000000000000000000e+00 0.000000000000000000e+00 0.000000000000000000e+00
8.280000000000000000e+04 0.000000000000000000e+00 0.000000000000000000e+00 0.000000000000000000e+00 0.000000000000000000e+00 0.000000000000000000e+00 0.000000000000000000e+00 0.000000000000000000e+00 0.000000000000000000e+00 0.000000000000000000e+00 0.000000000000000000e+00 0.000000000000000000e+00 0.000000000000000000e+00 0.000000000000000000e+00 0.000000000000000000e+00
8.640000000000000000e+04 0.000000000000000000e+00 0.000000000000000000e+00 0.000000000000000000e+00 0.000000000000000000e+00 0.000000000000000000e+00 0.000000000000000000e+00 0.000000000000000000e+00 0.000000000000000000e+00 0.000000000000000000e+00 0.000000000000000000e+00 0.000000000000000000e+00 0.000000000000000000e+00 0.000000000000000000e+00 0.000000000000000000e+00
