#1
double table1(168,2)   # comment line
      1408924800.0          271
      1408928400.0          333
      1408932000.0          355
      1408935600.0          316
      1408939200.0          273
      1408942800.0          251
      1408946400.0          296
      1408950000.0          122
      1408953600.0          704
      1408957200.0          2064
      1408960800.0          1254
      1408964400.0          1319
      1408968000.0          1947
      1408971600.0          2762
      1408975200.0          2534
      1408978800.0          2772
      1408982400.0          2780
      1408986000.0          2142
      1408989600.0          0
      1408993200.0          0
      1408996800.0          117
      1409000400.0          144
      1409004000.0          353
      1409007600.0          269
      1409011200.0          344
      1409014800.0          314
      1409018400.0          256
      1409022000.0          271
      1409025600.0          273
      1409029200.0          255
      1409032800.0          116
      1409036400.0          120
      1409040000.0          255
      1409043600.0          1853
      1409047200.0          1094
      1409050800.0          1202
      1409054400.0          2779
      1409058000.0          2780
      1409061600.0          2783
      1409065200.0          2548
      1409068800.0          2770
      1409072400.0          675
      1409076000.0          0
      1409079600.0          0
      1409083200.0          0
      1409086800.0          0
      1409090400.0          123
      1409094000.0          152
      1409097600.0          120
      1409101200.0          242
      1409104800.0          117
      1409108400.0          302
      1409112000.0          172
      1409115600.0          258
      1409119200.0          238
      1409122800.0          108
      1409126400.0          117
      1409130000.0          2669
      1409133600.0          2502
      1409137200.0          2271
      1409140800.0          2110
      1409144400.0          2538
      1409148000.0          2783
      1409151600.0          2772
      1409155200.0          2340
      1409158800.0          1712
      1409162400.0          0
      1409166000.0          0
      1409169600.0          116
      1409173200.0          150
      1409176800.0          435
      1409180400.0          276
      1409184000.0          266
      1409187600.0          270
      1409191200.0          245
      1409194800.0          255
      1409198400.0          289
      1409202000.0          237
      1409205600.0          120
      1409209200.0          116
      1409212800.0          424
      1409216400.0          1469
      1409220000.0          972
      1409223600.0          808
      1409227200.0          961
      1409230800.0          866
      1409234400.0          1023
      1409238000.0          1573
      1409241600.0          2779
      1409245200.0          2176
      1409248800.0          0
      1409252400.0          119
      1409256000.0          290
      1409259600.0          321
      1409263200.0          386
      1409266800.0          271
      1409270400.0          406
      1409274000.0          367
      1409277600.0          398
      1409281200.0          267
      1409284800.0          266
      1409288400.0          222
      1409292000.0          225
      1409295600.0          119
      1409299200.0          443
      1409302800.0          1762
      1409306400.0          884
      1409310000.0          2157
      1409313600.0          2773
      1409317200.0          2760
      1409320800.0          2763
      1409324400.0          2764
      1409328000.0          2766
      1409331600.0          1949
      1409335200.0          0
      1409338800.0          0
      1409342400.0          121
      1409346000.0          104
      1409349600.0          298
      1409353200.0          404
      1409356800.0          272
      1409360400.0          269
      1409364000.0          247
      1409367600.0          226
      1409371200.0          282
      1409374800.0          156
      1409378400.0          224
      1409382000.0          118
      1409385600.0          421
      1409389200.0          2250
      1409392800.0          2765
      1409396400.0          2762
      1409400000.0          2757
      1409403600.0          2763
      1409407200.0          2761
      1409410800.0          2765
      1409414400.0          2755
      1409418000.0          2751
      1409421600.0          773
      1409425200.0          0
      1409428800.0          0
      1409432400.0          0
      1409436000.0          162
      1409439600.0          225
      1409443200.0          118
      1409446800.0          101
      1409450400.0          243
      1409454000.0          153
      1409457600.0          110
      1409461200.0          243
      1409464800.0          121
      1409468400.0          121
      1409472000.0          117
      1409475600.0          2148
      1409479200.0          1406
      1409482800.0          2510
      1409486400.0          2312
      1409490000.0          2760
      1409493600.0          2760
      1409497200.0          2769
      1409500800.0          2749
      1409504400.0          2350
      1409508000.0          0
      1409511600.0          0
      1409515200.0          0
      1409518800.0          0
      1409522400.0          120
      1409526000.0          241
