#1
double table1(168,2)   # comment line
      1408924800.0          5
      1408928400.0          5
      1408932000.0          5
      1408935600.0          5
      1408939200.0          5
      1408942800.0          6
      1408946400.0          5
      1408950000.0          5
      1408953600.0          80
      1408957200.0          285
      1408960800.0          285
      1408964400.0          300
      1408968000.0          306
      1408971600.0          306
      1408975200.0          306
      1408978800.0          306
      1408982400.0          307
      1408986000.0          239
      1408989600.0          6
      1408993200.0          6
      1408996800.0          6
      1409000400.0          6
      1409004000.0          6
      1409007600.0          5
      1409011200.0          5
      1409014800.0          5
      1409018400.0          6
      1409022000.0          6
      1409025600.0          6
      1409029200.0          6
      1409032800.0          5
      1409036400.0          5
      1409040000.0          9
      1409043600.0          286
      1409047200.0          285
      1409050800.0          290
      1409054400.0          308
      1409058000.0          307
      1409061600.0          307
      1409065200.0          305
      1409068800.0          301
      1409072400.0          347
      1409076000.0          44
      1409079600.0          6
      1409083200.0          6
      1409086800.0          6
      1409090400.0          5
      1409094000.0          6
      1409097600.0          6
      1409101200.0          6
      1409104800.0          6
      1409108400.0          6
      1409112000.0          5
      1409115600.0          6
      1409119200.0          5
      1409122800.0          5
      1409126400.0          25
      1409130000.0          284
      1409133600.0          285
      1409137200.0          285
      1409140800.0          284
      1409144400.0          302
      1409148000.0          297
      1409151600.0          284
      1409155200.0          285
      1409158800.0          185
      1409162400.0          6
      1409166000.0          6
      1409169600.0          6
      1409173200.0          6
      1409176800.0          6
      1409180400.0          6
      1409184000.0          6
      1409187600.0          6
      1409191200.0          6
      1409194800.0          6
      1409198400.0          5
      1409202000.0          6
      1409205600.0          5
      1409209200.0          6
      1409212800.0          50
      1409216400.0          283
      1409220000.0          283
      1409223600.0          282
      1409227200.0          281
      1409230800.0          280
      1409234400.0          282
      1409238000.0          281
      1409241600.0          282
      1409245200.0          197
      1409248800.0          6
      1409252400.0          5
      1409256000.0          5
      1409259600.0          5
      1409263200.0          5
      1409266800.0          6
      1409270400.0          5
      1409274000.0          6
      1409277600.0          6
      1409281200.0          6
      1409284800.0          6
      1409288400.0          6
      1409292000.0          6
      1409295600.0          6
      1409299200.0          29
      1409302800.0          284
      1409306400.0          285
      1409310000.0          301
      1409313600.0          307
      1409317200.0          306
      1409320800.0          305
      1409324400.0          305
      1409328000.0          304
      1409331600.0          225
      1409335200.0          44
      1409338800.0          44
      1409342400.0          43
      1409346000.0          43
      1409349600.0          44
      1409353200.0          44
      1409356800.0          44
      1409360400.0          44
      1409364000.0          45
      1409367600.0          45
      1409371200.0          45
      1409374800.0          45
      1409378400.0          45
      1409382000.0          45
      1409385600.0          75
      1409389200.0          283
      1409392800.0          282
      1409396400.0          300
      1409400000.0          290
      1409403600.0          297
      1409407200.0          304
      1409410800.0          303
      1409414400.0          303
      1409418000.0          304
      1409421600.0          79
      1409425200.0          6
      1409428800.0          6
      1409432400.0          6
      1409436000.0          5
      1409439600.0          6
      1409443200.0          6
      1409446800.0          6
      1409450400.0          6
      1409454000.0          6
      1409457600.0          6
      1409461200.0          6
      1409464800.0          6
      1409468400.0          6
      1409472000.0          6
      1409475600.0          273
      1409479200.0          285
      1409482800.0          306
      1409486400.0          305
      1409490000.0          304
      1409493600.0          289
      1409497200.0          282
      1409500800.0          283
      1409504400.0          265
      1409508000.0          6
      1409511600.0          6
      1409515200.0          6
      1409518800.0          6
      1409522400.0          5
      1409526000.0          6
