#1
double table(24,15)
0.000000000000000000e+00 6.250000000000000000e+00 8.447806553911204830e+00 8.447806553911204830e+00 8.447806553911204830e+00 8.447806553911204830e+00 9.558139534883720145e+00 5.931818181818181657e+00 6.250000000000000000e+00 8.447806553911204830e+00 8.447806553911204830e+00 8.447806553911204830e+00 8.447806553911204830e+00 9.558139534883720145e+00 5.931818181818181657e+00
3.600000000000000000e+03 6.863636363636363313e+00 8.503699788583508834e+00 8.503699788583508834e+00 8.503699788583508834e+00 8.503699788583508834e+00 9.558139534883720145e+00 6.181818181818181657e+00 6.863636363636363313e+00 8.503699788583508834e+00 8.503699788583508834e+00 8.503699788583508834e+00 8.503699788583508834e+00 9.558139534883720145e+00 6.181818181818181657e+00
7.200000000000000000e+03 6.590909090909090828e+00 8.306950317124735861e+00 8.306950317124735861e+00 8.306950317124735861e+00 8.306950317124735861e+00 9.813953488372092693e+00 7.022727272727272485e+00 6.590909090909090828e+00 8.306950317124735861e+00 8.306950317124735861e+00 8.306950317124735861e+00 8.306950317124735861e+00 9.813953488372092693e+00 7.022727272727272485e+00
1.080000000000000000e+04 6.431818181818181657e+00 8.508192389006342893e+00 8.508192389006342893e+00 8.508192389006342893e+00 8.508192389006342893e+00 1.004651162790697683e+01 6.250000000000000000e+00 6.431818181818181657e+00 8.508192389006342893e+00 8.508192389006342893e+00 8.508192389006342893e+00 8.508192389006342893e+00 1.004651162790697683e+01 6.250000000000000000e+00
1.440000000000000000e+04 6.409090909090909172e+00 8.378964059196617242e+00 8.378964059196617242e+00 8.378964059196617242e+00 8.378964059196617242e+00 9.255813953488372547e+00 7.181818181818181657e+00 6.409090909090909172e+00 8.378964059196617242e+00 8.378964059196617242e+00 8.378964059196617242e+00 8.378964059196617242e+00 9.255813953488372547e+00 7.181818181818181657e+00
1.800000000000000000e+04 6.500000000000000000e+00 8.446220930232556157e+00 8.446220930232556157e+00 8.446220930232556157e+00 8.446220930232556157e+00 1.002325581395348841e+01 6.659090909090909172e+00 6.500000000000000000e+00 8.446220930232556157e+00 8.446220930232556157e+00 8.446220930232556157e+00 8.446220930232556157e+00 1.002325581395348841e+01 6.659090909090909172e+00
2.160000000000000000e+04 6.500000000000000000e+00 8.632003171247356832e+00 8.632003171247356832e+00 8.632003171247356832e+00 8.632003171247356832e+00 1.037209302325581461e+01 6.545454545454545858e+00 6.500000000000000000e+00 8.632003171247356832e+00 8.632003171247356832e+00 8.632003171247356832e+00 8.632003171247356832e+00 1.037209302325581461e+01 6.545454545454545858e+00
2.520000000000000000e+04 7.090909090909090828e+00 9.396273784355180680e+00 9.396273784355180680e+00 9.396273784355180680e+00 9.396273784355180680e+00 1.060465116279069697e+01 7.000000000000000000e+00 7.090909090909090828e+00 9.396273784355180680e+00 9.396273784355180680e+00 9.396273784355180680e+00 9.396273784355180680e+00 1.060465116279069697e+01 7.000000000000000000e+00
2.880000000000000000e+04 7.954545454545454142e+00 1.058602008456659505e+01 1.058602008456659505e+01 1.058602008456659505e+01 1.058602008456659505e+01 1.372093023255813904e+01 7.500000000000000000e+00 7.954545454545454142e+00 1.058602008456659505e+01 1.058602008456659505e+01 1.058602008456659505e+01 1.058602008456659505e+01 1.372093023255813904e+01 7.500000000000000000e+00
3.240000000000000000e+04 8.772727272727273373e+00 1.189297040169133268e+01 1.189297040169133268e+01 1.189297040169133268e+01 1.189297040169133268e+01 1.832558139534883779e+01 8.136363636363636687e+00 8.772727272727273373e+00 1.189297040169133268e+01 1.189297040169133268e+01 1.189297040169133268e+01 1.189297040169133268e+01 1.832558139534883779e+01 8.136363636363636687e+00
3.600000000000000000e+04 9.409090909090908283e+00 2.425462473572938649e+01 2.425462473572938649e+01 2.425462473572938649e+01 2.425462473572938649e+01 3.479069767441860250e+01 1.236363636363636331e+01 9.409090909090908283e+00 2.425462473572938649e+01 2.425462473572938649e+01 2.425462473572938649e+01 2.425462473572938649e+01 3.479069767441860250e+01 1.236363636363636331e+01
3.960000000000000000e+04 1.184090909090909172e+01 3.843948202959830951e+01 3.843948202959830951e+01 3.843948202959830951e+01 3.843948202959830951e+01 5.132558139534883423e+01 2.650000000000000000e+01 1.184090909090909172e+01 3.843948202959830951e+01 3.843948202959830951e+01 3.843948202959830951e+01 3.843948202959830951e+01 5.132558139534883423e+01 2.650000000000000000e+01
4.320000000000000000e+04 1.131818181818181834e+01 4.016331923890063393e+01 4.016331923890063393e+01 4.016331923890063393e+01 4.016331923890063393e+01 5.069767441860464885e+01 2.597727272727272663e+01 1.131818181818181834e+01 4.016331923890063393e+01 4.016331923890063393e+01 4.016331923890063393e+01 4.016331923890063393e+01 5.069767441860464885e+01 2.597727272727272663e+01
4.680000000000000000e+04 1.072727272727272663e+01 4.316490486257927728e+01 4.316490486257927728e+01 4.316490486257927728e+01 4.316490486257927728e+01 4.883720930232558288e+01 1.331818181818181834e+01 1.072727272727272663e+01 4.316490486257927728e+01 4.316490486257927728e+01 4.316490486257927728e+01 4.316490486257927728e+01 4.883720930232558288e+01 1.331818181818181834e+01
5.040000000000000000e+04 1.022727272727272663e+01 3.557624207188160881e+01 3.557624207188160881e+01 3.557624207188160881e+01 3.557624207188160881e+01 4.506976744186046346e+01 7.590909090909090828e+00 1.022727272727272663e+01 3.557624207188160881e+01 3.557624207188160881e+01 3.557624207188160881e+01 3.557624207188160881e+01 4.506976744186046346e+01 7.590909090909090828e+00
5.400000000000000000e+04 8.863636363636363313e+00 3.056038583509513629e+01 3.056038583509513629e+01 3.056038583509513629e+01 3.056038583509513629e+01 4.132558139534883423e+01 5.454545454545454142e+00 8.863636363636363313e+00 3.056038583509513629e+01 3.056038583509513629e+01 3.056038583509513629e+01 3.056038583509513629e+01 4.132558139534883423e+01 5.454545454545454142e+00
5.760000000000000000e+04 1.090909090909090828e+01 1.561165433403805380e+01 1.561165433403805380e+01 1.561165433403805380e+01 1.561165433403805380e+01 2.209302325581395365e+01 4.159090909090909172e+00 1.090909090909090828e+01 1.561165433403805380e+01 1.561165433403805380e+01 1.561165433403805380e+01 1.561165433403805380e+01 2.209302325581395365e+01 4.159090909090909172e+00
6.120000000000000000e+04 1.145454545454545503e+01 6.417679704016912900e+00 6.417679704016912900e+00 6.417679704016912900e+00 6.417679704016912900e+00 9.674418604651162212e+00 3.613636363636363757e+00 1.145454545454545503e+01 6.417679704016912900e+00 6.417679704016912900e+00 6.417679704016912900e+00 6.417679704016912900e+00 9.674418604651162212e+00 3.613636363636363757e+00
6.480000000000000000e+04 1.234090909090909172e+01 6.635042283298096422e+00 6.635042283298096422e+00 6.635042283298096422e+00 6.635042283298096422e+00 4.953488372093023173e+00 4.068181818181818343e+00 1.234090909090909172e+01 6.635042283298096422e+00 6.635042283298096422e+00 6.635042283298096422e+00 6.635042283298096422e+00 4.953488372093023173e+00 4.068181818181818343e+00
6.840000000000000000e+04 1.304545454545454497e+01 9.235332980972515315e+00 9.235332980972515315e+00 9.235332980972515315e+00 9.235332980972515315e+00 5.976744186046511587e+00 6.159090909090909172e+00 1.304545454545454497e+01 9.235332980972515315e+00 9.235332980972515315e+00 9.235332980972515315e+00 9.235332980972515315e+00 5.976744186046511587e+00 6.159090909090909172e+00
7.200000000000000000e+04 1.359090909090909172e+01 8.598176532769556957e+00 8.598176532769556957e+00 8.598176532769556957e+00 8.598176532769556957e+00 5.372093023255813726e+00 6.409090909090909172e+00 1.359090909090909172e+01 8.598176532769556957e+00 8.598176532769556957e+00 8.598176532769556957e+00 8.598176532769556957e+00 5.372093023255813726e+00 6.409090909090909172e+00
7.560000000000000000e+04 1.029545454545454497e+01 7.923097251585623724e+00 7.923097251585623724e+00 7.923097251585623724e+00 7.923097251585623724e+00 5.046511627906976827e+00 6.681818181818181657e+00 1.029545454545454497e+01 7.923097251585623724e+00 7.923097251585623724e+00 7.923097251585623724e+00 7.923097251585623724e+00 5.046511627906976827e+00 6.681818181818181657e+00
7.920000000000000000e+04 1.018181818181818166e+01 8.183535940803382758e+00 8.183535940803382758e+00 8.183535940803382758e+00 8.183535940803382758e+00 6.744186046511628341e+00 6.318181818181818343e+00 1.018181818181818166e+01 8.183535940803382758e+00 8.183535940803382758e+00 8.183535940803382758e+00 8.183535940803382758e+00 6.744186046511628341e+00 6.318181818181818343e+00
8.280000000000000000e+04 1.056818181818181834e+01 7.874471458773784960e+00 7.874471458773784960e+00 7.874471458773784960e+00 7.874471458773784960e+00 6.232558139534884134e+00 6.681818181818181657e+00 1.056818181818181834e+01 7.874471458773784960e+00 7.874471458773784960e+00 7.874471458773784960e+00 7.874471458773784960e+00 6.232558139534884134e+00 6.681818181818181657e+00
