#1
double table(26,3)
0	0	0
3600	0	0
7200	0	0
10800	0	0
14400	0	0
18000	0	0
21600	0	0
25200	0	0
25200	80	80
28800	80	80
32400	80	80
36000	80	80
39600	80	80
43200	80	80
46800	80	80
50400	80	80
54000	80	80
57600	80	80
61200	80	80
61200	0	0
64800	0	0
72000	0	0
75600	0	0
79200	0	0
82800	0	0
86400	0	0