#1
double table(24,15)
0.000000000000000000e+00 1.513494883667752866e+01 1.513494883667752866e+01 1.513494883667752866e+01 1.513494883667752866e+01 1.513494883667752866e+01 1.513494883667752866e+01 1.513494883667752866e+01 1.513494883667752866e+01 1.513494883667752866e+01 1.513494883667752866e+01 1.513494883667752866e+01 1.513494883667752866e+01 1.513494883667752866e+01 1.513494883667752866e+01
3.600000000000000000e+03 0.000000000000000000e+00 0.000000000000000000e+00 0.000000000000000000e+00 0.000000000000000000e+00 0.000000000000000000e+00 0.000000000000000000e+00 0.000000000000000000e+00 0.000000000000000000e+00 0.000000000000000000e+00 0.000000000000000000e+00 0.000000000000000000e+00 0.000000000000000000e+00 0.000000000000000000e+00 0.000000000000000000e+00
7.200000000000000000e+03 3.637142857142857455e+00 3.637142857142857455e+00 3.637142857142857455e+00 3.637142857142857455e+00 3.637142857142857455e+00 3.637142857142857455e+00 3.637142857142857455e+00 3.637142857142857455e+00 3.637142857142857455e+00 3.637142857142857455e+00 3.637142857142857455e+00 3.637142857142857455e+00 3.637142857142857455e+00 3.637142857142857455e+00
1.080000000000000000e+04 4.476638655462184424e+00 4.476638655462184424e+00 4.476638655462184424e+00 4.476638655462184424e+00 4.476638655462184424e+00 4.476638655462184424e+00 4.476638655462184424e+00 4.476638655462184424e+00 4.476638655462184424e+00 4.476638655462184424e+00 4.476638655462184424e+00 4.476638655462184424e+00 4.476638655462184424e+00 4.476638655462184424e+00
1.440000000000000000e+04 6.722689075630251809e-02 6.722689075630251809e-02 6.722689075630251809e-02 6.722689075630251809e-02 6.722689075630251809e-02 6.722689075630251809e-02 6.722689075630251809e-02 6.722689075630251809e-02 6.722689075630251809e-02 6.722689075630251809e-02 6.722689075630251809e-02 6.722689075630251809e-02 6.722689075630251809e-02 6.722689075630251809e-02
1.800000000000000000e+04 3.848739495798319421e+00 3.848739495798319421e+00 3.848739495798319421e+00 3.848739495798319421e+00 3.848739495798319421e+00 3.848739495798319421e+00 3.848739495798319421e+00 3.848739495798319421e+00 3.848739495798319421e+00 3.848739495798319421e+00 3.848739495798319421e+00 3.848739495798319421e+00 3.848739495798319421e+00 3.848739495798319421e+00
2.160000000000000000e+04 3.235294117647058876e+00 3.235294117647058876e+00 3.235294117647058876e+00 3.235294117647058876e+00 3.235294117647058876e+00 3.235294117647058876e+00 3.235294117647058876e+00 3.235294117647058876e+00 3.235294117647058876e+00 3.235294117647058876e+00 3.235294117647058876e+00 3.235294117647058876e+00 3.235294117647058876e+00 3.235294117647058876e+00
2.520000000000000000e+04 6.638655462184874789e-01 6.638655462184874789e-01 6.638655462184874789e-01 6.638655462184874789e-01 6.638655462184874789e-01 6.638655462184874789e-01 6.638655462184874789e-01 6.638655462184874789e-01 6.638655462184874789e-01 6.638655462184874789e-01 6.638655462184874789e-01 6.638655462184874789e-01 6.638655462184874789e-01 6.638655462184874789e-01
2.880000000000000000e+04 7.380924369747899050e+01 7.380924369747899050e+01 7.380924369747899050e+01 7.380924369747899050e+01 7.380924369747899050e+01 7.380924369747899050e+01 7.380924369747899050e+01 7.380924369747899050e+01 7.380924369747899050e+01 7.380924369747899050e+01 7.380924369747899050e+01 7.380924369747899050e+01 7.380924369747899050e+01 7.380924369747899050e+01
3.240000000000000000e+04 3.375099601379012881e+01 3.375099601379012881e+01 3.375099601379012881e+01 3.375099601379012881e+01 3.375099601379012881e+01 3.375099601379012881e+01 3.375099601379012881e+01 3.375099601379012881e+01 3.375099601379012881e+01 3.375099601379012881e+01 3.375099601379012881e+01 3.375099601379012881e+01 3.375099601379012881e+01 3.375099601379012881e+01
3.600000000000000000e+04 3.330712223350878531e+01 3.330712223350878531e+01 3.330712223350878531e+01 3.330712223350878531e+01 3.330712223350878531e+01 3.330712223350878531e+01 3.330712223350878531e+01 3.330712223350878531e+01 3.330712223350878531e+01 3.330712223350878531e+01 3.330712223350878531e+01 3.330712223350878531e+01 3.330712223350878531e+01 3.330712223350878531e+01
3.960000000000000000e+04 2.792581494136115694e+01 2.792581494136115694e+01 2.792581494136115694e+01 2.792581494136115694e+01 2.792581494136115694e+01 2.792581494136115694e+01 2.792581494136115694e+01 2.792581494136115694e+01 2.792581494136115694e+01 2.792581494136115694e+01 2.792581494136115694e+01 2.792581494136115694e+01 2.792581494136115694e+01 2.792581494136115694e+01
4.320000000000000000e+04 2.591276510604241801e-01 2.591276510604241801e-01 2.591276510604241801e-01 2.591276510604241801e-01 2.591276510604241801e-01 2.591276510604241801e-01 2.591276510604241801e-01 2.591276510604241801e-01 2.591276510604241801e-01 2.591276510604241801e-01 2.591276510604241801e-01 2.591276510604241801e-01 2.591276510604241801e-01 2.591276510604241801e-01
4.680000000000000000e+04 9.768396501457726089e+00 9.768396501457726089e+00 9.768396501457726089e+00 9.768396501457726089e+00 9.768396501457726089e+00 9.768396501457726089e+00 9.768396501457726089e+00 9.768396501457726089e+00 9.768396501457726089e+00 9.768396501457726089e+00 9.768396501457726089e+00 9.768396501457726089e+00 9.768396501457726089e+00 9.768396501457726089e+00
5.040000000000000000e+04 8.057422969187674866e+00 8.057422969187674866e+00 8.057422969187674866e+00 8.057422969187674866e+00 8.057422969187674866e+00 8.057422969187674866e+00 8.057422969187674866e+00 8.057422969187674866e+00 8.057422969187674866e+00 8.057422969187674866e+00 8.057422969187674866e+00 8.057422969187674866e+00 8.057422969187674866e+00 8.057422969187674866e+00
5.400000000000000000e+04 2.102591036414565573e-01 2.102591036414565573e-01 2.102591036414565573e-01 2.102591036414565573e-01 2.102591036414565573e-01 2.102591036414565573e-01 2.102591036414565573e-01 2.102591036414565573e-01 2.102591036414565573e-01 2.102591036414565573e-01 2.102591036414565573e-01 2.102591036414565573e-01 2.102591036414565573e-01 2.102591036414565573e-01
5.760000000000000000e+04 3.753312863606981686e+00 3.753312863606981686e+00 3.753312863606981686e+00 3.753312863606981686e+00 3.753312863606981686e+00 3.753312863606981686e+00 3.753312863606981686e+00 3.753312863606981686e+00 3.753312863606981686e+00 3.753312863606981686e+00 3.753312863606981686e+00 3.753312863606981686e+00 3.753312863606981686e+00 3.753312863606981686e+00
6.120000000000000000e+04 8.199049905676556449e+00 8.199049905676556449e+00 8.199049905676556449e+00 8.199049905676556449e+00 8.199049905676556449e+00 8.199049905676556449e+00 8.199049905676556449e+00 8.199049905676556449e+00 8.199049905676556449e+00 8.199049905676556449e+00 8.199049905676556449e+00 8.199049905676556449e+00 8.199049905676556449e+00 8.199049905676556449e+00
6.480000000000000000e+04 3.457086834733893443e+00 3.457086834733893443e+00 3.457086834733893443e+00 3.457086834733893443e+00 3.457086834733893443e+00 3.457086834733893443e+00 3.457086834733893443e+00 3.457086834733893443e+00 3.457086834733893443e+00 3.457086834733893443e+00 3.457086834733893443e+00 3.457086834733893443e+00 3.457086834733893443e+00 3.457086834733893443e+00
6.840000000000000000e+04 5.013846153846154508e+00 5.013846153846154508e+00 5.013846153846154508e+00 5.013846153846154508e+00 5.013846153846154508e+00 5.013846153846154508e+00 5.013846153846154508e+00 5.013846153846154508e+00 5.013846153846154508e+00 5.013846153846154508e+00 5.013846153846154508e+00 5.013846153846154508e+00 5.013846153846154508e+00 5.013846153846154508e+00
7.200000000000000000e+04 1.658567765567765306e+01 1.658567765567765306e+01 1.658567765567765306e+01 1.658567765567765306e+01 1.658567765567765306e+01 1.658567765567765306e+01 1.658567765567765306e+01 1.658567765567765306e+01 1.658567765567765306e+01 1.658567765567765306e+01 1.658567765567765306e+01 1.658567765567765306e+01 1.658567765567765306e+01 1.658567765567765306e+01
7.560000000000000000e+04 9.773175028253060503e+00 9.773175028253060503e+00 9.773175028253060503e+00 9.773175028253060503e+00 9.773175028253060503e+00 9.773175028253060503e+00 9.773175028253060503e+00 9.773175028253060503e+00 9.773175028253060503e+00 9.773175028253060503e+00 9.773175028253060503e+00 9.773175028253060503e+00 9.773175028253060503e+00 9.773175028253060503e+00
7.920000000000000000e+04 1.730028011204482041e+01 1.730028011204482041e+01 1.730028011204482041e+01 1.730028011204482041e+01 1.730028011204482041e+01 1.730028011204482041e+01 1.730028011204482041e+01 1.730028011204482041e+01 1.730028011204482041e+01 1.730028011204482041e+01 1.730028011204482041e+01 1.730028011204482041e+01 1.730028011204482041e+01 1.730028011204482041e+01
8.280000000000000000e+04 3.546218487394958263e+00 3.546218487394958263e+00 3.546218487394958263e+00 3.546218487394958263e+00 3.546218487394958263e+00 3.546218487394958263e+00 3.546218487394958263e+00 3.546218487394958263e+00 3.546218487394958263e+00 3.546218487394958263e+00 3.546218487394958263e+00 3.546218487394958263e+00 3.546218487394958263e+00 3.546218487394958263e+00
