#1
double table(24,15)
0.000000000000000000e+00 1.119775910364145810e+00 1.119775910364145810e+00 1.119775910364145810e+00 1.119775910364145810e+00 1.119775910364145810e+00 1.119775910364145810e+00 1.119775910364145810e+00 1.119775910364145810e+00 1.119775910364145810e+00 1.119775910364145810e+00 1.119775910364145810e+00 1.119775910364145810e+00 1.119775910364145810e+00 1.119775910364145810e+00
3.600000000000000000e+03 6.924026753558566449e-01 6.924026753558566449e-01 6.924026753558566449e-01 6.924026753558566449e-01 6.924026753558566449e-01 6.924026753558566449e-01 6.924026753558566449e-01 6.924026753558566449e-01 6.924026753558566449e-01 6.924026753558566449e-01 6.924026753558566449e-01 6.924026753558566449e-01 6.924026753558566449e-01 6.924026753558566449e-01
7.200000000000000000e+03 7.002801120448179373e-02 7.002801120448179373e-02 7.002801120448179373e-02 7.002801120448179373e-02 7.002801120448179373e-02 7.002801120448179373e-02 7.002801120448179373e-02 7.002801120448179373e-02 7.002801120448179373e-02 7.002801120448179373e-02 7.002801120448179373e-02 7.002801120448179373e-02 7.002801120448179373e-02 7.002801120448179373e-02
1.080000000000000000e+04 0.000000000000000000e+00 0.000000000000000000e+00 0.000000000000000000e+00 0.000000000000000000e+00 0.000000000000000000e+00 0.000000000000000000e+00 0.000000000000000000e+00 0.000000000000000000e+00 0.000000000000000000e+00 0.000000000000000000e+00 0.000000000000000000e+00 0.000000000000000000e+00 0.000000000000000000e+00 0.000000000000000000e+00
1.440000000000000000e+04 0.000000000000000000e+00 0.000000000000000000e+00 0.000000000000000000e+00 0.000000000000000000e+00 0.000000000000000000e+00 0.000000000000000000e+00 0.000000000000000000e+00 0.000000000000000000e+00 0.000000000000000000e+00 0.000000000000000000e+00 0.000000000000000000e+00 0.000000000000000000e+00 0.000000000000000000e+00 0.000000000000000000e+00
1.800000000000000000e+04 0.000000000000000000e+00 0.000000000000000000e+00 0.000000000000000000e+00 0.000000000000000000e+00 0.000000000000000000e+00 0.000000000000000000e+00 0.000000000000000000e+00 0.000000000000000000e+00 0.000000000000000000e+00 0.000000000000000000e+00 0.000000000000000000e+00 0.000000000000000000e+00 0.000000000000000000e+00 0.000000000000000000e+00
2.160000000000000000e+04 0.000000000000000000e+00 0.000000000000000000e+00 0.000000000000000000e+00 0.000000000000000000e+00 0.000000000000000000e+00 0.000000000000000000e+00 0.000000000000000000e+00 0.000000000000000000e+00 0.000000000000000000e+00 0.000000000000000000e+00 0.000000000000000000e+00 0.000000000000000000e+00 0.000000000000000000e+00 0.000000000000000000e+00
2.520000000000000000e+04 0.000000000000000000e+00 0.000000000000000000e+00 0.000000000000000000e+00 0.000000000000000000e+00 0.000000000000000000e+00 0.000000000000000000e+00 0.000000000000000000e+00 0.000000000000000000e+00 0.000000000000000000e+00 0.000000000000000000e+00 0.000000000000000000e+00 0.000000000000000000e+00 0.000000000000000000e+00 0.000000000000000000e+00
2.880000000000000000e+04 1.583742068255873936e-01 1.583742068255873936e-01 1.583742068255873936e-01 1.583742068255873936e-01 1.583742068255873936e-01 1.583742068255873936e-01 1.583742068255873936e-01 1.583742068255873936e-01 1.583742068255873936e-01 1.583742068255873936e-01 1.583742068255873936e-01 1.583742068255873936e-01 1.583742068255873936e-01 1.583742068255873936e-01
3.240000000000000000e+04 4.516941282007308489e-01 4.516941282007308489e-01 4.516941282007308489e-01 4.516941282007308489e-01 4.516941282007308489e-01 4.516941282007308489e-01 4.516941282007308489e-01 4.516941282007308489e-01 4.516941282007308489e-01 4.516941282007308489e-01 4.516941282007308489e-01 4.516941282007308489e-01 4.516941282007308489e-01 4.516941282007308489e-01
3.600000000000000000e+04 9.134213245737855535e-01 9.134213245737855535e-01 9.134213245737855535e-01 9.134213245737855535e-01 9.134213245737855535e-01 9.134213245737855535e-01 9.134213245737855535e-01 9.134213245737855535e-01 9.134213245737855535e-01 9.134213245737855535e-01 9.134213245737855535e-01 9.134213245737855535e-01 9.134213245737855535e-01 9.134213245737855535e-01
3.960000000000000000e+04 1.072502627424596122e+00 1.072502627424596122e+00 1.072502627424596122e+00 1.072502627424596122e+00 1.072502627424596122e+00 1.072502627424596122e+00 1.072502627424596122e+00 1.072502627424596122e+00 1.072502627424596122e+00 1.072502627424596122e+00 1.072502627424596122e+00 1.072502627424596122e+00 1.072502627424596122e+00 1.072502627424596122e+00
4.320000000000000000e+04 6.817603964662788396e-01 6.817603964662788396e-01 6.817603964662788396e-01 6.817603964662788396e-01 6.817603964662788396e-01 6.817603964662788396e-01 6.817603964662788396e-01 6.817603964662788396e-01 6.817603964662788396e-01 6.817603964662788396e-01 6.817603964662788396e-01 6.817603964662788396e-01 6.817603964662788396e-01 6.817603964662788396e-01
4.680000000000000000e+04 9.037615815556991894e-01 9.037615815556991894e-01 9.037615815556991894e-01 9.037615815556991894e-01 9.037615815556991894e-01 9.037615815556991894e-01 9.037615815556991894e-01 9.037615815556991894e-01 9.037615815556991894e-01 9.037615815556991894e-01 9.037615815556991894e-01 9.037615815556991894e-01 9.037615815556991894e-01 9.037615815556991894e-01
5.040000000000000000e+04 9.725804937359558977e-01 9.725804937359558977e-01 9.725804937359558977e-01 9.725804937359558977e-01 9.725804937359558977e-01 9.725804937359558977e-01 9.725804937359558977e-01 9.725804937359558977e-01 9.725804937359558977e-01 9.725804937359558977e-01 9.725804937359558977e-01 9.725804937359558977e-01 9.725804937359558977e-01 9.725804937359558977e-01
5.400000000000000000e+04 7.383766693490583233e-01 7.383766693490583233e-01 7.383766693490583233e-01 7.383766693490583233e-01 7.383766693490583233e-01 7.383766693490583233e-01 7.383766693490583233e-01 7.383766693490583233e-01 7.383766693490583233e-01 7.383766693490583233e-01 7.383766693490583233e-01 7.383766693490583233e-01 7.383766693490583233e-01 7.383766693490583233e-01
5.760000000000000000e+04 7.725263951734540058e-01 7.725263951734540058e-01 7.725263951734540058e-01 7.725263951734540058e-01 7.725263951734540058e-01 7.725263951734540058e-01 7.725263951734540058e-01 7.725263951734540058e-01 7.725263951734540058e-01 7.725263951734540058e-01 7.725263951734540058e-01 7.725263951734540058e-01 7.725263951734540058e-01 7.725263951734540058e-01
6.120000000000000000e+04 5.073320756874177828e-01 5.073320756874177828e-01 5.073320756874177828e-01 5.073320756874177828e-01 5.073320756874177828e-01 5.073320756874177828e-01 5.073320756874177828e-01 5.073320756874177828e-01 5.073320756874177828e-01 5.073320756874177828e-01 5.073320756874177828e-01 5.073320756874177828e-01 5.073320756874177828e-01 5.073320756874177828e-01
6.480000000000000000e+04 1.165090036014405639e+00 1.165090036014405639e+00 1.165090036014405639e+00 1.165090036014405639e+00 1.165090036014405639e+00 1.165090036014405639e+00 1.165090036014405639e+00 1.165090036014405639e+00 1.165090036014405639e+00 1.165090036014405639e+00 1.165090036014405639e+00 1.165090036014405639e+00 1.165090036014405639e+00 1.165090036014405639e+00
6.840000000000000000e+04 1.017127554318430827e+00 1.017127554318430827e+00 1.017127554318430827e+00 1.017127554318430827e+00 1.017127554318430827e+00 1.017127554318430827e+00 1.017127554318430827e+00 1.017127554318430827e+00 1.017127554318430827e+00 1.017127554318430827e+00 1.017127554318430827e+00 1.017127554318430827e+00 1.017127554318430827e+00 1.017127554318430827e+00
7.200000000000000000e+04 1.274115008640819058e+00 1.274115008640819058e+00 1.274115008640819058e+00 1.274115008640819058e+00 1.274115008640819058e+00 1.274115008640819058e+00 1.274115008640819058e+00 1.274115008640819058e+00 1.274115008640819058e+00 1.274115008640819058e+00 1.274115008640819058e+00 1.274115008640819058e+00 1.274115008640819058e+00 1.274115008640819058e+00
7.560000000000000000e+04 9.397767458631803850e-01 9.397767458631803850e-01 9.397767458631803850e-01 9.397767458631803850e-01 9.397767458631803850e-01 9.397767458631803850e-01 9.397767458631803850e-01 9.397767458631803850e-01 9.397767458631803850e-01 9.397767458631803850e-01 9.397767458631803850e-01 9.397767458631803850e-01 9.397767458631803850e-01 9.397767458631803850e-01
7.920000000000000000e+04 1.033965586234493861e+00 1.033965586234493861e+00 1.033965586234493861e+00 1.033965586234493861e+00 1.033965586234493861e+00 1.033965586234493861e+00 1.033965586234493861e+00 1.033965586234493861e+00 1.033965586234493861e+00 1.033965586234493861e+00 1.033965586234493861e+00 1.033965586234493861e+00 1.033965586234493861e+00 1.033965586234493861e+00
8.280000000000000000e+04 1.728869833647744825e+00 1.728869833647744825e+00 1.728869833647744825e+00 1.728869833647744825e+00 1.728869833647744825e+00 1.728869833647744825e+00 1.728869833647744825e+00 1.728869833647744825e+00 1.728869833647744825e+00 1.728869833647744825e+00 1.728869833647744825e+00 1.728869833647744825e+00 1.728869833647744825e+00 1.728869833647744825e+00
