#1
double table(24,15)
0.000000000000000000e+00 6.627255473618019366e+00 6.627255473618019366e+00 6.627255473618019366e+00 6.627255473618019366e+00 6.627255473618019366e+00 6.627255473618019366e+00 6.627255473618019366e+00 6.627255473618019366e+00 6.627255473618019366e+00 6.627255473618019366e+00 6.627255473618019366e+00 6.627255473618019366e+00 6.627255473618019366e+00 6.627255473618019366e+00
3.600000000000000000e+03 5.029761618933287437e+00 5.029761618933287437e+00 5.029761618933287437e+00 5.029761618933287437e+00 5.029761618933287437e+00 5.029761618933287437e+00 5.029761618933287437e+00 5.029761618933287437e+00 5.029761618933287437e+00 5.029761618933287437e+00 5.029761618933287437e+00 5.029761618933287437e+00 5.029761618933287437e+00 5.029761618933287437e+00
7.200000000000000000e+03 4.124253129823357789e+00 4.124253129823357789e+00 4.124253129823357789e+00 4.124253129823357789e+00 4.124253129823357789e+00 4.124253129823357789e+00 4.124253129823357789e+00 4.124253129823357789e+00 4.124253129823357789e+00 4.124253129823357789e+00 4.124253129823357789e+00 4.124253129823357789e+00 4.124253129823357789e+00 4.124253129823357789e+00
1.080000000000000000e+04 3.298966443720345421e+00 3.298966443720345421e+00 3.298966443720345421e+00 3.298966443720345421e+00 3.298966443720345421e+00 3.298966443720345421e+00 3.298966443720345421e+00 3.298966443720345421e+00 3.298966443720345421e+00 3.298966443720345421e+00 3.298966443720345421e+00 3.298966443720345421e+00 3.298966443720345421e+00 3.298966443720345421e+00
1.440000000000000000e+04 2.819691305093466216e+00 2.819691305093466216e+00 2.819691305093466216e+00 2.819691305093466216e+00 2.819691305093466216e+00 2.819691305093466216e+00 2.819691305093466216e+00 2.819691305093466216e+00 2.819691305093466216e+00 2.819691305093466216e+00 2.819691305093466216e+00 2.819691305093466216e+00 2.819691305093466216e+00 2.819691305093466216e+00
1.800000000000000000e+04 2.023043503115531827e+00 2.023043503115531827e+00 2.023043503115531827e+00 2.023043503115531827e+00 2.023043503115531827e+00 2.023043503115531827e+00 2.023043503115531827e+00 2.023043503115531827e+00 2.023043503115531827e+00 2.023043503115531827e+00 2.023043503115531827e+00 2.023043503115531827e+00 2.023043503115531827e+00 2.023043503115531827e+00
2.160000000000000000e+04 1.738397073114960056e+00 1.738397073114960056e+00 1.738397073114960056e+00 1.738397073114960056e+00 1.738397073114960056e+00 1.738397073114960056e+00 1.738397073114960056e+00 1.738397073114960056e+00 1.738397073114960056e+00 1.738397073114960056e+00 1.738397073114960056e+00 1.738397073114960056e+00 1.738397073114960056e+00 1.738397073114960056e+00
2.520000000000000000e+04 1.429371748699479694e+00 1.429371748699479694e+00 1.429371748699479694e+00 1.429371748699479694e+00 1.429371748699479694e+00 1.429371748699479694e+00 1.429371748699479694e+00 1.429371748699479694e+00 1.429371748699479694e+00 1.429371748699479694e+00 1.429371748699479694e+00 1.429371748699479694e+00 1.429371748699479694e+00 1.429371748699479694e+00
2.880000000000000000e+04 1.445401017549877043e+00 1.445401017549877043e+00 1.445401017549877043e+00 1.445401017549877043e+00 1.445401017549877043e+00 1.445401017549877043e+00 1.445401017549877043e+00 1.445401017549877043e+00 1.445401017549877043e+00 1.445401017549877043e+00 1.445401017549877043e+00 1.445401017549877043e+00 1.445401017549877043e+00 1.445401017549877043e+00
3.240000000000000000e+04 1.367640506752151319e+00 1.367640506752151319e+00 1.367640506752151319e+00 1.367640506752151319e+00 1.367640506752151319e+00 1.367640506752151319e+00 1.367640506752151319e+00 1.367640506752151319e+00 1.367640506752151319e+00 1.367640506752151319e+00 1.367640506752151319e+00 1.367640506752151319e+00 1.367640506752151319e+00 1.367640506752151319e+00
3.600000000000000000e+04 1.870333364114876273e+00 1.870333364114876273e+00 1.870333364114876273e+00 1.870333364114876273e+00 1.870333364114876273e+00 1.870333364114876273e+00 1.870333364114876273e+00 1.870333364114876273e+00 1.870333364114876273e+00 1.870333364114876273e+00 1.870333364114876273e+00 1.870333364114876273e+00 1.870333364114876273e+00 1.870333364114876273e+00
3.960000000000000000e+04 1.366588261678297611e+00 1.366588261678297611e+00 1.366588261678297611e+00 1.366588261678297611e+00 1.366588261678297611e+00 1.366588261678297611e+00 1.366588261678297611e+00 1.366588261678297611e+00 1.366588261678297611e+00 1.366588261678297611e+00 1.366588261678297611e+00 1.366588261678297611e+00 1.366588261678297611e+00 1.366588261678297611e+00
4.320000000000000000e+04 1.785584343627560910e+00 1.785584343627560910e+00 1.785584343627560910e+00 1.785584343627560910e+00 1.785584343627560910e+00 1.785584343627560910e+00 1.785584343627560910e+00 1.785584343627560910e+00 1.785584343627560910e+00 1.785584343627560910e+00 1.785584343627560910e+00 1.785584343627560910e+00 1.785584343627560910e+00 1.785584343627560910e+00
4.680000000000000000e+04 1.423168080418980574e+00 1.423168080418980574e+00 1.423168080418980574e+00 1.423168080418980574e+00 1.423168080418980574e+00 1.423168080418980574e+00 1.423168080418980574e+00 1.423168080418980574e+00 1.423168080418980574e+00 1.423168080418980574e+00 1.423168080418980574e+00 1.423168080418980574e+00 1.423168080418980574e+00 1.423168080418980574e+00
5.040000000000000000e+04 1.165282783443047476e+00 1.165282783443047476e+00 1.165282783443047476e+00 1.165282783443047476e+00 1.165282783443047476e+00 1.165282783443047476e+00 1.165282783443047476e+00 1.165282783443047476e+00 1.165282783443047476e+00 1.165282783443047476e+00 1.165282783443047476e+00 1.165282783443047476e+00 1.165282783443047476e+00 1.165282783443047476e+00
5.400000000000000000e+04 1.498082749583349749e+00 1.498082749583349749e+00 1.498082749583349749e+00 1.498082749583349749e+00 1.498082749583349749e+00 1.498082749583349749e+00 1.498082749583349749e+00 1.498082749583349749e+00 1.498082749583349749e+00 1.498082749583349749e+00 1.498082749583349749e+00 1.498082749583349749e+00 1.498082749583349749e+00 1.498082749583349749e+00
5.760000000000000000e+04 1.464130080603670114e+00 1.464130080603670114e+00 1.464130080603670114e+00 1.464130080603670114e+00 1.464130080603670114e+00 1.464130080603670114e+00 1.464130080603670114e+00 1.464130080603670114e+00 1.464130080603670114e+00 1.464130080603670114e+00 1.464130080603670114e+00 1.464130080603670114e+00 1.464130080603670114e+00 1.464130080603670114e+00
6.120000000000000000e+04 2.113056651231921101e+00 2.113056651231921101e+00 2.113056651231921101e+00 2.113056651231921101e+00 2.113056651231921101e+00 2.113056651231921101e+00 2.113056651231921101e+00 2.113056651231921101e+00 2.113056651231921101e+00 2.113056651231921101e+00 2.113056651231921101e+00 2.113056651231921101e+00 2.113056651231921101e+00 2.113056651231921101e+00
6.480000000000000000e+04 2.945046590064597236e+00 2.945046590064597236e+00 2.945046590064597236e+00 2.945046590064597236e+00 2.945046590064597236e+00 2.945046590064597236e+00 2.945046590064597236e+00 2.945046590064597236e+00 2.945046590064597236e+00 2.945046590064597236e+00 2.945046590064597236e+00 2.945046590064597236e+00 2.945046590064597236e+00 2.945046590064597236e+00
6.840000000000000000e+04 4.352664054632842117e+00 4.352664054632842117e+00 4.352664054632842117e+00 4.352664054632842117e+00 4.352664054632842117e+00 4.352664054632842117e+00 4.352664054632842117e+00 4.352664054632842117e+00 4.352664054632842117e+00 4.352664054632842117e+00 4.352664054632842117e+00 4.352664054632842117e+00 4.352664054632842117e+00 4.352664054632842117e+00
7.200000000000000000e+04 5.370836158639280100e+00 5.370836158639280100e+00 5.370836158639280100e+00 5.370836158639280100e+00 5.370836158639280100e+00 5.370836158639280100e+00 5.370836158639280100e+00 5.370836158639280100e+00 5.370836158639280100e+00 5.370836158639280100e+00 5.370836158639280100e+00 5.370836158639280100e+00 5.370836158639280100e+00 5.370836158639280100e+00
7.560000000000000000e+04 5.285782137030635930e+00 5.285782137030635930e+00 5.285782137030635930e+00 5.285782137030635930e+00 5.285782137030635930e+00 5.285782137030635930e+00 5.285782137030635930e+00 5.285782137030635930e+00 5.285782137030635930e+00 5.285782137030635930e+00 5.285782137030635930e+00 5.285782137030635930e+00 5.285782137030635930e+00 5.285782137030635930e+00
7.920000000000000000e+04 6.210938661178756703e+00 6.210938661178756703e+00 6.210938661178756703e+00 6.210938661178756703e+00 6.210938661178756703e+00 6.210938661178756703e+00 6.210938661178756703e+00 6.210938661178756703e+00 6.210938661178756703e+00 6.210938661178756703e+00 6.210938661178756703e+00 6.210938661178756703e+00 6.210938661178756703e+00 6.210938661178756703e+00
8.280000000000000000e+04 7.275059738180986280e+00 7.275059738180986280e+00 7.275059738180986280e+00 7.275059738180986280e+00 7.275059738180986280e+00 7.275059738180986280e+00 7.275059738180986280e+00 7.275059738180986280e+00 7.275059738180986280e+00 7.275059738180986280e+00 7.275059738180986280e+00 7.275059738180986280e+00 7.275059738180986280e+00 7.275059738180986280e+00
